make[1]: Entering directory `/home/x/xiaojia/sn'
make test EVAL="test:dp(20)."
make[2]: Entering directory `/home/x/xiaojia/sn'
rebar compile
==> sn (compile)
time -p erl -sname mynode -pa ebin +P 100000000 -eval "test:dp(20)." -noinput +S 4:4
sn_app registered
memory_monitor registered
process_allocator registered
sn_server registered
client_monitor registered
DP 20: Down_Time=350
DP 18: Down_Time=360
DP 1: Down_Time=360
DP 10: Down_Time=360
DP 19: Down_Time=360
DP 4: Down_Time=370
DP 13: Down_Time=370
DP 5: Down_Time=380
DP 7: Down_Time=380
DP 14: Down_Time=390
DP 9: Down_Time=390
DP 2: Down_Time=390
DP 12: Down_Time=390
DP 11: Down_Time=390
DP 8: Down_Time=450
DP 3: Down_Time=570
DP 6: Down_Time=570
DP 17: Down_Time=580
DP 15: Down_Time=580
DP 16: Down_Time=580
client_monitor: Start_Time=350, End_Time=580, Start_Memory=826602664, End_Memory=826657512, Peak_Memory=826686856
client_monitor: 230 ms, 54848 bytes (end) / 84192 bytes (peak)
process_allocator: Alive=21, Pending=[], Limit=1000000, Max=4, Retired=20
real 69.52
user 0.79
sys 1.43
make[2]: Leaving directory `/home/x/xiaojia/sn'
make[1]: Leaving directory `/home/x/xiaojia/sn'
