make[1]: Entering directory `/home/x/xiaojia/sn'
make test EVAL="test:dp(30)."
make[2]: Entering directory `/home/x/xiaojia/sn'
rebar compile
==> sn (compile)
time -p erl -sname mynode -pa ebin +P 100000000 -eval "test:dp(30)." -noinput +S 4:4
sn_app registered
memory_monitor registered
process_allocator registered
sn_server registered
client_monitor registered
DP 30: Down_Time=190
DP 15: Down_Time=200
DP 20: Down_Time=200
DP 14: Down_Time=200
DP 12: Down_Time=200
DP 24: Down_Time=220
DP 23: Down_Time=220
DP 5: Down_Time=220
DP 19: Down_Time=220
DP 29: Down_Time=230
DP 27: Down_Time=230
DP 1: Down_Time=230
DP 28: Down_Time=230
DP 26: Down_Time=240
DP 4: Down_Time=240
DP 22: Down_Time=250
DP 25: Down_Time=270
DP 18: Down_Time=300
DP 21: Down_Time=300
DP 9: Down_Time=420
DP 2: Down_Time=590
DP 6: Down_Time=590
DP 13: Down_Time=600
DP 10: Down_Time=600
DP 17: Down_Time=600
DP 11: Down_Time=600
DP 16: Down_Time=610
DP 3: Down_Time=620
DP 7: Down_Time=620
DP 8: Down_Time=640
client_monitor: Start_Time=190, End_Time=650, Start_Memory=413762360, End_Memory=413909392, Peak_Memory=413946120
client_monitor: 460 ms, 147032 bytes (end) / 183760 bytes (peak)
process_allocator: Alive=31, Pending=[], Limit=1000000, Max=4, Retired=30
real 71.26
user 1.46
sys 0.86
make[2]: Leaving directory `/home/x/xiaojia/sn'
make[1]: Leaving directory `/home/x/xiaojia/sn'
