make[1]: Entering directory `/home/x/xiaojia/sn'
make test EVAL="test:dp(70)."
make[2]: Entering directory `/home/x/xiaojia/sn'
rebar compile
==> sn (compile)
time -p erl -sname mynode -pa ebin +P 100000000 -eval "test:dp(70)." -noinput +S 4:4
sn_app registered
memory_monitor registered
process_allocator registered
sn_server registered
client_monitor registered
DP 30: Down_Time=290
DP 8: Down_Time=300
DP 6: Down_Time=300
DP 35: Down_Time=300
DP 24: Down_Time=300
DP 43: Down_Time=300
DP 26: Down_Time=300
DP 26: Down_Time=300
DP 4: Down_Time=300
DP 4: Down_Time=300
DP 27: Down_Time=310
DP 52: Down_Time=310
DP 46: Down_Time=310
DP 54: Down_Time=310
DP 38: Down_Time=310
DP 22: Down_Time=310
DP 36: Down_Time=310
DP 34: Down_Time=310
DP 37: Down_Time=310
DP 65: Down_Time=310
DP 12: Down_Time=2200
DP 29: Down_Time=2200
DP 2: Down_Time=2200
DP 25: Down_Time=2210
DP 22: Down_Time=2210
DP 3: Down_Time=2210
DP 7: Down_Time=2220
DP 67: Down_Time=2220
DP 3: Down_Time=2220
DP 49: Down_Time=2220
DP 31: Down_Time=7670
DP 20: Down_Time=7670
DP 39: Down_Time=7700
DP 39: Down_Time=7700
DP 59: Down_Time=19950
DP 61: Down_Time=19950
DP 32: Down_Time=19950
DP 47: Down_Time=19950
DP 66: Down_Time=19950
DP 16: Down_Time=19950
DP 16: Down_Time=19950
DP 21: Down_Time=19950
DP 57: Down_Time=19960
DP 56: Down_Time=19960
DP 11: Down_Time=19960
DP 64: Down_Time=29390
DP 64: Down_Time=29390
DP 66: Down_Time=29390
DP 16: Down_Time=29390
DP 42: Down_Time=29400
DP 62: Down_Time=29400
DP 50: Down_Time=29400
DP 14: Down_Time=29400
DP 15: Down_Time=29400
DP 53: Down_Time=29410
DP 55: Down_Time=29410
DP 16: Down_Time=29410
DP 57: Down_Time=29420
DP 20: Down_Time=29420
DP 41: Down_Time=29420
DP 62: Down_Time=29420
DP 57: Down_Time=29420
DP 18: Down_Time=29420
DP 5: Down_Time=29420
DP 44: Down_Time=29420
DP 67: Down_Time=29430
DP 11: Down_Time=29430
DP 59: Down_Time=29430
DP 13: Down_Time=29430
DP 63: Down_Time=29430
DP 32: Down_Time=29430
DP 11: Down_Time=29430
DP 64: Down_Time=29430
DP 66: Down_Time=29430
DP 65: Down_Time=29430
DP 15: Down_Time=29430
DP 9: Down_Time=29430
DP 59: Down_Time=29430
DP 27: Down_Time=29440
DP 51: Down_Time=29440
DP 57: Down_Time=29480
DP 56: Down_Time=29480
DP 11: Down_Time=29510
DP 59: Down_Time=29510
DP 61: Down_Time=29510
DP 53: Down_Time=29520
DP 10: Down_Time=29520
DP 5: Down_Time=29520
DP 5: Down_Time=29520
DP 44: Down_Time=29530
DP 44: Down_Time=29530
DP 44: Down_Time=29530
DP 10: Down_Time=29540
DP 40: Down_Time=29540
DP 17: Down_Time=29540
DP 19: Down_Time=29560
DP 18: Down_Time=29590
DP 18: Down_Time=29610
DP 56: Down_Time=29610
DP 50: Down_Time=29610
DP 50: Down_Time=29610
DP 10: Down_Time=29610
DP 18: Down_Time=29610
DP 18: Down_Time=29610
DP 18: Down_Time=29610
DP 18: Down_Time=29610
DP 65: Down_Time=29760
DP 42: Down_Time=29760
DP 28: Down_Time=29760
DP 21: Down_Time=29770
DP 45: Down_Time=29770
DP 38: Down_Time=29780
DP 56: Down_Time=29810
DP 56: Down_Time=29840
DP 52: Down_Time=29880
DP 31: Down_Time=29890
DP 45: Down_Time=29890
DP 64: Down_Time=29890
DP 20: Down_Time=29890
DP 48: Down_Time=29890
DP 40: Down_Time=29890
DP 33: Down_Time=29890
DP 13: Down_Time=29890
DP 61: Down_Time=29890
DP 27: Down_Time=29900
DP 27: Down_Time=29900
DP 65: Down_Time=30010
DP 55: Down_Time=30010
DP 53: Down_Time=30030
DP 23: Down_Time=30060
DP 38: Down_Time=30060
DP 60: Down_Time=30060
DP 70: Down_Time=30070
DP 69: Down_Time=30070
DP 59: Down_Time=30150
DP 59: Down_Time=30160
DP 63: Down_Time=30160
DP 61: Down_Time=30160
DP 5: Down_Time=30160
DP 10: Down_Time=30160
DP 67: Down_Time=30170
DP 21: Down_Time=30170
DP 58: Down_Time=30170
DP 29: Down_Time=30170
DP 60: Down_Time=30170
DP 70: Down_Time=30170
DP 41: Down_Time=31490
DP 63: Down_Time=31500
DP 61: Down_Time=31500
DP 61: Down_Time=31510
DP 11: Down_Time=31510
DP 41: Down_Time=31520
DP 15: Down_Time=31520
DP 54: Down_Time=31520
DP 64: Down_Time=31520
DP 45: Down_Time=31530
DP 23: Down_Time=31530
DP 41: Down_Time=31540
DP 58: Down_Time=31550
DP 50: Down_Time=31560
DP 5: Down_Time=31570
DP 63: Down_Time=31570
DP 32: Down_Time=31590
DP 1: Down_Time=31590
DP 36: Down_Time=31600
DP 49: Down_Time=31670
DP 39: Down_Time=31680
DP 51: Down_Time=31730
DP 13: Down_Time=31730
DP 37: Down_Time=31900
DP 68: Down_Time=31900
DP 40: Down_Time=31910
DP 23: Down_Time=31910
DP 58: Down_Time=31920
DP 33: Down_Time=31930
DP 21: Down_Time=31950
DP 48: Down_Time=32000
DP 10: Down_Time=32030
DP 25: Down_Time=32030
DP 45: Down_Time=32030
DP 47: Down_Time=32260
DP 50: Down_Time=32260
client_monitor: Start_Time=290, End_Time=32260, Start_Memory=826592056, End_Memory=827578104, Peak_Memory=830063432
client_monitor: 31970 ms, 986048 bytes (end) / 3471376 bytes (peak)
process_allocator: Alive=71, Pending=[], Limit=1000000, Max=17, Retired=180
real 196.36
user 32.36
sys 42.67
make[2]: Leaving directory `/home/x/xiaojia/sn'
make[1]: Leaving directory `/home/x/xiaojia/sn'
