make[1]: Entering directory `/home/x/xiaojia/sn'
make test EVAL="test:dp(80)."
make[2]: Entering directory `/home/x/xiaojia/sn'
rebar compile
==> sn (compile)
time -p erl -sname mynode -pa ebin +P 100000000 -eval "test:dp(80)." -noinput +S 4:4
sn_app registered
memory_monitor registered
process_allocator registered
sn_server registered
client_monitor registered
DP 40: Down_Time=270
DP 75: Down_Time=280
DP 8: Down_Time=280
DP 58: Down_Time=280
DP 54: Down_Time=280
DP 17: Down_Time=280
DP 35: Down_Time=290
DP 32: Down_Time=290
DP 50: Down_Time=290
DP 38: Down_Time=300
DP 22: Down_Time=300
DP 21: Down_Time=300
DP 61: Down_Time=300
DP 15: Down_Time=300
DP 29: Down_Time=310
DP 62: Down_Time=310
DP 57: Down_Time=330
DP 57: Down_Time=330
DP 41: Down_Time=430
DP 43: Down_Time=430
DP 30: Down_Time=430
DP 37: Down_Time=430
DP 4: Down_Time=440
DP 72: Down_Time=440
DP 60: Down_Time=440
DP 71: Down_Time=440
DP 25: Down_Time=4490
DP 25: Down_Time=4490
DP 30: Down_Time=4490
DP 74: Down_Time=4490
DP 31: Down_Time=4490
DP 65: Down_Time=4490
DP 71: Down_Time=4500
DP 45: Down_Time=4530
DP 51: Down_Time=10540
DP 18: Down_Time=10540
DP 66: Down_Time=10580
DP 34: Down_Time=10580
DP 44: Down_Time=10580
DP 59: Down_Time=10580
DP 12: Down_Time=10580
DP 67: Down_Time=10580
DP 28: Down_Time=13990
DP 28: Down_Time=13990
DP 18: Down_Time=14000
DP 46: Down_Time=14000
DP 18: Down_Time=14000
DP 27: Down_Time=14000
DP 60: Down_Time=14180
DP 60: Down_Time=14180
DP 11: Down_Time=14180
DP 72: Down_Time=14180
DP 12: Down_Time=14180
DP 26: Down_Time=14180
DP 78: Down_Time=14190
DP 39: Down_Time=14190
DP 33: Down_Time=25660
DP 51: Down_Time=25660
DP 19: Down_Time=25660
DP 74: Down_Time=25670
DP 27: Down_Time=25670
DP 55: Down_Time=25670
DP 42: Down_Time=25670
DP 37: Down_Time=25670
DP 27: Down_Time=25670
DP 28: Down_Time=25680
DP 49: Down_Time=25690
DP 19: Down_Time=25690
DP 55: Down_Time=25690
DP 74: Down_Time=25690
DP 74: Down_Time=25690
DP 42: Down_Time=25690
DP 80: Down_Time=25690
DP 43: Down_Time=25700
DP 42: Down_Time=25700
DP 46: Down_Time=25700
DP 51: Down_Time=25800
DP 51: Down_Time=25800
DP 19: Down_Time=25810
DP 56: Down_Time=25830
DP 41: Down_Time=25830
DP 39: Down_Time=25840
DP 10: Down_Time=25840
DP 6: Down_Time=25840
DP 6: Down_Time=25840
DP 36: Down_Time=25840
DP 63: Down_Time=25840
DP 3: Down_Time=25840
DP 67: Down_Time=25840
DP 2: Down_Time=25840
DP 3: Down_Time=25840
DP 2: Down_Time=25840
DP 36: Down_Time=25840
DP 3: Down_Time=25850
DP 14: Down_Time=25850
DP 2: Down_Time=25850
DP 66: Down_Time=25850
DP 66: Down_Time=25850
DP 48: Down_Time=25850
DP 44: Down_Time=25850
DP 9: Down_Time=25850
DP 34: Down_Time=25850
DP 48: Down_Time=25850
DP 59: Down_Time=25850
DP 59: Down_Time=25850
DP 64: Down_Time=25860
DP 16: Down_Time=25860
DP 7: Down_Time=25860
DP 7: Down_Time=25860
DP 24: Down_Time=25860
DP 24: Down_Time=25860
DP 10: Down_Time=25870
DP 47: Down_Time=25870
DP 70: Down_Time=25870
DP 69: Down_Time=25870
DP 7: Down_Time=25870
DP 23: Down_Time=25870
DP 10: Down_Time=25870
DP 39: Down_Time=25870
DP 73: Down_Time=25870
DP 49: Down_Time=25880
DP 80: Down_Time=25890
DP 41: Down_Time=25890
DP 48: Down_Time=25900
DP 66: Down_Time=25900
DP 69: Down_Time=25900
DP 73: Down_Time=25900
DP 52: Down_Time=25910
DP 69: Down_Time=25910
DP 47: Down_Time=25910
DP 47: Down_Time=25910
DP 80: Down_Time=25910
DP 56: Down_Time=25910
DP 46: Down_Time=25910
DP 79: Down_Time=25910
DP 26: Down_Time=25910
DP 1: Down_Time=25910
DP 4: Down_Time=25910
DP 3: Down_Time=25910
DP 77: Down_Time=25910
DP 69: Down_Time=25920
DP 6: Down_Time=25920
DP 33: Down_Time=25920
DP 59: Down_Time=25920
DP 31: Down_Time=25920
DP 76: Down_Time=25920
DP 9: Down_Time=25920
DP 36: Down_Time=25920
DP 56: Down_Time=25980
DP 53: Down_Time=25990
DP 13: Down_Time=26010
DP 68: Down_Time=26100
DP 5: Down_Time=26100
DP 24: Down_Time=26310
DP 63: Down_Time=26320
DP 34: Down_Time=26690
DP 47: Down_Time=26690
DP 16: Down_Time=26690
DP 44: Down_Time=26690
DP 70: Down_Time=26690
DP 23: Down_Time=26700
DP 11: Down_Time=26700
DP 20: Down_Time=26730
DP 52: Down_Time=26780
client_monitor: Start_Time=260, End_Time=26780, Start_Memory=822854136, End_Memory=823626776, Peak_Memory=824799400
client_monitor: 26520 ms, 772640 bytes (end) / 1945264 bytes (peak)
process_allocator: Alive=81, Pending=[], Limit=1000000, Max=18, Retired=163
real 195.57
user 27.42
sys 50.16
make[2]: Leaving directory `/home/x/xiaojia/sn'
make[1]: Leaving directory `/home/x/xiaojia/sn'
