make[1]: Entering directory `/home/x/xiaojia/sn'
make test EVAL="test:fr(15)."
make[2]: Entering directory `/home/x/xiaojia/sn'
rebar compile
==> sn (compile)
time -p erl -sname mynode -pa ebin +P 100000000 -eval "test:fr(15)." -noinput +S 4:4
sn_app registered
memory_monitor registered
process_allocator registered
sn_server registered
client_monitor registered
Traveler 15: {15,{'RO','TO',115,['TO','CH','JU','LN']}}
Traveler 14: {14,{'NS','NY',12,['NY']}}
Traveler 13: {13,{'BS','MW',84,['MW','AZ','BN','CO']}}
Traveler 12: {12,{'AZ','HU',73,['HU','CH','JU','ML']}}
Traveler 11: {11,{'LN','RE',9,['RE','PS']}}
Traveler 10: {10,{'ML','JU',26,['JU']}}
Traveler 9: {9,{'LN','SO',72,['SO','BS','PS','RO']}}
Traveler 8: {8,{'RO','SO',18,['SO','BS']}}
Traveler 7: {7,{'NS','BY',89,['BY','BN','CO','RE']}}
Traveler 6: {6,{'RO','BD',69,['BD','CO','IL','RE']}}
Traveler 5: {5,{'SF','PS',56,['PS','CH','JU','LN']}}
Traveler 4: {4,{'SY','SI',49,['SI','GM','MA','ME']}}
Traveler 3: {3,{'ML','RE',41,['RE','AZ','BN','LN']}}
Traveler 2: {2,{'GM','MY',75,['MY','HU','JU','SF']}}
Traveler 1: {1,{'SY','CH',92,['CH','HU','JU','NS']}}
Traveler 12: arrived at 44990
Traveler 12: arrived at 45240
Traveler 3: arrived at 73280
Traveler 3: arrived at 93410
Traveler 3: arrived at 126080
Traveler 3: arrived at 126430
Traveler 3: arrived at 137010
Traveler 3: arrived at 150600
Traveler 3: arrived at 167670
Traveler 12: arrived at 171490
Traveler 12: arrived at 178500
Traveler 12: arrived at 188460
Traveler 12: arrived at 190980
Traveler 12: arrived at 195940
Traveler 3: arrived at 231810
Traveler 3: arrived at 269700
Traveler 3: arrived at 273310
Traveler 3: arrived at 306330
Traveler 3: arrived at 307680
Traveler 3: arrived at 310380
Traveler 3: arrived at 326200
Traveler 3: arrived at 328450
Traveler 3: arrived at 340040
Traveler 3: arrived at 341480
Traveler 3: arrived at 345500
Traveler 3: arrived at 356500
Traveler 12: arrived at 372130
Traveler 12: arrived at 378000
Traveler 12: arrived at 378030
Traveler 12: arrived at 389340
Traveler 3: arrived at 393010
Traveler 3: arrived at 444440
Traveler 12: arrived at 446180
Traveler 3: arrived at 456260
Traveler 3: arrived at 464430
Traveler 3: arrived at 476300
Traveler 3: arrived at 482720
Traveler 3: arrived at 486250
Traveler 3: arrived at 489270
Traveler 12: arrived at 491950
Traveler 3: arrived at 511640
Traveler 3: arrived at 517550
Traveler 3: arrived at 534250
Traveler 12: arrived at 534570
Traveler 3: arrived at 540280
Traveler 12: arrived at 542740
Traveler 12: arrived at 559040
Traveler 12: arrived at 560930
Traveler 3: arrived at 562030
Traveler 12: arrived at 573800
Traveler 12: arrived at 580560
Traveler 3: arrived at 580600
Traveler 3: arrived at 581420
Traveler 3: arrived at 584390
Traveler 12: arrived at 586460
Traveler 3: arrived at 590690
Traveler 3: arrived at 591320
Traveler 3: arrived at 598220
Traveler 12: arrived at 600620
Traveler 12: arrived at 602180
Traveler 12: arrived at 620650
Traveler 12: arrived at 623290
Traveler 12: arrived at 627850
Traveler 3: arrived at 636260
Traveler 3: arrived at 638070
Traveler 3: arrived at 639900
Traveler 12: arrived at 639950
Traveler 3: arrived at 646590
Traveler 3: arrived at 646740
Traveler 12: arrived at 653120
Traveler 3: arrived at 656950
Traveler 12: arrived at 657570
Traveler 12: arrived at 674780
Traveler 12: arrived at 675820
Traveler 12: arrived at 702900
Traveler 12: arrived at 726440
Traveler 12: arrived at 727660
Traveler 3: arrived at 749520
Traveler 3: arrived at 757060
Traveler 3: arrived at 775410
Traveler 3: arrived at 779190
Traveler 3: arrived at 779300
Traveler 12: arrived at 779650
Traveler 12: arrived at 781140
Traveler 3: arrived at 781180
Traveler 3: arrived at 789300
Traveler 3: arrived at 789480
Traveler 12: arrived at 790240
Traveler 3: arrived at 794950
Traveler 12: arrived at 798210
Traveler 3: arrived at 799320
Traveler 3: arrived at 801630
Traveler 3: arrived at 807770
Traveler 4: arrived at 810730
Traveler 3: arrived at 821340
Traveler 3: arrived at 835080
Traveler 3: arrived at 843880
Traveler 3: arrived at 845020
Traveler 12: arrived at 845980
Traveler 12: arrived at 846260
Traveler 3: arrived at 848190
Traveler 3: arrived at 850260
Traveler 3: arrived at 851850
Traveler 3: arrived at 854330
Traveler 3: arrived at 854810
Traveler 3: arrived at 856430
Traveler 12: arrived at 858030
Traveler 12: arrived at 858980
Traveler 3: arrived at 860980
Traveler 12: arrived at 861470
Traveler 3: arrived at 861980
Traveler 3: arrived at 862680
Traveler 3: arrived at 864320
Traveler 3: arrived at 864560
Traveler 12: arrived at 879970
Traveler 3: arrived at 881470
Traveler 3: arrived at 887220
Traveler 12: arrived at 894680
Traveler 12: arrived at 918190
Traveler 3: arrived at 922510
Traveler 3: arrived at 925230
Traveler 3: arrived at 933200
Traveler 12: arrived at 936450
Traveler 12: arrived at 936620
Traveler 4: arrived at 953600
Traveler 3: arrived at 957910
Traveler 12: arrived at 961150
Traveler 3: arrived at 962540
Traveler 3: arrived at 965240
Traveler 4: arrived at 991300
Traveler 12: arrived at 1005270
Traveler 12: arrived at 1013750
Traveler 4: arrived at 1043710
Traveler 3: arrived at 1044770
Traveler 12: arrived at 1052560
Traveler 3: arrived at 1057470
Traveler 4: arrived at 1061260
Traveler 3: arrived at 1068160
Traveler 3: arrived at 1069870
Traveler 12: arrived at 1076810
Traveler 12: arrived at 1080430
Traveler 3: arrived at 1088910
Traveler 3: arrived at 1089170
Traveler 3: arrived at 1091150
Traveler 4: arrived at 1092890
Traveler 3: arrived at 1096350
Traveler 3: arrived at 1106000
Traveler 3: arrived at 1115770
Traveler 3: arrived at 1120550
Traveler 3: arrived at 1124680
Traveler 3: arrived at 1127960
Traveler 3: arrived at 1131580
Traveler 3: arrived at 1131800
Traveler 3: arrived at 1132680
Traveler 3: arrived at 1169760
Traveler 3: arrived at 1170380
Traveler 4: arrived at 1177540
Traveler 3: arrived at 1181300
Traveler 3: arrived at 1187900
Traveler 4: arrived at 1191620
Traveler 12: arrived at 1193260
Traveler 3: arrived at 1196040
Traveler 4: arrived at 1196630
Traveler 12: arrived at 1200350
Traveler 3: arrived at 1200660
Traveler 3: arrived at 1211150
Traveler 12: arrived at 1214420
Traveler 4: arrived at 1216790
Traveler 3: arrived at 1221520
Traveler 3: arrived at 1239860
Traveler 4: arrived at 1255890
Traveler 3: arrived at 1260600
Traveler 2: arrived at 1265170
Traveler 3: arrived at 1277310
Traveler 12: arrived at 1307250
Traveler 12: arrived at 1318920
Traveler 3: arrived at 1322060
Traveler 3: arrived at 1332910
Traveler 3: arrived at 1341010
Traveler 4: arrived at 1358230
Traveler 3: arrived at 1358830
Traveler 13: arrived at 1363590
Traveler 13: arrived at 1375030
Traveler 3: arrived at 1402420
Traveler 3: arrived at 1414680
Traveler 2: arrived at 1439190
Traveler 12: arrived at 1453750
Traveler 4: arrived at 1454190
Traveler 3: arrived at 1455310
Traveler 3: arrived at 1456250
Traveler 3: arrived at 1464370
Traveler 2: arrived at 1468820
Traveler 3: arrived at 1472190
Traveler 3: arrived at 1485620
Traveler 3: arrived at 1493650
Traveler 4: arrived at 1498430
Traveler 3: arrived at 1503750
Traveler 3: arrived at 1516000
Traveler 12: arrived at 1527930
Traveler 4: arrived at 1529230
Traveler 3: arrived at 1529440
Traveler 2: arrived at 1534880
Traveler 3: arrived at 1539690
Traveler 4: arrived at 1541740
Traveler 2: arrived at 1544970
Traveler 12: arrived at 1547210
Traveler 3: arrived at 1549320
Traveler 14: arrived at 1550380
Traveler 12: arrived at 1552580
Traveler 4: arrived at 1554120
Traveler 3: arrived at 1555570
Traveler 3: arrived at 1561080
Traveler 12: arrived at 1577190
Traveler 12: arrived at 1582530
Traveler 12: arrived at 1582630
Traveler 3: arrived at 1602540
Traveler 2: arrived at 1606100
Traveler 2: arrived at 1607600
Traveler 3: arrived at 1612730
Traveler 4: arrived at 1617350
Traveler 3: arrived at 1620590
Traveler 3: arrived at 1622740
Traveler 3: arrived at 1628380
Traveler 11: arrived at 1634650
Traveler 4: arrived at 1640420
Traveler 9: arrived at 1645510
Traveler 3: arrived at 1651120
Traveler 3: arrived at 1652310
Traveler 2: arrived at 1654130
Traveler 3: arrived at 1654170
Traveler 3: arrived at 1659080
Traveler 4: arrived at 1659130
Traveler 12: arrived at 1661070
Traveler 2: arrived at 1663670
Traveler 13: arrived at 1664320
Traveler 4: arrived at 1667570
Traveler 3: arrived at 1683840
Traveler 12: arrived at 1684040
Traveler 12: arrived at 1688420
Traveler 12: arrived at 1705500
Traveler 12: arrived at 1705760
Traveler 3: arrived at 1714170
Traveler 9: arrived at 1722310
Traveler 3: arrived at 1726810
Traveler 2: arrived at 1729910
Traveler 12: arrived at 1734100
Traveler 12: arrived at 1735260
Traveler 3: arrived at 1743350
Traveler 2: arrived at 1751620
Traveler 3: arrived at 1752810
Traveler 3: arrived at 1754010
Traveler 12: arrived at 1765170
Traveler 12: arrived at 1776170
Traveler 14: arrived at 1788910
Traveler 14: arrived at 1789800
Traveler 12: arrived at 1795340
Traveler 12: arrived at 1810670
Traveler 4: arrived at 1830410
Traveler 14: arrived at 1836870
Traveler 12: arrived at 1840510
Traveler 10: arrived at 1844570
Traveler 12: arrived at 1862460
Traveler 12: arrived at 1869010
Traveler 14: arrived at 1879250
Traveler 11: arrived at 1890750
Traveler 12: arrived at 1896380
Traveler 3: arrived at 1908240
Traveler 4: arrived at 1918490
Traveler 3: arrived at 1924180
Traveler 14: arrived at 1937160
Traveler 4: arrived at 1949120
Traveler 14: arrived at 1956070
Traveler 4: arrived at 1958020
Traveler 1: arrived at 1962150
Traveler 11: arrived at 1966800
Traveler 3: arrived at 1969330
Traveler 3: arrived at 1971100
Traveler 12: arrived at 1972870
Traveler 12: arrived at 1974920
Traveler 2: arrived at 1978410
Traveler 12: arrived at 1982970
Traveler 12: arrived at 1982980
Traveler 12: arrived at 1983000
Traveler 12: arrived at 1988350
Traveler 12: arrived at 1988420
Traveler 3: arrived at 1989680
Traveler 12: arrived at 1996800
Traveler 6: arrived at 1997890
Traveler 15: arrived at 2000960
Traveler 12: arrived at 2003460
Traveler 13: arrived at 2003780
Traveler 3: arrived at 2007330
Traveler 9: arrived at 2007420
Traveler 12: arrived at 2008180
Traveler 2: arrived at 2011540
Traveler 9: arrived at 2012690
Traveler 2: arrived at 2016630
Traveler 13: arrived at 2019280
Traveler 11: arrived at 2019530
Traveler 15: arrived at 2024500
Traveler 8: arrived at 2030480
Traveler 11: arrived at 2033090
Traveler 11: arrived at 2037840
Traveler 5: arrived at 2042660
Traveler 1: arrived at 2046240
Traveler 7: arrived at 2050870
sleep before finalize
Traveler 12: arrived at 2063420
finalize!
client_monitor: Start_Time=190, End_Time=2071250, Start_Memory=413778808, End_Memory=522288888, Peak_Memory=2398419880
client_monitor: 2071060 ms, 108510080 bytes (end) / 1984641072 bytes (peak)
process_allocator: Alive=31730, Pending=[], Limit=1000000, Max=102256, Retired=300

=ERROR REPORT==== 13-Nov-2012::19:15:46 ===
Error in process <0.21285.9> on node 'mynode@compg6' with exit value: {badarg,[{client_monitor,spawn,1,[{file,"src/client_monitor.erl"},{line,20}]},{sn,tell_world,3,[{file,"src/sn.erl"},{line,92}]}]}


=ERROR REPORT==== 13-Nov-2012::19:15:46 ===
Error in process <0.21585.9> on node 'mynode@compg6' with exit value: {badarg,[{client_monitor,spawn,1,[{file,"src/client_monitor.erl"},{line,20}]},{sn,tell_world,3,[{file,"src/sn.erl"},{line,92}]}]}


=ERROR REPORT==== 13-Nov-2012::19:15:46 ===
Error in process <0.3674.1> on node 'mynode@compg6' with exit value: {badarg,[{client_monitor,spawn,1,[{file,"src/client_monitor.erl"},{line,20}]},{sn,tell_world,3,[{file,"src/sn.erl"},{line,92}]}]}


=ERROR REPORT==== 13-Nov-2012::19:15:46 ===
Error in process <0.21406.9> on node 'mynode@compg6' with exit value: {badarg,[{client_monitor,spawn,1,[{file,"src/client_monitor.erl"},{line,20}]},{sn,tell_world,3,[{file,"src/sn.erl"},{line,92}]}]}


=ERROR REPORT==== 13-Nov-2012::19:15:46 ===
Error in process <0.3707.1> on node 'mynode@compg6' with exit value: {badarg,[{client_monitor,spawn,1,[{file,"src/client_monitor.erl"},{line,20}]},{sn,tell_world,3,[{file,"src/sn.erl"},{line,92}]}]}


=ERROR REPORT==== 13-Nov-2012::19:15:46 ===
Error in process <0.21013.9> on node 'mynode@compg6' with exit value: {badarg,[{client_monitor,spawn,1,[{file,"src/client_monitor.erl"},{line,20}]},{sn,tell_world,3,[{file,"src/sn.erl"},{line,92}]}]}


=ERROR REPORT==== 13-Nov-2012::19:15:46 ===
Error in process <0.3691.1> on node 'mynode@compg6' with exit value: {badarg,[{client_monitor,spawn,1,[{file,"src/client_monitor.erl"},{line,20}]},{sn,tell_world,3,[{file,"src/sn.erl"},{line,92}]}]}


=ERROR REPORT==== 13-Nov-2012::19:15:46 ===
Error in process <0.21400.9> on node 'mynode@compg6' with exit value: {badarg,[{client_monitor,spawn,1,[{file,"src/client_monitor.erl"},{line,20}]},{sn,tell_world,3,[{file,"src/sn.erl"},{line,92}]}]}


=ERROR REPORT==== 13-Nov-2012::19:15:46 ===
Error in process <0.22397.9> on node 'mynode@compg6' with exit value: {badarg,[{client_monitor,spawn,1,[{file,"src/client_monitor.erl"},{line,20}]},{sn,tell_world,3,[{file,"src/sn.erl"},{line,92}]}]}


=ERROR REPORT==== 13-Nov-2012::19:15:46 ===
Error in process <0.3685.1> on node 'mynode@compg6' with exit value: {badarg,[{client_monitor,spawn,1,[{file,"src/client_monitor.erl"},{line,20}]},{sn,tell_world,3,[{file,"src/sn.erl"},{line,92}]}]}


=ERROR REPORT==== 13-Nov-2012::19:15:46 ===
Error in process <0.21395.9> on node 'mynode@compg6' with exit value: {badarg,[{client_monitor,spawn,1,[{file,"src/client_monitor.erl"},{line,20}]},{sn,tell_world,3,[{file,"src/sn.erl"},{line,92}]}]}


=ERROR REPORT==== 13-Nov-2012::19:15:46 ===
Error in process <0.21569.9> on node 'mynode@compg6' with exit value: {badarg,[{client_monitor,spawn,1,[{file,"src/client_monitor.erl"},{line,20}]},{sn,tell_world,3,[{file,"src/sn.erl"},{line,92}]}]}


=ERROR REPORT==== 13-Nov-2012::19:15:46 ===
Error in process <0.21426.9> on node 'mynode@compg6' with exit value: {badarg,[{client_monitor,spawn,1,[{file,"src/client_monitor.erl"},{line,20}]},{sn,tell_world,3,[{file,"src/sn.erl"},{line,92}]}]}


=ERROR REPORT==== 13-Nov-2012::19:15:46 ===
Error in process <0.3763.1> on node 'mynode@compg6' with exit value: {badarg,[{client_monitor,spawn,1,[{file,"src/client_monitor.erl"},{line,20}]},{sn,tell_world,3,[{file,"src/sn.erl"},{line,92}]}]}


=ERROR REPORT==== 13-Nov-2012::19:15:46 ===
Error in process <0.21504.9> on node 'mynode@compg6' with exit value: {badarg,[{client_monitor,spawn,1,[{file,"src/client_monitor.erl"},{line,20}]},{sn,tell_world,3,[{file,"src/sn.erl"},{line,92}]}]}


=ERROR REPORT==== 13-Nov-2012::19:15:46 ===
Error in process <0.22313.9> on node 'mynode@compg6' with exit value: {badarg,[{client_monitor,spawn,1,[{file,"src/client_monitor.erl"},{line,20}]},{sn,tell_world,3,[{file,"src/sn.erl"},{line,92}]}]}


=ERROR REPORT==== 13-Nov-2012::19:15:46 ===
Error in process <0.19921.9> on node 'mynode@compg6' with exit value: {badarg,[{client_monitor,spawn,1,[{file,"src/client_monitor.erl"},{line,20}]},{sn,tell_world,3,[{file,"src/sn.erl"},{line,92}]}]}


=ERROR REPORT==== 13-Nov-2012::19:15:46 ===
Error in process <0.27255.4> on node 'mynode@compg6' with exit value: {badarg,[{client_monitor,spawn,1,[{file,"src/client_monitor.erl"},{line,20}]},{sn,tell_world,3,[{file,"src/sn.erl"},{line,92}]}]}


=ERROR REPORT==== 13-Nov-2012::19:15:46 ===
Error in process <0.22319.9> on node 'mynode@compg6' with exit value: {badarg,[{client_monitor,spawn,1,[{file,"src/client_monitor.erl"},{line,20}]},{sn,tell_world,3,[{file,"src/sn.erl"},{line,92}]}]}


=ERROR REPORT==== 13-Nov-2012::19:15:46 ===
Error in process <0.21305.9> on node 'mynode@compg6' with exit value: {badarg,[{client_monitor,spawn,1,[{file,"src/client_monitor.erl"},{line,20}]},{sn,tell_world,3,[{file,"src/sn.erl"},{line,92}]}]}


=ERROR REPORT==== 13-Nov-2012::19:15:46 ===
Error in process <0.21476.9> on node 'mynode@compg6' with exit value: {badarg,[{client_monitor,spawn,1,[{file,"src/client_monitor.erl"},{line,20}]},{sn,tell_world,3,[{file,"src/sn.erl"},{line,92}]}]}


=ERROR REPORT==== 13-Nov-2012::19:15:46 ===
Error in process <0.5719.1> on node 'mynode@compg6' with exit value: {badarg,[{client_monitor,spawn,1,[{file,"src/client_monitor.erl"},{line,20}]},{sn,tell_world,3,[{file,"src/sn.erl"},{line,92}]}]}


=ERROR REPORT==== 13-Nov-2012::19:15:46 ===
Error in process <0.21595.9> on node 'mynode@compg6' with exit value: {badarg,[{client_monitor,spawn,1,[{file,"src/client_monitor.erl"},{line,20}]},{sn,tell_world,3,[{file,"src/sn.erl"},{line,92}]}]}


=ERROR REPORT==== 13-Nov-2012::19:15:46 ===
Error in process <0.21570.9> on node 'mynode@compg6' with exit value: {badarg,[{client_monitor,spawn,1,[{file,"src/client_monitor.erl"},{line,20}]},{sn,tell_world,3,[{file,"src/sn.erl"},{line,92}]}]}


=ERROR REPORT==== 13-Nov-2012::19:15:46 ===
Error in process <0.21543.9> on node 'mynode@compg6' with exit value: {badarg,[{client_monitor,spawn,1,[{file,"src/client_monitor.erl"},{line,20}]},{sn,tell_world,3,[{file,"src/sn.erl"},{line,92}]}]}


=ERROR REPORT==== 13-Nov-2012::19:15:46 ===
Error in process <0.22339.9> on node 'mynode@compg6' with exit value: {badarg,[{client_monitor,spawn,1,[{file,"src/client_monitor.erl"},{line,20}]},{sn,tell_world,3,[{file,"src/sn.erl"},{line,92}]}]}


=ERROR REPORT==== 13-Nov-2012::19:15:46 ===
Error in process <0.21381.9> on node 'mynode@compg6' with exit value: {badarg,[{client_monitor,spawn,1,[{file,"src/client_monitor.erl"},{line,20}]},{sn,tell_world,3,[{file,"src/sn.erl"},{line,92}]}]}

{error_logger,{{2012,11,13},{19,15,46}},"~s~n",["Error in process <0.21482.9> with exit value: {badarg,[{client_monitor,spawn,1,[{file,\"src/client_monitor.erl\"},{line,20}]},{sn,tell_world,3,[{file,\"src/sn.erl\"},{line,92}]}]}\n"]}
{error_logger,{{2012,11,13},{19,15,46}},"~s~n",["Error in process <0.21417.9> with exit value: {badarg,[{client_monitor,spawn,1,[{file,\"src/client_monitor.erl\"},{line,20}]},{sn,tell_world,3,[{file,\"src/sn.erl\"},{line,92}]}]}\n"]}
{error_logger,{{2012,11,13},{19,15,46}},"~s~n",["Error in process <0.3686.1> with exit value: {badarg,[{client_monitor,spawn,1,[{file,\"src/client_monitor.erl\"},{line,20}]},{sn,tell_world,3,[{file,\"src/sn.erl\"},{line,92}]}]}\n"]}
{error_logger,{{2012,11,13},{19,15,47}},"~s~n",["Error in process <0.21518.9> with exit value: {badarg,[{client_monitor,spawn,1,[{file,\"src/client_monitor.erl\"},{line,20}]},{sn,tell_world,3,[{file,\"src/sn.erl\"},{line,92}]}]}\n"]}
{error_logger,{{2012,11,13},{19,15,47}},"~s~n",["Error in process <0.21411.9> with exit value: {badarg,[{client_monitor,spawn,1,[{file,\"src/client_monitor.erl\"},{line,20}]},{sn,tell_world,3,[{file,\"src/sn.erl\"},{line,92}]}]}\n"]}
{error_logger,{{2012,11,13},{19,15,47}},"~s~n",["Error in process <0.21549.9> with exit value: {badarg,[{client_monitor,spawn,1,[{file,\"src/client_monitor.erl\"},{line,20}]},{sn,tell_world,3,[{file,\"src/sn.erl\"},{line,92}]}]}\n"]}
{error_logger,{{2012,11,13},{19,15,47}},"~s~n",["Error in process <0.22479.9> with exit value: {badarg,[{client_monitor,spawn,1,[{file,\"src/client_monitor.erl\"},{line,20}]},{sn,tell_world,3,[{file,\"src/sn.erl\"},{line,92}]}]}\n"]}
{error_logger,{{2012,11,13},{19,15,47}},"~s~n",["Error in process <0.21602.9> with exit value: {badarg,[{client_monitor,spawn,1,[{file,\"src/client_monitor.erl\"},{line,20}]},{sn,tell_world,3,[{file,\"src/sn.erl\"},{line,92}]}]}\n"]}
{error_logger,{{2012,11,13},{19,15,47}},"~s~n",["Error in process <0.12852.2> with exit value: {badarg,[{client_monitor,spawn,1,[{file,\"src/client_monitor.erl\"},{line,20}]},{sn,tell_world,3,[{file,\"src/sn.erl\"},{line,92}]}]}\n"]}
{error_logger,{{2012,11,13},{19,15,47}},"~s~n",["Error in process <0.22572.9> with exit value: {badarg,[{client_monitor,spawn,1,[{file,\"src/client_monitor.erl\"},{line,20}]},{sn,tell_world,3,[{file,\"src/sn.erl\"},{line,92}]}]}\n"]}
{error_logger,{{2012,11,13},{19,15,47}},"~s~n",["Error in process <0.21573.9> with exit value: {badarg,[{client_monitor,spawn,1,[{file,\"src/client_monitor.erl\"},{line,20}]},{sn,tell_world,3,[{file,\"src/sn.erl\"},{line,92}]}]}\n"]}
(no error logger present) error: "Error in process <0.27223.4> with exit value: {badarg,[{client_monitor,spawn,1,[{file,\"src/client_monitor.erl\"},{line,20}]},{sn,tell_world,3,[{file,\"src/sn.erl\"},{line,92}]}]}\n"
(no error logger present) error: "Error in process <0.27106.4> with exit value: {badarg,[{client_monitor,spawn,1,[{file,\"src/client_monitor.erl\"},{line,20}]},{sn,tell_world,3,[{file,\"src/sn.erl\"},{line,92}]}]}\n"
(no error logger present) error: "Error in process <0.13215.2> with exit value: {badarg,[{client_monitor,spawn,1,[{file,\"src/client_monitor.erl\"},{line,20}]},{sn,tell_world,3,[{file,\"src/sn.erl\"},{line,92}]}]}\n"
(no error logger present) error: "Error in process <0.22103.9> with exit value: {badarg,[{client_monitor,spawn,1,[{file,\"src/client_monitor.erl\"},{line,20}]},{sn,tell_world,3,[{file,\"src/sn.erl\"},{line,92}]}]}\n"
(no error logger present) error: "Error in process <0.27355.4> with exit value: {badarg,[{client_monitor,spawn,1,[{file,\"src/client_monitor.erl\"},{line,20}]},{sn,tell_world,3,[{file,\"src/sn.erl\"},{line,92}]}]}\n"
(no error logger present) error: "Error in process <0.21350.9> with exit value: {badarg,[{client_monitor,spawn,1,[{file,\"src/client_monitor.erl\"},{line,20}]},{sn,tell_world,3,[{file,\"src/sn.erl\"},{line,92}]}]}\n"
(no error logger present) error: "Error in process <0.21497.9> with exit value: {badarg,[{client_monitor,spawn,1,[{file,\"src/client_monitor.erl\"},{line,20}]},{sn,tell_world,3,[{file,\"src/sn.erl\"},{line,92}]}]}\n"
(no error logger present) error: "Error in process <0.30313.0> with exit value: {badarg,[{client_monitor,spawn,1,[{file,\"src/client_monitor.erl\"},{line,20}]},{sn,tell_world,3,[{file,\"src/sn.erl\"},{line,92}]}]}\n"
(no error logger present) error: "Error in process <0.27458.4> with exit value: {badarg,[{client_monitor,spawn,1,[{file,\"src/client_monitor.erl\"},{line,20}]},{sn,tell_world,3,[{file,\"src/sn.erl\"},{line,92}]}]}\n"
real 1465.59
user 2071.87
sys 2311.25
make[2]: Leaving directory `/home/x/xiaojia/sn'
make[1]: Leaving directory `/home/x/xiaojia/sn'
