make[1]: Entering directory `/home/x/xiaojia/sn'
make test EVAL="test:fr(25)."
make[2]: Entering directory `/home/x/xiaojia/sn'
rebar compile
==> sn (compile)
time -p erl -sname mynode -pa ebin +P 100000000 -eval "test:fr(25)." -noinput +S 4:4
sn_app registered
memory_monitor registered
process_allocator registered
sn_server registered
client_monitor registered
Traveler 25: {25,{'LN','MY',56,['MY','CH','ML','NS']}}
Traveler 24: {24,{'RO','TO',115,['TO','CH','JU','LN']}}
Traveler 23: {23,{'SE','CO',68,['CO','MW','PS','RE']}}
Traveler 22: {22,{'GM','MW',61,['MW','MA','SI','TO']}}
Traveler 21: {21,{'GM','BY',48,['BY','MA','SI']}}
Traveler 20: {20,{'SF','SO',59,['SO','MY','NS','PY']}}
Traveler 19: {19,{'SY','MA',39,['MA','ME']}}
Traveler 18: {18,{'NS','PS',48,['PS','AZ','CH','LN']}}
Traveler 17: {17,{'BN','SO',78,['SO','AZ','BS','LN']}}
Traveler 16: {16,{'BS','TO',114,['TO','CH','GM','HU']}}
Traveler 15: {15,{'SY','NY',100,['NY','CH','HU','JU']}}
Traveler 14: {14,{'ML','SI',70,['SI','JU','NY','TO']}}
Traveler 13: {13,{'BS','SI',122,['SI','GM','JU','LN']}}
Traveler 12: {12,{'SE','PS',50,['PS','LN']}}
Traveler 11: {11,{'SY','TO',48,['TO','GM']}}
Traveler 10: {10,{'SE','BD',68,['BD','BN','IL','JU']}}
Traveler 9: {9,{'BS','CH',56,['CH','NS','NY','PY']}}
Traveler 8: {8,{'BS','RE',69,['RE','AZ','PS','RO']}}
Traveler 7: {7,{'ML','BD',58,['BD','CO','IL','LN']}}
Traveler 6: {6,{'ME','CO',87,['CO','BD','BY','SY']}}
Traveler 5: {5,{'IL','MA',57,['MA','BD','BY','MW']}}
Traveler 4: {4,{'BS','PS',69,['PS','AZ','LN','RO']}}
Traveler 3: {3,{'ME','RE',99,['RE','MA','MW','SI']}}
Traveler 2: {2,{'BN','HU',73,['HU','JU','LN','MW']}}
Traveler 1: {1,{'GM','RE',76,['RE','BD','BN','CO']}}
Traveler 6: arrived at 2310 by XY
Traveler 6: arrived at 2330 by XY
Traveler 6: arrived at 2330 by XY
Traveler 6: arrived at 2330 by XY
Traveler 6: arrived at 2330 by XY
Traveler 6: arrived at 2330 by XY
Traveler 6: arrived at 2340 by XY
Traveler 6: arrived at 2340 by XY
Traveler 18: arrived at 2340 by XY
Traveler 18: arrived at 2340 by XY
Traveler 24: arrived at 2340 by XZY
Traveler 6: arrived at 2340 by XY
Traveler 6: arrived at 2340 by XY
Traveler 24: arrived at 2350 by XZY
Traveler 17: arrived at 2350 by XY
Traveler 16: arrived at 2480 by XY
Traveler 15: arrived at 2620 by XY
Traveler 15: arrived at 2640 by XY
Traveler 15: arrived at 2640 by XY
Traveler 24: arrived at 3030 by XZY
Traveler 24: arrived at 3050 by XZY
Traveler 17: arrived at 3330 by XY
Traveler 6: arrived at 3620 by XY
Traveler 16: arrived at 3730 by XY
Traveler 8: arrived at 4450 by XY
Traveler 8: arrived at 4500 by XY
Traveler 9: arrived at 4600 by XY
Traveler 16: arrived at 5030 by XY
Traveler 16: arrived at 5030 by XY
Traveler 15: arrived at 5040 by XY
Traveler 15: arrived at 5040 by XY
Traveler 8: arrived at 5040 by XY
Traveler 13: arrived at 5040 by XY
Traveler 13: arrived at 5050 by XY
Traveler 13: arrived at 5050 by XY
Traveler 6: arrived at 5050 by XY
Traveler 6: arrived at 5050 by XY
Traveler 6: arrived at 5090 by XY
Traveler 8: arrived at 5100 by XY
Traveler 8: arrived at 5100 by XY
Traveler 16: arrived at 5100 by XY
Traveler 6: arrived at 5100 by XY
Traveler 24: arrived at 5110 by XZY
Traveler 24: arrived at 5110 by XZY
Traveler 6: arrived at 5110 by XY
Traveler 15: arrived at 5150 by XY
Traveler 16: arrived at 5150 by XY
Traveler 16: arrived at 5150 by XY
Traveler 20: arrived at 5220 by XY
Traveler 20: arrived at 5220 by XY
Traveler 20: arrived at 5250 by XY
Traveler 20: arrived at 5260 by XY
Traveler 16: arrived at 5260 by XY
Traveler 16: arrived at 5260 by XZY
Traveler 21: arrived at 5270 by XY
Traveler 16: arrived at 5290 by XY
Traveler 21: arrived at 5290 by XY
Traveler 6: arrived at 5290 by XY
Traveler 16: arrived at 5290 by XY
Traveler 9: arrived at 5290 by XY
Traveler 6: arrived at 5300 by XY
Traveler 6: arrived at 5300 by XY
Traveler 18: arrived at 5300 by XY
Traveler 6: arrived at 5300 by XY
Traveler 16: arrived at 5300 by XZY
Traveler 6: arrived at 5300 by XY
Traveler 6: arrived at 5300 by XY
Traveler 6: arrived at 5300 by XY
Traveler 6: arrived at 5300 by XY
Traveler 13: arrived at 5300 by XZY
Traveler 13: arrived at 5300 by XY
Traveler 23: arrived at 5320 by XY
Traveler 6: arrived at 5320 by XY
Traveler 23: arrived at 5320 by XY
Traveler 6: arrived at 5320 by XY
Traveler 20: arrived at 5320 by XY
Traveler 6: arrived at 5320 by XY
Traveler 6: arrived at 5320 by XY
Traveler 18: arrived at 5320 by XY
Traveler 17: arrived at 5320 by XY
Traveler 4: arrived at 5360 by XZY
Traveler 4: arrived at 5360 by XZY
Traveler 21: arrived at 5360 by XY
Traveler 21: arrived at 5360 by XY
Traveler 21: arrived at 5420 by XY
Traveler 21: arrived at 5420 by XY
Traveler 21: arrived at 5480 by XY
Traveler 21: arrived at 5480 by XY
Traveler 20: arrived at 5480 by XY
Traveler 7: arrived at 5780 by XY
Traveler 14: arrived at 5940 by XY
Traveler 14: arrived at 5980 by XY
Traveler 9: arrived at 5990 by XY
Traveler 9: arrived at 5990 by XY
Traveler 9: arrived at 5990 by XY
Traveler 9: arrived at 6100 by XY
Traveler 9: arrived at 6100 by XY
Traveler 12: arrived at 6250 by XZY
Traveler 12: arrived at 6250 by XZY
Traveler 12: arrived at 6300 by XZY
Traveler 12: arrived at 6300 by XZY
Traveler 4: arrived at 6710 by XZY
Traveler 20: arrived at 6710 by XY
Traveler 4: arrived at 6750 by XZY
Traveler 4: arrived at 6780 by XZY
Traveler 5: arrived at 6860 by XZY
Traveler 5: arrived at 6870 by XZY
Traveler 4: arrived at 6880 by XZY
Traveler 4: arrived at 6880 by XZY
Traveler 9: arrived at 6880 by XY
Traveler 4: arrived at 6880 by XZY
Traveler 9: arrived at 6880 by XY
Traveler 5: arrived at 6900 by XZY
Traveler 5: arrived at 6900 by XZY
Traveler 12: arrived at 6900 by XZY
Traveler 7: arrived at 7200 by XY
Traveler 17: arrived at 7200 by XY
Traveler 7: arrived at 7230 by XY
Traveler 7: arrived at 7230 by XY
Traveler 7: arrived at 7230 by XY
Traveler 14: arrived at 7350 by XY
Traveler 13: arrived at 7350 by XZY
Traveler 18: arrived at 7350 by XY
Traveler 14: arrived at 7370 by XY
Traveler 12: arrived at 7620 by XZY
Traveler 9: arrived at 7620 by XY
Traveler 17: arrived at 7620 by XY
Traveler 7: arrived at 7620 by XY
Traveler 18: arrived at 7620 by XY
Traveler 2: arrived at 8010 by XY
Traveler 24: arrived at 8010 by XY
Traveler 2: arrived at 8050 by XY
Traveler 2: arrived at 8050 by XY
Traveler 2: arrived at 8050 by XY
Traveler 3: arrived at 8440 by XZY
Traveler 3: arrived at 8450 by XZY
Traveler 3: arrived at 8450 by XZY
Traveler 3: arrived at 8450 by XZY
Traveler 20: arrived at 8450 by XY
Traveler 4: arrived at 8450 by XZY
Traveler 2: arrived at 8450 by XY
Traveler 4: arrived at 8450 by XZY
Traveler 3: arrived at 8450 by XZY
Traveler 3: arrived at 8450 by XZY
Traveler 5: arrived at 8450 by XZY
Traveler 15: arrived at 8450 by XY
Traveler 22: arrived at 8970 by XY
Traveler 25: arrived at 8970 by XY
Traveler 4: arrived at 9120 by XY
Traveler 5: arrived at 9130 by XZY
all tickets sold out
Traveler 20: arrived at 9750 by XY
Traveler 13: arrived at 9750 by XY
Traveler 1: arrived at 9750 by XY
Traveler 3: arrived at 9810 by XY
Traveler 24: arrived at 9810 by XY
Traveler 6: arrived at 13460 by XY
Traveler 14: arrived at 13470 by XY
Traveler 8: arrived at 13470 by XY
Traveler 21: arrived at 13470 by XY
Traveler 11: arrived at 13470 by XY
Traveler 23: arrived at 13470 by XY
Traveler 10: arrived at 13480 by XY
Traveler 19: arrived at 13480 by XY
Traveler 2: arrived at 13500 by XY
sleep before finalize
finalize!
client_monitor: Start_Time=290, End_Time=13530, Start_Memory=826604728, End_Memory=826975904, Peak_Memory=846931488
client_monitor: 13240 ms, 371176 bytes (end) / 20326760 bytes (peak)
process_allocator: Alive=26, Pending=[], Limit=1000000, Max=394, Retired=164
real 76.07
user 13.60
sys 20.34
make[2]: Leaving directory `/home/x/xiaojia/sn'
make[1]: Leaving directory `/home/x/xiaojia/sn'
