make[1]: Entering directory `/home/x/xiaojia/sn'
make test EVAL="sim_test:dp(4,sim_gcc)."
make[2]: Entering directory `/home/x/xiaojia/sn'
rebar compile
==> sn (compile)
time -p erl -sname mynode -pa ebin +P 100000000 -eval "sim_test:dp(4,sim_gcc)." -noinput +S 4:4
finalize: Ts=[{1,leaf,[{dp,ready},{fork,1},{fork,0},{fork,2},{fork,3}],x},
              {2,retired,1},
              {3,killed},
              {4,killed},
              {5,retired,2},
              {6,killed},
              {7,retired,4},
              {8,killed},
              {9,retired,6},
              {10,retired,3},
              {11,killed},
              {12,retired,5},
              {13,killed},
              {14,retired,7},
              {15,killed},
              {16,retired,10},
              {17,killed},
              {18,retired,12},
              {19,killed},
              {20,killed},
              {21,retired,16},
              {22,killed},
              {23,killed},
              {24,retired,13},
              {25,killed},
              {26,killed},
              {27,retired,17},
              {28,killed},
              {29,killed},
              {30,killed},
              {31,killed}]
real 9.79
user 0.71
sys 0.32
make[2]: Leaving directory `/home/x/xiaojia/sn'
make[1]: Leaving directory `/home/x/xiaojia/sn'
