make[1]: Entering directory `/home/x/xiaojia/sn'
make test EVAL="sim_test:dp(8,sim_cc)."
make[2]: Entering directory `/home/x/xiaojia/sn'
rebar compile
==> sn (compile)
time -p erl -sname mynode -pa ebin +P 100000000 -eval "sim_test:dp(8,sim_cc)." -noinput +S 4:4
finalize: Ts=[{dp,ready},
              {fork,7},
              {fork,0},
              {fork,5},
              {fork,6},
              {fork,1},
              {fork,2},
              {fork,3},
              {fork,4}]
real 3.83
user 0.47
sys 0.65
make[2]: Leaving directory `/home/x/xiaojia/sn'
make[1]: Leaving directory `/home/x/xiaojia/sn'
