make[1]: Entering directory `/home/x/xiaojia/sn'
make test EVAL="sim_test:dp(9,sim_gcc)."
make[2]: Entering directory `/home/x/xiaojia/sn'
rebar compile
==> sn (compile)
time -p erl -sname mynode -pa ebin +P 100000000 -eval "sim_test:dp(9,sim_gcc)." -noinput +S 4:4
finalize: Ts=[{1,leaf,
               [{dp,ready},
                {fork,8},
                {fork,3},
                {fork,7},
                {fork,2},
                {fork,6},
                {fork,0},
                {fork,4},
                {fork,1},
                {fork,5}],
               x},
              {2,killed},
              {3,retired,1},
              {4,killed},
              {5,retired,2},
              {6,killed},
              {7,killed},
              {8,killed},
              {9,killed},
              {10,killed},
              {11,killed},
              {12,killed},
              {13,killed},
              {14,killed},
              {15,killed},
              {16,killed},
              {17,killed},
              {18,killed},
              {19,killed},
              {20,retired,3},
              {21,killed},
              {22,retired,5},
              {23,killed},
              {24,retired,7},
              {25,killed},
              {26,killed},
              {27,retired,9},
              {28,retired,11},
              {29,killed},
              {30,killed},
              {31,retired,13},
              {32,retired,15},
              {33,killed},
              {34,retired,17},
              {35,killed},
              {36,retired,20},
              {37,killed},
              {38,retired,22},
              {39,killed},
              {40,killed},
              {41,retired,24},
              {42,retired,26},
              {43,killed},
              {44,killed},
              {45,retired,28},
              {46,killed},
              {47,retired,30},
              {48,retired,32},
              {49,killed},
              {50,retired,36},
              {51,killed},
              {52,killed},
              {53,retired,38},
              {54,killed},
              {55,killed},
              {56,killed},
              {57,retired,42},
              {58,killed},
              {59,killed},
              {60,retired,46},
              {61,killed},
              {62,killed},
              {63,retired,50},
              {64,killed},
              {65,killed},
              {66,killed},
              {67,retired,54},
              {68,killed},
              {69,killed},
              {70,killed},
              {71,killed},
              {72,killed},
              {73,killed},
              {74,killed},
              {75,killed},
              {76,killed},
              {77,killed},
              {78,killed},
              {79,killed},
              {80,killed},
              {81,killed},
              {82,killed},
              {83,killed},
              {84,killed},
              {85,killed},
              {86,killed},
              {87,killed},
              {88,killed},
              {89,killed},
              {90,killed},
              {91,killed},
              {92,killed},
              {93,killed},
              {94,retired,23},
              {95,killed},
              {96,killed},
              {97,retired,25},
              {98,retired,27},
              {99,killed},
              {100,killed},
              {101,retired,29},
              {102,retired,31},
              {103,killed},
              {104,retired,33},
              {105,killed},
              {106,killed},
              {107,killed},
              {108,killed},
              {109,retired,39},
              {110,retired,41},
              {111,killed},
              {112,killed},
              {113,retired,43},
              {114,retired,45},
              {115,killed},
              {116,retired,47},
              {117,killed},
              {118,killed},
              {119,retired,51},
              {120,retired,53},
              {121,killed},
              {122,killed},
              {123,retired,55},
              {124,retired,57},
              {125,killed},
              {126,retired,59},
              {127,killed},
              {128,retired,63},
              {129,killed},
              {130,killed},
              {131,retired,65},
              {132,retired,67},
              {133,killed},
              {134,retired,69},
              {135,killed},
              {136,retired,73},
              {137,killed},
              {138,retired,75},
              {139,killed},
              {140,retired,77},
              {141,killed},
              {142,retired,81},
              {143,killed},
              {144,retired,83},
              {145,killed},
              {146,killed},
              {147,retired,87},
              {148,killed},
              {149,killed},
              {150,killed},
              {151,retired,94},
              {152,retired,96},
              {153,killed},
              {154,killed},
              {155,retired,98},
              {156,killed},
              {157,retired,100},
              {158,retired,102},
              {159,killed},
              {160,killed},
              {161,retired,106},
              {162,retired,108},
              {163,killed},
              {164,killed},
              {165,retired,110},
              {166,killed},
              {167,retired,112},
              {168,retired,114},
              {169,killed},
              {170,retired,118},
              {171,killed},
              {172,killed},
              {173,retired,120},
              {174,killed},
              {175,retired,122},
              {176,retired,124},
              {177,killed},
              {178,retired,128},
              {179,killed},
              {180,killed},
              {181,retired,130},
              {182,retired,132},
              {183,killed},
              {184,retired,136},
              {185,killed},
              {186,retired,138},
              {187,killed},
              {188,killed},
              {189,retired,142},
              {190,killed},
              {191,killed},
              {192,killed},
              {193,killed},
              {194,killed},
              {195,retired,152},
              {196,killed},
              {197,killed},
              {198,retired,156},
              {199,killed},
              {200,killed},
              {201,retired,160},
              {202,killed},
              {203,retired,162},
              {204,killed},
              {205,killed},
              {206,retired,166},
              {207,killed},
              {208,retired,170},
              {209,killed},
              {210,killed},
              {211,killed},
              {212,retired,174},
              {213,killed},
              {214,retired,178},
              {215,killed},
              {216,retired,180},
              {217,killed},
              {218,killed},
              {219,retired,184},
              {220,killed},
              {221,killed},
              {222,killed},
              {223,retired,192},
              {224,killed},
              {225,killed},
              {226,killed},
              {227,killed},
              {228,killed},
              {229,retired,200},
              {230,killed},
              {231,killed},
              {232,killed},
              {233,killed},
              {234,retired,208},
              {235,killed},
              {236,killed},
              {237,killed},
              {238,retired,214},
              {239,killed},
              {240,killed},
              {241,retired,220},
              {242,killed},
              {243,killed},
              {244,killed},
              {245,killed},
              {246,killed},
              {247,killed},
              {248,killed},
              {249,killed},
              {250,retired,234},
              {251,killed},
              {252,retired,240},
              {253,killed},
              {254,killed},
              {255,killed},
              {256,retired,246},
              {257,killed},
              {258,retired,252},
              {259,killed},
              {260,killed},
              {261,killed},
              {262,killed},
              {263,retired,95},
              {264,retired,97},
              {265,killed},
              {266,killed},
              {267,retired,99},
              {268,retired,101},
              {269,killed},
              {270,retired,103},
              {271,killed},
              {272,killed},
              {273,retired,107},
              {274,retired,109},
              {275,killed},
              {276,killed},
              {277,retired,111},
              {278,retired,113},
              {279,killed},
              {280,retired,115},
              {281,killed},
              {282,retired,119},
              {283,killed},
              {284,killed},
              {285,retired,121},
              {286,retired,123},
              {287,killed},
              {288,retired,125},
              {289,killed},
              {290,killed},
              {291,killed},
              {292,retired,131},
              {293,killed},
              {294,retired,133},
              {295,killed},
              {296,retired,137},
              {297,killed},
              {298,retired,139},
              {299,killed},
              {300,killed},
              {301,retired,143},
              {302,killed},
              {303,killed},
              {304,retired,151},
              {305,killed},
              {306,killed},
              {307,retired,153},
              {308,retired,155},
              {309,killed},
              {310,retired,157},
              {311,killed},
              {312,retired,161},
              {313,killed},
              {314,killed},
              {315,retired,163},
              {316,retired,165},
              {317,killed},
              {318,retired,167},
              {319,killed},
              {320,retired,171},
              {321,killed},
              {322,retired,173},
              {323,killed},
              {324,retired,175},
              {325,killed},
              {326,killed},
              {327,killed},
              {328,retired,181},
              {329,killed},
              {330,killed},
              {331,retired,185},
              {332,killed},
              {333,killed},
              {334,killed},
              {335,retired,193},
              {336,retired,195},
              {337,killed},
              {338,retired,197},
              {339,killed},
              {340,retired,201},
              {341,killed},
              {342,retired,203},
              {343,killed},
              {344,retired,205},
              {345,killed},
              {346,retired,209},
              {347,killed},
              {348,retired,211},
              {349,killed},
              {350,killed},
              {351,retired,215},
              {352,retired,221},
              {353,killed},
              {354,retired,223},
              {355,killed},
              {356,retired,225},
              {357,killed},
              {358,retired,229},
              {359,killed},
              {360,retired,231},
              {361,killed},
              {362,killed},
              {363,retired,235},
              {364,retired,241},
              {365,killed},
              {366,retired,243},
              {367,killed},
              {368,killed},
              {369,retired,247},
              {370,killed},
              {371,retired,253},
              {372,killed},
              {373,killed},
              {374,retired,262},
              {375,killed},
              {376,killed},
              {377,retired,264},
              {378,killed},
              {379,retired,266},
              {380,retired,268},
              {381,killed},
              {382,retired,272},
              {383,killed},
              {384,killed},
              {385,retired,274},
              {386,killed},
              {387,retired,276},
              {388,retired,278},
              {389,killed},
              {390,retired,282},
              {391,killed},
              {392,killed},
              {393,retired,284},
              {394,retired,286},
              {395,killed},
              {396,retired,290},
              {397,killed},
              {398,retired,292},
              {399,killed},
              {400,killed},
              {401,retired,296},
              {402,killed},
              {403,killed},
              {404,killed},
              {405,retired,304},
              {406,killed},
              {407,retired,306},
              {408,retired,308},
              {409,killed},
              {410,retired,312},
              {411,killed},
              {412,killed},
              {413,retired,314},
              {414,retired,316},
              {415,killed},
              {416,retired,320},
              {417,killed},
              {418,retired,322},
              {419,killed},
              {420,killed},
              {421,retired,326},
              {422,retired,332},
              {423,killed},
              {424,killed},
              {425,retired,334},
              {426,retired,336},
              {427,killed},
              {428,retired,340},
              {429,killed},
              {430,retired,342},
              {431,killed},
              {432,killed},
              {433,retired,346},
              {434,retired,352},
              {435,killed},
              {436,retired,354},
              {437,killed},
              {438,killed},
              {439,retired,358},
              {440,killed},
              {441,retired,364},
              {442,killed},
              {443,killed},
              {444,killed},
              {445,retired,374},
              {446,killed},
              {447,killed},
              {448,retired,378},
              {449,killed},
              {450,retired,382},
              {451,killed},
              {452,killed},
              {453,killed},
              {454,retired,386},
              {455,killed},
              {456,retired,390},
              {457,killed},
              {458,retired,392},
              {459,killed},
              {460,killed},
              {461,retired,396},
              {462,retired,402},
              {463,killed},
              {464,killed},
              {465,killed},
              {466,retired,406},
              {467,killed},
              {468,retired,410},
              {469,killed},
              {470,retired,412},
              {471,killed},
              {472,killed},
              {473,retired,416},
              {474,retired,422},
              {475,killed},
              {476,retired,424},
              {477,killed},
              {478,killed},
              {479,retired,428},
              {480,killed},
              {481,retired,434},
              {482,killed},
              {483,killed},
              {484,killed},
              {485,killed},
              {486,killed},
              {487,killed},
              {488,retired,450},
              {489,killed},
              {490,killed},
              {491,killed},
              {492,retired,456},
              {493,killed},
              {494,retired,462},
              {495,killed},
              {496,killed},
              {497,killed},
              {498,retired,468},
              {499,killed},
              {500,killed},
              {501,retired,474},
              {502,killed},
              {503,killed},
              {504,killed},
              {505,killed},
              {506,retired,488},
              {507,killed},
              {508,killed},
              {509,retired,494},
              {510,killed},
              {511,retired,502},
              {512,killed},
              {513,killed},
              {514,retired,263},
              {515,killed},
              {516,killed},
              {517,retired,265},
              {518,retired,267},
              {519,killed},
              {520,retired,269},
              {521,killed},
              {522,retired,273},
              {523,killed},
              {524,killed},
              {525,retired,275},
              {526,retired,277},
              {527,killed},
              {528,retired,279},
              {529,killed},
              {530,killed},
              {531,killed},
              {532,retired,285},
              {533,killed},
              {534,retired,287},
              {535,killed},
              {536,killed},
              {537,killed},
              {538,retired,293},
              {539,killed},
              {540,killed},
              {541,retired,297},
              {542,killed},
              {543,killed},
              {544,killed},
              {545,retired,305},
              {546,retired,307},
              {547,killed},
              {548,retired,309},
              {549,killed},
              {550,killed},
              {551,killed},
              {552,retired,315},
              {553,killed},
              {554,retired,317},
              {555,killed},
              {556,retired,321},
              {557,killed},
              {558,retired,323},
              {559,killed},
              {560,killed},
              {561,retired,327},
              {562,killed},
              {563,killed},
              {564,retired,335},
              {565,killed},
              {566,retired,337},
              {567,killed},
              {568,retired,341},
              {569,killed},
              {570,retired,343},
              {571,killed},
              {572,killed},
              {573,retired,347},
              {574,retired,353},
              {575,killed},
              {576,retired,355},
              {577,killed},
              {578,killed},
              {579,retired,359},
              {580,killed},
              {581,retired,365},
              {582,killed},
              {583,killed},
              {584,killed},
              {585,retired,375},
              {586,retired,377},
              {587,killed},
              {588,retired,379},
              {589,killed},
              {590,retired,383},
              {591,killed},
              {592,retired,385},
              {593,killed},
              {594,retired,387},
              {595,killed},
              {596,killed},
              {597,killed},
              {598,retired,393},
              {599,killed},
              {600,killed},
              {601,retired,397},
              {602,killed},
              {603,killed},
              {604,retired,405},
              {605,killed},
              {606,retired,407},
              {607,killed},
              {608,killed},
              {609,killed},
              {610,retired,413},
              {611,killed},
              {612,killed},
              {613,retired,417},
              {614,retired,423},
              {615,killed},
              {616,retired,425},
              {617,killed},
              {618,killed},
              {619,retired,429},
              {620,killed},
              {621,retired,435},
              {622,killed},
              {623,killed},
              {624,retired,445},
              {625,killed},
              {626,retired,447},
              {627,killed},
              {628,retired,451},
              {629,killed},
              {630,retired,453},
              {631,killed},
              {632,killed},
              {633,retired,457},
              {634,retired,463},
              {635,killed},
              {636,retired,465},
              {637,killed},
              {638,killed},
              {639,retired,469},
              {640,killed},
              {641,retired,475},
              {642,killed},
              {643,killed},
              {644,retired,485},
              {645,killed},
              {646,killed},
              {647,retired,489},
              {648,killed},
              {649,retired,495},
              {650,killed},
              {651,retired,503},
              {652,killed},
              {653,killed},
              {654,killed},
              {655,retired,514},
              {656,killed},
              {657,retired,516},
              {658,retired,518},
              {659,killed},
              {660,retired,522},
              {661,killed},
              {662,killed},
              {663,retired,524},
              {664,retired,526},
              {665,killed},
              {666,retired,530},
              {667,killed},
              {668,retired,532},
              {669,killed},
              {670,killed},
              {671,retired,536},
              {672,killed},
              {673,killed},
              {674,killed},
              {675,retired,544},
              {676,retired,546},
              {677,killed},
              {678,retired,550},
              {679,killed},
              {680,retired,552},
              {681,killed},
              {682,killed},
              {683,retired,556},
              {684,retired,562},
              {685,killed},
              {686,retired,564},
              {687,killed},
              {688,killed},
              {689,retired,568},
              {690,killed},
              {691,retired,574},
              {692,killed},
              {693,killed},
              {694,killed},
              {695,retired,584},
              {696,retired,586},
              {697,killed},
              {698,retired,590},
              {699,killed},
              {700,retired,592},
              {701,killed},
              {702,killed},
              {703,retired,596},
              {704,retired,602},
              {705,killed},
              {706,retired,604},
              {707,killed},
              {708,killed},
              {709,retired,608},
              {710,killed},
              {711,retired,614},
              {712,killed},
              {713,killed},
              {714,retired,624},
              {715,killed},
              {716,killed},
              {717,retired,628},
              {718,killed},
              {719,retired,634},
              {720,killed},
              {721,killed},
              {722,killed},
              {723,killed},
              {724,killed},
              {725,killed},
              {726,retired,656},
              {727,killed},
              {728,retired,660},
              {729,killed},
              {730,retired,662},
              {731,killed},
              {732,killed},
              {733,retired,666},
              {734,retired,672},
              {735,killed},
              {736,retired,674},
              {737,killed},
              {738,killed},
              {739,retired,678},
              {740,killed},
              {741,retired,684},
              {742,killed},
              {743,killed},
              {744,retired,694},
              {745,killed},
              {746,killed},
              {747,retired,698},
              {748,killed},
              {749,retired,704},
              {750,killed},
              {751,killed},
              {752,killed},
              {753,killed},
              {754,killed},
              {755,killed},
              {756,retired,728},
              {757,killed},
              {758,killed},
              {759,retired,734},
              {760,killed},
              {761,killed},
              {762,killed},
              {763,killed},
              {764,killed},
              {765,killed},
              {766,killed},
              {767,retired,515},
              {768,retired,517},
              {769,killed},
              {770,retired,519},
              {771,killed},
              {772,killed},
              {773,killed},
              {774,retired,525},
              {775,killed},
              {776,retired,527},
              {777,killed},
              {778,killed},
              {779,killed},
              {780,retired,533},
              {781,killed},
              {782,killed},
              {783,retired,537},
              {784,killed},
              {785,killed},
              {786,retired,545},
              {787,killed},
              {788,retired,547},
              {789,killed},
              {790,killed},
              {791,killed},
              {792,retired,553},
              {793,killed},
              {794,killed},
              {795,retired,557},
              {796,killed},
              {797,killed},
              {798,retired,565},
              {799,killed},
              {800,killed},
              {801,retired,569},
              {802,killed},
              {803,retired,575},
              {804,killed},
              {805,killed},
              {806,retired,585},
              {807,killed},
              {808,retired,587},
              {809,killed},
              {810,retired,591},
              {811,killed},
              {812,retired,593},
              {813,killed},
              {814,killed},
              {815,retired,597},
              {816,killed},
              {817,killed},
              {818,retired,605},
              {819,killed},
              {820,killed},
              {821,retired,609},
              {822,killed},
              {823,retired,615},
              {824,killed},
              {825,killed},
              {826,retired,625},
              {827,killed},
              {828,killed},
              {829,retired,629},
              {830,killed},
              {831,retired,635},
              {832,killed},
              {833,killed},
              {834,killed},
              {835,killed},
              {836,retired,655},
              {837,killed},
              {838,retired,657},
              {839,killed},
              {840,killed},
              {841,killed},
              {842,retired,663},
              {843,killed},
              {844,killed},
              {845,retired,667},
              {846,killed},
              {847,killed},
              {848,retired,675},
              {849,killed},
              {850,killed},
              {851,retired,679},
              {852,killed},
              {853,retired,685},
              {854,killed},
              {855,killed},
              {856,retired,695},
              {857,killed},
              {858,killed},
              {859,retired,699},
              {860,killed},
              {861,retired,705},
              {862,killed},
              {863,killed},
              {864,killed},
              {865,killed},
              {866,retired,725},
              {867,killed},
              {868,killed},
              {869,retired,729},
              {870,killed},
              {871,retired,735},
              {872,killed},
              {873,killed},
              {874,killed},
              {875,killed},
              {876,killed},
              {877,killed},
              {878,killed},
              {879,retired,766},
              {880,retired,768},
              {881,killed},
              {882,retired,772},
              {883,killed},
              {884,retired,774},
              {885,killed},
              {886,killed},
              {887,retired,778},
              {888,killed},
              {889,killed},
              {890,retired,786},
              {891,killed},
              {892,killed},
              {893,retired,790},
              {894,killed},
              {895,retired,796},
              {896,killed},
              {897,killed},
              {898,retired,806},
              {899,killed},
              {900,killed},
              {901,retired,810},
              {902,killed},
              {903,retired,816},
              {904,killed},
              {905,killed},
              {906,killed},
              {907,killed},
              {908,retired,836},
              {909,killed},
              {910,killed},
              {911,retired,840},
              {912,killed},
              {913,retired,846},
              {914,killed},
              {915,killed},
              {916,killed},
              {917,killed},
              {918,killed},
              {919,killed},
              {920,retired,878},
              {921,killed},
              {922,killed},
              {923,retired,882},
              {924,killed},
              {925,retired,888},
              {926,killed},
              {927,killed},
              {928,killed},
              {929,killed},
              {930,killed},
              {931,killed},
              {932,killed},
              {933,killed},
              {934,retired,767},
              {935,killed},
              {936,retired,769},
              {937,killed},
              {938,killed},
              {939,killed},
              {940,retired,775},
              {941,killed},
              {942,killed},
              {943,retired,779},
              {944,killed},
              {945,killed},
              {946,retired,787},
              {947,killed},
              {948,killed},
              {949,retired,791},
              {950,killed},
              {951,retired,797},
              {952,killed},
              {953,killed},
              {954,retired,807},
              {955,killed},
              {956,killed},
              {957,retired,811},
              {958,killed},
              {959,retired,817},
              {960,killed},
              {961,killed},
              {962,killed},
              {963,killed},
              {964,retired,837},
              {965,killed},
              {966,killed},
              {967,retired,841},
              {968,killed},
              {969,retired,847},
              {970,killed},
              {971,killed},
              {972,killed},
              {973,killed},
              {974,killed},
              {975,killed},
              {976,retired,879},
              {977,killed},
              {978,killed},
              {979,retired,883},
              {980,killed},
              {981,retired,889},
              {982,killed},
              {983,killed},
              {984,killed},
              {985,killed},
              {986,killed},
              {987,killed},
              {988,killed},
              {989,killed},
              {990,retired,934},
              {991,killed},
              {992,killed},
              {993,retired,938},
              {994,killed},
              {995,retired,944},
              {996,killed},
              {997,killed},
              {998,killed},
              {999,killed},
              {1000,killed},
              {1001,killed},
              {1002,killed},
              {1003,killed},
              {1004,killed},
              {1005,killed},
              {1006,retired,935},
              {1007,killed},
              {1008,killed},
              {1009,retired,939},
              {1010,killed},
              {1011,retired,945},
              {1012,killed},
              {1013,killed},
              {1014,killed},
              {1015,killed},
              {1016,killed},
              {1017,killed},
              {1018,killed},
              {1019,killed},
              {1020,killed},
              {1021,killed},
              {1022,killed},
              {1023,killed}]
real 559.66
user 7.13
sys 12.58
make[2]: Leaving directory `/home/x/xiaojia/sn'
make[1]: Leaving directory `/home/x/xiaojia/sn'
