make[1]: Entering directory `/home/x/xiaojia/sn'
make test EVAL="sim_test:dp(9,sim_cc)."
make[2]: Entering directory `/home/x/xiaojia/sn'
rebar compile
==> sn (compile)
time -p erl -sname mynode -pa ebin +P 100000000 -eval "sim_test:dp(9,sim_cc)." -noinput +S 4:4
finalize: Ts=[{dp,ready},
              {fork,5},
              {fork,2},
              {fork,6},
              {fork,3},
              {fork,4},
              {fork,7},
              {fork,8},
              {fork,0},
              {fork,1}]
real 4.10
user 0.46
sys 0.64
make[2]: Leaving directory `/home/x/xiaojia/sn'
make[1]: Leaving directory `/home/x/xiaojia/sn'
