make[1]: Entering directory `/home/x/xiaojia/sn'
make test EVAL="sim_test:dp(2,sim_gcc)."
make[2]: Entering directory `/home/x/xiaojia/sn'
rebar compile
==> sn (compile)
time -p erl -sname mynode -pa ebin +P 100000000 -eval "sim_test:dp(2,sim_gcc)." -noinput +S 4:4
finalize: Ts=[{1,leaf,[{dp,ready},{fork,0},{fork,1}],x},
              {2,retired,1},
              {3,killed},
              {4,killed},
              {5,retired,2},
              {6,killed},
              {7,killed}]
real 3.01
user 0.45
sys 0.63
make[2]: Leaving directory `/home/x/xiaojia/sn'
make[1]: Leaving directory `/home/x/xiaojia/sn'
