make[1]: Entering directory `/home/x/xiaojia/sn'
make test EVAL="test:st(15)."
make[2]: Entering directory `/home/x/xiaojia/sn'
rebar compile
==> sn (compile)
time -p erl -sname mynode -pa ebin +P 100000000 -eval "test:st(15)." -noinput +S 4:4
sn_app registered
memory_monitor registered
process_allocator registered
sn_server registered
client_monitor registered
Trader 1: Cash=5.0e3 X=durian Round=1
Trader 1: Cash=5.0e3 X=durian Round=1
Trader 1: buy 222 durian
Trader 1: buy 222 durian
Trader 9: Cash=5.0e3 X=apricot Round=1
Trader 9: buy 144 apricot
Trader 9: Cash=5.0e3 X=apricot Round=1
Trader 9: Cash=5.0e3 X=apricot Round=1
Trader 9: Cash=5.0e3 X=apricot Round=1
Trader 9: buy 144 apricot
Trader 9: buy 144 apricot
Trader 9: buy 144 apricot
Trader 1: bought 222 durian @ 22.5
Trader 9: bought 144 apricot @ 34.5
Trader 1: bought 222 durian @ 22.5
Trader 9: bought 144 apricot @ 34.5
Trader 1: bought 222 durian @ 22.5
Trader 9: bought 144 apricot @ 34.5
Trader 1: Cash=4955.6 X=apricot Round=2
Trader 9: bought 144 apricot @ 34.5
Trader 1: buy 144 apricot
Trader 1: bought 144 apricot @ 34.35
Trader 1: bought 222 durian @ 22.5
Trader 1: Cash=4955.6 X=apricot Round=2
Trader 1: buy 144 apricot
Trader 1: bought 144 apricot @ 34.35
Trader 9: Cash=4956.8 X=lime Round=2
Trader 9: buy 258 lime
Trader 15: Cash=5.0e3 X=cashew Round=1
Trader 2: Cash=5.0e3 X=cashew Round=1
Trader 15: Cash=5.0e3 X=cashew Round=1
Trader 2: Cash=5.0e3 X=cashew Round=1
Trader 15: Cash=5.0e3 X=cashew Round=1
Trader 2: Cash=5.0e3 X=cashew Round=1
Trader 15: Cash=5.0e3 X=cashew Round=1
Trader 2: Cash=5.0e3 X=cashew Round=1
Trader 15: buy 56 cashew
Trader 2: buy 56 cashew
Trader 15: buy 56 cashew
Trader 2: buy 56 cashew
Trader 15: buy 56 cashew
Trader 2: buy 56 cashew
Trader 15: buy 56 cashew
Trader 2: buy 56 cashew
Trader 9: bought 258 lime @ 19.21
Trader 9: Cash=5111.599999999999 X=coconut Round=3
Trader 9: buy 246 coconut
Trader 9: bought 258 lime @ 19.21
Trader 9: Cash=5111.599999999999 X=coconut Round=3
Trader 9: buy 246 coconut
Trader 15: bought 56 cashew @ 88
Trader 9: bought 246 coconut @ 20.75
Trader 15: bought 56 cashew @ 88
Trader 9: bought 246 coconut @ 20.75
Trader 15: bought 56 cashew @ 88
Trader 15: bought 56 cashew @ 88
Trader 2: bought 56 cashew @ 88
Trader 2: bought 56 cashew @ 88
Trader 2: bought 56 cashew @ 88
Trader 2: bought 56 cashew @ 88
Trader 3: Cash=5.0e3 X=babaco Round=1
Trader 3: Cash=5.0e3 X=babaco Round=1
Trader 3: buy 117 babaco
Trader 3: Cash=5.0e3 X=babaco Round=1
Trader 3: Cash=5.0e3 X=babaco Round=1
Trader 3: buy 117 babaco
Trader 3: buy 117 babaco
Trader 3: buy 117 babaco
Trader 8: Cash=5.0e3 X=orange Round=1
Trader 8: Cash=5.0e3 X=orange Round=1
Trader 8: Cash=5.0e3 X=orange Round=1
Trader 8: Cash=5.0e3 X=orange Round=1
Trader 8: buy 63 orange
Trader 8: buy 63 orange
Trader 8: buy 63 orange
Trader 8: buy 63 orange
Trader 13: Cash=5.0e3 X=orange Round=1
Trader 12: Cash=5.0e3 X=durian Round=1
Trader 13: buy 63 orange
Trader 12: Cash=5.0e3 X=durian Round=1
Trader 13: Cash=5.0e3 X=orange Round=1
Trader 13: Cash=5.0e3 X=orange Round=1
Trader 12: buy 224 durian
Trader 12: buy 224 durian
Trader 13: Cash=5.0e3 X=orange Round=1
Trader 12: Cash=5.0e3 X=durian Round=1
Trader 13: buy 63 orange
Trader 13: buy 63 orange
Trader 12: Cash=5.0e3 X=durian Round=1
Trader 13: buy 63 orange
Trader 12: buy 224 durian
Trader 12: buy 224 durian
Trader 12: bought 224 durian @ 22.3
Trader 12: bought 224 durian @ 22.3
Trader 12: bought 224 durian @ 22.3
Trader 12: bought 224 durian @ 22.3
Trader 12: Cash=4955.200000000001 X=lime Round=2
Trader 12: Cash=4955.200000000001 X=lime Round=2
Trader 12: buy 257 lime
Trader 12: buy 257 lime
Trader 8: bought 63 orange @ 78.95
Trader 8: bought 63 orange @ 78.95
Trader 8: bought 63 orange @ 78.95
Trader 8: bought 63 orange @ 78.95
Trader 8: Cash=4968.5 X=mango Round=2
Trader 8: buy 116 mango
Trader 8: Cash=4968.5 X=mango Round=2
Trader 8: buy 116 mango
Trader 8: bought 116 mango @ 42.594
Trader 8: bought 116 mango @ 42.594
Trader 3: bought 117 babaco @ 42.5
Trader 3: Cash=4836.2 X=durian Round=2
Trader 3: bought 117 babaco @ 42.5
Trader 3: buy 216 durian
Trader 3: bought 117 babaco @ 42.5
Trader 3: Cash=4836.2 X=durian Round=2
Trader 3: bought 216 durian @ 22.3
Trader 3: Cash=4836.2 X=durian Round=2
Trader 3: buy 216 durian
Trader 3: buy 216 durian
Trader 3: bought 216 durian @ 22.3
Trader 3: bought 216 durian @ 22.3
Trader 3: Cash=4793.0 X=mango Round=3
Trader 3: bought 117 babaco @ 42.5
Trader 3: buy 112 mango
Trader 3: Cash=4836.2 X=durian Round=2
Trader 3: bought 112 mango @ 42.594
Trader 3: buy 216 durian
Trader 3: bought 216 durian @ 22.3
Trader 3: Cash=4793.0 X=mango Round=3
Trader 3: buy 112 mango
Trader 3: bought 112 mango @ 42.594
Trader 12: bought 257 lime @ 19.21
Trader 12: Cash=5.0e3 X=durian Round=1
Trader 12: buy 224 durian
Trader 12: Cash=5109.400000000001 X=mango Round=3
Trader 12: bought 257 lime @ 19.21
Trader 12: buy 119 mango
Trader 14: Cash=5.0e3 X=mango Round=1
Trader 14: Cash=5.0e3 X=mango Round=1
Trader 12: Cash=5.0e3 X=durian Round=1
Trader 12: bought 119 mango @ 42.594
Trader 14: buy 117 mango
Trader 14: buy 117 mango
Trader 10: Cash=5.0e3 X=banana Round=1
Trader 12: Cash=5.0e3 X=durian Round=1
Trader 12: buy 224 durian
Trader 10: Cash=5.0e3 X=banana Round=1
Trader 12: Cash=5.0e3 X=durian Round=1
Trader 12: Cash=5109.400000000001 X=mango Round=3
Trader 10: buy 210 banana
Trader 5: Cash=5.0e3 X=apricot Round=1
Trader 5: Cash=5.0e3 X=apricot Round=1
Trader 5: Cash=5.0e3 X=apricot Round=1
Trader 5: Cash=5.0e3 X=apricot Round=1
Trader 12: buy 224 durian
Trader 12: buy 119 mango
Trader 5: buy 146 apricot
Trader 10: buy 210 banana
Trader 5: buy 146 apricot
Trader 12: buy 224 durian
Trader 5: buy 146 apricot
Trader 5: buy 146 apricot
Trader 4: Cash=5.0e3 X=babaco Round=1
Trader 12: bought 119 mango @ 42.594
Trader 5: Cash=5.0e3 X=apricot Round=1
Trader 4: buy 121 babaco
Trader 4: Cash=5.0e3 X=babaco Round=1
Trader 5: Cash=5.0e3 X=apricot Round=1
Trader 5: buy 146 apricot
Trader 4: buy 121 babaco
Trader 5: buy 146 apricot
Trader 13: bought 63 orange @ 78.95
Trader 13: bought 63 orange @ 78.95
Trader 13: bought 63 orange @ 78.95
Trader 13: bought 63 orange @ 78.95
Trader 13: Cash=4968.5 X=banana Round=2
Trader 13: buy 209 banana
Trader 13: Cash=4968.5 X=banana Round=2
Trader 13: buy 209 banana
Trader 13: bought 209 banana @ 23.7
Trader 13: bought 209 banana @ 23.7
Trader 13: Cash=5146.15 X=lime Round=3
Trader 13: Cash=5146.15 X=lime Round=3
Trader 13: buy 267 lime
Trader 13: buy 267 lime
Trader 13: bought 267 lime @ 19.21
Trader 13: bought 267 lime @ 19.21
Trader 13: Cash=5306.3499999999985 Down_Time=540
Trader 13: Cash=5306.3499999999985 Down_Time=540
Trader 4: Cash=5.0e3 X=babaco Round=1
Trader 11: Cash=5.0e3 X=orange Round=1
Trader 4: Cash=5.0e3 X=babaco Round=1
Trader 4: buy 117 babaco
Trader 11: Cash=5.0e3 X=orange Round=1
Trader 4: Cash=5.0e3 X=babaco Round=1
Trader 11: Cash=5.0e3 X=orange Round=1
Trader 4: buy 117 babaco
Trader 4: Cash=5.0e3 X=babaco Round=1
Trader 11: buy 63 orange
Trader 11: buy 63 orange
Trader 11: Cash=5.0e3 X=orange Round=1
Trader 4: buy 117 babaco
Trader 11: buy 63 orange
Trader 4: buy 117 babaco
Trader 11: buy 63 orange
Trader 6: Cash=5.0e3 X=lime Round=1
Trader 6: Cash=5.0e3 X=lime Round=1
Trader 6: Cash=5.0e3 X=lime Round=1
Trader 6: buy 252 lime
Trader 6: Cash=5.0e3 X=lime Round=1
Trader 6: buy 252 lime
Trader 6: buy 252 lime
Trader 6: buy 252 lime
Trader 4: bought 121 babaco @ 41.1
Trader 4: bought 121 babaco @ 41.1
Trader 4: Cash=5229.9 X=apricot Round=2
Trader 4: buy 152 apricot
Trader 6: bought 252 lime @ 19.81
Trader 6: bought 252 lime @ 19.81
Trader 6: bought 252 lime @ 19.81
Trader 6: bought 252 lime @ 19.81
Trader 12: bought 224 durian @ 22.3
Trader 12: bought 224 durian @ 22.3
Trader 12: Cash=4955.200000000001 X=lime Round=2
Trader 12: buy 250 lime
Trader 12: bought 250 lime @ 19.81
Trader 12: bought 224 durian @ 22.3
Trader 12: bought 224 durian @ 22.3
Trader 12: Cash=4955.200000000001 X=lime Round=2
Trader 12: buy 250 lime
Trader 12: bought 250 lime @ 19.81
Trader 5: bought 146 apricot @ 34.2
Trader 5: bought 146 apricot @ 34.2
Trader 5: bought 146 apricot @ 34.2
Trader 1: Cash=5222.0 X=orange Round=3
Trader 5: bought 146 apricot @ 34.2
Trader 1: Cash=5222.0 X=orange Round=3
Trader 5: Cash=5292.0 X=apple Round=2
Trader 5: Cash=5292.0 X=apple Round=2
Trader 1: buy 66 orange
Trader 5: Cash=5292.0 X=apple Round=2
Trader 1: buy 66 orange
Trader 5: Cash=5292.0 X=apple Round=2
Trader 5: buy 1208 apple
Trader 5: buy 1208 apple
Trader 5: buy 1208 apple
Trader 5: buy 1208 apple
Trader 1: Cash=5222.0 X=orange Round=3
Trader 1: Cash=5222.0 X=orange Round=3
Trader 1: buy 66 orange
Trader 1: buy 66 orange
Trader 5: bought 146 apricot @ 34.2
Trader 5: bought 146 apricot @ 34.2
Trader 1: Cash=5222.0 X=orange Round=3
Trader 5: Cash=5292.0 X=apple Round=2
Trader 1: Cash=5222.0 X=orange Round=3
Trader 1: buy 66 orange
Trader 5: Cash=5292.0 X=apple Round=2
Trader 5: buy 1208 apple
Trader 1: buy 66 orange
Trader 5: buy 1208 apple
Trader 4: bought 152 apricot @ 34.2
Trader 1: Cash=5222.0 X=orange Round=3
Trader 4: Cash=5533.9 Down_Time=620
Trader 1: buy 66 orange
Trader 3: Cash=4600.472 Down_Time=620
Trader 10: bought 210 banana @ 23.7
Trader 14: bought 117 mango @ 42.594
Trader 10: bought 210 banana @ 23.7
Trader 10: Cash=5178.5 X=mango Round=2
Trader 14: bought 117 mango @ 42.594
Trader 10: buy 121 mango
Trader 10: bought 121 mango @ 42.5
Trader 10: Cash=4981.875 X=orange Round=3
Trader 8: Cash=4769.096 X=apple Round=3
Trader 10: buy 63 orange
Trader 8: buy 1088 apple
Trader 10: bought 63 orange @ 78.45
Trader 8: bought 1088 apple @ 4.38
Trader 10: Cash=4859.025 Down_Time=830
Trader 8: Cash=4518.856000000001 Down_Time=830
Trader 1: bought 66 orange @ 78.95
Trader 5: bought 1208 apple @ 4.38
Trader 5: Cash=5014.160000000001 X=banana Round=3
Trader 1: bought 66 orange @ 78.95
Trader 5: bought 1208 apple @ 4.38
Trader 5: buy 211 banana
Trader 5: Cash=5014.160000000001 X=banana Round=3
Trader 5: bought 211 banana @ 23.7
Trader 5: buy 211 banana
Trader 5: bought 211 banana @ 23.7
Trader 1: bought 66 orange @ 78.95
Trader 5: bought 1208 apple @ 4.38
Trader 1: bought 66 orange @ 78.95
Trader 5: bought 1208 apple @ 4.38
Trader 5: Cash=5014.160000000001 X=banana Round=3
Trader 5: Cash=5193.510000000001 Down_Time=830
Trader 5: Cash=5014.160000000001 X=banana Round=3
Trader 5: buy 211 banana
Trader 5: buy 211 banana
Trader 5: bought 211 banana @ 23.7
Trader 5: bought 211 banana @ 23.7
Trader 5: Cash=5193.510000000001 Down_Time=840
Trader 1: bought 66 orange @ 78.45
Trader 11: Cash=5.0e3 X=orange Round=1
Trader 11: Cash=5.0e3 X=orange Round=1
Trader 11: buy 65 orange
Trader 11: buy 65 orange
Trader 4: bought 117 babaco @ 42.5
Trader 7: Cash=5.0e3 X=mango Round=1
Trader 4: bought 117 babaco @ 42.5
Trader 4: Cash=4836.2 X=apricot Round=2
Trader 7: buy 117 mango
Trader 4: Cash=4836.2 X=apricot Round=2
Trader 4: buy 140 apricot
Trader 3: Cash=5.0e3 X=babaco Round=1
Trader 7: Cash=5.0e3 X=mango Round=1
Trader 3: Cash=5.0e3 X=babaco Round=1
Trader 3: Cash=5.0e3 X=babaco Round=1
Trader 7: buy 117 mango
Trader 3: buy 117 babaco
Trader 3: Cash=5.0e3 X=babaco Round=1
Trader 3: Cash=5.0e3 X=babaco Round=1
Trader 3: buy 117 babaco
Trader 3: buy 117 babaco
Trader 3: Cash=5.0e3 X=babaco Round=1
Trader 4: buy 140 apricot
Trader 4: bought 117 babaco @ 42.5
Trader 3: buy 117 babaco
Trader 3: buy 117 babaco
Trader 4: bought 140 apricot @ 34.35
Trader 4: bought 140 apricot @ 34.35
Trader 4: bought 117 babaco @ 42.5
Trader 3: buy 117 babaco
Trader 9: Cash=4956.8 X=lime Round=2
Trader 9: Cash=4956.8 X=lime Round=2
Trader 4: Cash=4836.2 X=apricot Round=2
Trader 9: buy 258 lime
Trader 4: Cash=4836.2 X=apricot Round=2
Trader 4: buy 140 apricot
Trader 4: buy 140 apricot
Trader 9: buy 250 lime
Trader 9: bought 258 lime @ 19.21
Trader 4: bought 140 apricot @ 34.35
Trader 9: Cash=4956.8 X=lime Round=2
Trader 4: bought 140 apricot @ 34.35
Trader 9: buy 258 lime
Trader 9: bought 258 lime @ 19.21
Trader 11: bought 63 orange @ 78.95
Trader 9: Cash=5111.599999999999 X=coconut Round=3
Trader 11: bought 63 orange @ 78.95
Trader 9: bought 250 lime @ 19.81
Trader 9: Cash=4956.8 X=lime Round=2
Trader 9: Cash=5111.599999999999 X=coconut Round=3
Trader 9: buy 246 coconut
Trader 11: bought 63 orange @ 78.95
Trader 9: buy 250 lime
Trader 9: buy 246 coconut
Trader 11: Cash=4968.5 X=banana Round=2
Trader 9: bought 246 coconut @ 20.75
Trader 11: bought 63 orange @ 78.95
Trader 9: bought 250 lime @ 19.81
Trader 9: bought 246 coconut @ 20.75
Trader 11: buy 209 banana
Trader 11: Cash=4968.5 X=banana Round=2
Trader 11: buy 209 banana
Trader 11: bought 209 banana @ 23.7
Trader 11: bought 209 banana @ 23.7
Trader 11: Cash=5146.15 X=apricot Round=3
Trader 11: buy 149 apricot
Trader 11: Cash=5146.15 X=apricot Round=3
Trader 10: Cash=5.0e3 X=banana Round=1
Trader 10: Cash=5.0e3 X=banana Round=1
Trader 11: bought 149 apricot @ 34.35
Trader 11: buy 149 apricot
Trader 10: buy 203 banana
Trader 9: Cash=4956.8 X=lime Round=2
Trader 10: buy 203 banana
Trader 11: bought 149 apricot @ 34.35
Trader 9: buy 258 lime
Trader 9: Cash=4956.8 X=lime Round=2
Trader 9: buy 250 lime
Trader 9: bought 258 lime @ 19.21
Trader 9: bought 250 lime @ 19.81
Trader 8: Cash=5.0e3 X=orange Round=1
Trader 8: Cash=5.0e3 X=orange Round=1
Trader 8: buy 63 orange
Trader 9: Cash=5111.599999999999 X=coconut Round=3
Trader 8: buy 63 orange
Trader 9: buy 246 coconut
Trader 9: bought 246 coconut @ 20.75
Trader 2: Cash=5.0e3 X=cashew Round=1
Trader 2: Cash=5.0e3 X=cashew Round=1
Trader 2: buy 55 cashew
Trader 2: buy 55 cashew
Trader 11: bought 65 orange @ 76.5
Trader 11: Cash=4809.549999999999 X=banana Round=2
Trader 11: bought 65 orange @ 76.5
Trader 11: buy 195 banana
Trader 11: Cash=4809.549999999999 X=banana Round=2
Trader 11: bought 195 banana @ 24.55
Trader 11: buy 195 banana
Trader 11: bought 195 banana @ 24.55
Trader 11: Cash=4858.299999999999 X=apricot Round=3
Trader 11: buy 142 apricot
Trader 10: bought 203 banana @ 24.55
Trader 10: bought 203 banana @ 24.55
Trader 10: Cash=5050.75 X=mango Round=2
Trader 10: buy 118 mango
Trader 8: bought 63 orange @ 78.45
Trader 8: Cash=5.0e3 X=orange Round=1
Trader 8: Cash=5.0e3 X=orange Round=1
Trader 8: Cash=5.0e3 X=orange Round=1
Trader 8: buy 63 orange
Trader 6: Cash=5.0e3 X=lime Round=1
Trader 8: buy 63 orange
Trader 8: Cash=5.0e3 X=orange Round=1
Trader 8: Cash=5.0e3 X=orange Round=1
Trader 8: Cash=5.0e3 X=orange Round=1
Trader 6: Cash=5.0e3 X=lime Round=1
Trader 8: buy 63 orange
Trader 6: buy 251 lime
Trader 8: buy 63 orange
Trader 8: bought 63 orange @ 78.45
Trader 8: buy 63 orange
Trader 6: buy 251 lime
Trader 8: buy 63 orange
Trader 8: Cash=4877.15 X=mango Round=2
Trader 8: buy 114 mango
Trader 4: Cash=5.0e3 X=babaco Round=1
Trader 4: Cash=5.0e3 X=babaco Round=1
Trader 4: Cash=5.0e3 X=babaco Round=1
Trader 4: Cash=5.0e3 X=babaco Round=1
Trader 4: buy 117 babaco
Trader 4: buy 117 babaco
Trader 4: buy 117 babaco
Trader 4: buy 117 babaco
Trader 15: Cash=5.0e3 X=cashew Round=1
Trader 15: buy 56 cashew
Trader 10: Cash=5.0e3 X=banana Round=1
Trader 11: Cash=5.0e3 X=orange Round=1
Trader 5: Cash=5.0e3 X=apricot Round=1
Trader 10: buy 210 banana
Trader 14: Cash=5.0e3 X=mango Round=1
Trader 15: Cash=5.0e3 X=cashew Round=1
Trader 14: buy 117 mango
Trader 5: buy 145 apricot
Trader 5: Cash=5.0e3 X=apricot Round=1
Trader 14: Cash=5.0e3 X=mango Round=1
Trader 11: Cash=5.0e3 X=orange Round=1
Trader 10: Cash=5.0e3 X=banana Round=1
Trader 15: buy 56 cashew
Trader 14: buy 117 mango
Trader 5: buy 145 apricot
Trader 11: buy 63 orange
Trader 15: Cash=5.0e3 X=cashew Round=1
Trader 11: buy 63 orange
Trader 10: buy 210 banana
Trader 2: bought 55 cashew @ 90
Trader 15: Cash=5.0e3 X=cashew Round=1
Trader 15: buy 56 cashew
Trader 2: bought 55 cashew @ 90
Trader 15: buy 56 cashew
Trader 2: Cash=4923.0 X=orange Round=2
Trader 2: buy 64 orange
Trader 2: bought 64 orange @ 76.5
Trader 2: Cash=4735.48 X=apple Round=3
Trader 2: buy 1127 apple
Trader 2: bought 1127 apple @ 4.2
Trader 2: Cash=4645.319999999999 Down_Time=890
Trader 6: bought 251 lime @ 19.86
Trader 6: bought 251 lime @ 19.86
Trader 9: Cash=4859.3 X=coconut Round=3
Trader 6: Cash=4889.56 X=mango Round=2
Trader 9: Cash=4859.3 X=coconut Round=3
Trader 9: buy 234 coconut
Trader 6: buy 115 mango
Trader 9: buy 234 coconut
Trader 8: bought 114 mango @ 42.5
Trader 8: Cash=4691.9 X=apple Round=3
Trader 8: buy 1130 apple
Trader 8: bought 1130 apple @ 4.15
Trader 8: Cash=4748.4 Down_Time=920
Trader 3: Cash=4600.472 Down_Time=920
Trader 6: bought 115 mango @ 42.5
Trader 6: Cash=4702.685 X=babaco Round=3
Trader 6: buy 114 babaco
Trader 6: bought 114 babaco @ 41.1
Trader 6: Cash=4919.285 Down_Time=930
Trader 11: bought 63 orange @ 78.45
Trader 11: bought 63 orange @ 78.45
Trader 11: Cash=4877.15 X=banana Round=2
Trader 11: buy 198 banana
Trader 11: bought 198 banana @ 24.55
Trader 11: Cash=4926.65 X=apricot Round=3
Trader 11: buy 143 apricot
Trader 15: Cash=5162.400000000001 X=apple Round=2
Trader 15: buy 1253 apple
Trader 15: bought 1253 apple @ 4.12
Trader 15: Cash=5074.69 X=mango Round=3
Trader 15: buy 125 mango
Trader 15: bought 125 mango @ 40.438
Trader 15: bought 56 cashew @ 88.3
Trader 15: bought 56 cashew @ 88.3
Trader 15: Cash=5145.6 X=apple Round=2
Trader 15: buy 1174 apple
Trader 15: bought 56 cashew @ 88.3
Trader 15: bought 56 cashew @ 88.3
Trader 15: Cash=5145.6 X=apple Round=2
Trader 15: buy 1174 apple
Trader 2: Cash=5162.400000000001 X=orange Round=2
Trader 4: Cash=5095.2 X=coconut Round=3
Trader 2: buy 65 orange
Trader 4: buy 245 coconut
Trader 11: bought 142 apricot @ 34.2
Trader 1: Cash=5222.0 X=orange Round=3
Trader 1: buy 70 orange
Trader 11: Cash=5142.299999999999 Down_Time=1020
Trader 1: bought 70 orange @ 73.57
Trader 5: bought 145 apricot @ 34.35
Trader 5: bought 145 apricot @ 34.35
Trader 11: bought 143 apricot @ 34.35
Trader 9: Cash=4856.0 X=lime Round=2
Trader 9: buy 244 lime
Trader 9: bought 244 lime @ 19.86
Trader 9: Cash=4704.719999999999 X=coconut Round=3
Trader 9: buy 227 coconut
Trader 9: bought 227 coconut @ 20.65
Trader 3: bought 117 babaco @ 42.5
Trader 3: bought 117 babaco @ 42.5
Trader 3: bought 117 babaco @ 42.5
Trader 3: bought 117 babaco @ 42.5
Trader 3: Cash=4836.2 X=durian Round=2
Trader 3: Cash=4836.2 X=durian Round=2
Trader 3: Cash=4836.2 X=durian Round=2
Trader 3: Cash=4836.2 X=durian Round=2
Trader 3: buy 218 durian
Trader 3: buy 218 durian
Trader 3: buy 218 durian
Trader 3: buy 218 durian
Trader 3: bought 218 durian @ 22.1
Trader 3: bought 218 durian @ 22.1
Trader 3: bought 218 durian @ 22.1
Trader 3: bought 218 durian @ 22.1
Trader 7: bought 117 mango @ 42.594
Trader 7: bought 117 mango @ 42.594
Trader 3: bought 117 babaco @ 42.5
Trader 3: Cash=4836.2 X=durian Round=2
Trader 3: bought 117 babaco @ 42.5
Trader 3: buy 218 durian
Trader 3: Cash=4836.2 X=durian Round=2
Trader 3: bought 218 durian @ 22.1
Trader 3: buy 218 durian
Trader 3: bought 218 durian @ 22.1
Trader 13: Cash=5.0e3 X=orange Round=1
Trader 13: Cash=5.0e3 X=orange Round=1
Trader 13: buy 69 orange
Trader 13: buy 69 orange
Trader 2: Cash=5.0e3 X=cashew Round=1
Trader 2: buy 56 cashew
Trader 6: Cash=5.0e3 X=lime Round=1
Trader 6: buy 251 lime
Trader 6: Cash=5.0e3 X=lime Round=1
Trader 2: Cash=5.0e3 X=cashew Round=1
Trader 6: buy 251 lime
Trader 2: buy 56 cashew
Trader 6: Cash=5.0e3 X=lime Round=1
Trader 6: Cash=5.0e3 X=lime Round=1
Trader 6: buy 251 lime
Trader 2: Cash=5.0e3 X=cashew Round=1
Trader 2: Cash=5.0e3 X=cashew Round=1
Trader 6: buy 251 lime
Trader 2: buy 56 cashew
Trader 2: buy 56 cashew
Trader 8: bought 63 orange @ 78.95
Trader 8: bought 63 orange @ 78.95
Trader 8: Cash=4968.5 X=mango Round=2
Trader 8: buy 116 mango
Trader 2: bought 65 orange @ 78.45
Trader 8: bought 116 mango @ 42.5
Trader 4: bought 245 coconut @ 20.82
Trader 2: Cash=4845.2 X=apple Round=3
Trader 8: Cash=4780.0 X=apple Round=3
Trader 2: buy 1153 apple
Trader 8: buy 1091 apple
Trader 4: Cash=4982.5 Down_Time=1280
Trader 12: Cash=4904.839000000001 Down_Time=1280
Trader 2: bought 1153 apple @ 4.2
Trader 9: bought 234 coconut @ 20.36
Trader 2: Cash=4752.959999999999 Down_Time=1280
Trader 9: Cash=4744.64 Down_Time=1280
Trader 3: Cash=5.0e3 X=babaco Round=1
Trader 5: Cash=5.0e3 X=apricot Round=1
Trader 11: Cash=5.0e3 X=orange Round=1
Trader 3: Cash=5.0e3 X=babaco Round=1
Trader 5: Cash=5.0e3 X=apricot Round=1
Trader 11: buy 63 orange
Trader 3: buy 117 babaco
Trader 5: buy 146 apricot
Trader 5: buy 146 apricot
Trader 11: Cash=5.0e3 X=orange Round=1
Trader 2: Cash=5.0e3 X=cashew Round=1
Trader 2: Cash=5.0e3 X=cashew Round=1
Trader 3: buy 117 babaco
Trader 11: buy 63 orange
Trader 2: buy 56 cashew
Trader 2: buy 56 cashew
Trader 7: Cash=5.0e3 X=mango Round=1
Trader 7: Cash=5.0e3 X=mango Round=1
Trader 7: buy 122 mango
Trader 7: buy 122 mango
Trader 13: bought 69 orange @ 71.6
Trader 13: bought 69 orange @ 71.6
Trader 13: Cash=4896.5 X=banana Round=2
Trader 13: buy 197 banana
Trader 13: bought 197 banana @ 24.8
Trader 13: Cash=5004.85 X=lime Round=3
Trader 13: buy 252 lime
Trader 6: Cash=5.0e3 X=lime Round=1
Trader 6: buy 259 lime
Trader 6: Cash=5.0e3 X=lime Round=1
Trader 6: buy 259 lime
Trader 7: bought 122 mango @ 40.657
Trader 7: bought 122 mango @ 40.657
Trader 7: Cash=4935.0960000000005 X=apple Round=2
Trader 7: buy 1126 apple
Trader 7: bought 1126 apple @ 4.38
Trader 7: Cash=4845.0160000000005 X=apricot Round=3
Trader 7: buy 141 apricot
Trader 7: bought 141 apricot @ 34.2
Trader 7: Cash=4746.316 Down_Time=1310
Trader 15: Cash=5035.565 Down_Time=1310
Trader 6: bought 251 lime @ 19.86
Trader 6: bought 251 lime @ 19.86
Trader 12: Cash=4857.700000000001 X=mango Round=3
Trader 6: bought 251 lime @ 19.86
Trader 6: bought 251 lime @ 19.86
Trader 12: Cash=4857.700000000001 X=mango Round=3
Trader 12: buy 114 mango
Trader 12: Cash=4857.700000000001 X=mango Round=3
Trader 12: Cash=4857.700000000001 X=mango Round=3
Trader 6: Cash=4889.56 X=mango Round=2
Trader 6: Cash=4889.56 X=mango Round=2
Trader 12: buy 114 mango
Trader 12: buy 114 mango
Trader 12: buy 114 mango
Trader 6: buy 115 mango
Trader 6: buy 115 mango
Trader 13: Cash=5.0e3 X=orange Round=1
Trader 13: Cash=5.0e3 X=orange Round=1
Trader 13: buy 67 orange
Trader 13: buy 67 orange
Trader 13: bought 67 orange @ 73.57
Trader 13: Cash=4868.01 X=banana Round=2
Trader 13: buy 196 banana
Trader 13: bought 67 orange @ 73.57
Trader 13: bought 196 banana @ 24.8
Trader 13: Cash=4868.01 X=banana Round=2
Trader 13: buy 196 banana
Trader 13: bought 196 banana @ 24.8
Trader 13: Cash=4975.81 X=lime Round=3
Trader 13: buy 258 lime
Trader 13: bought 258 lime @ 19.26
Trader 12: bought 114 mango @ 42.5
Trader 8: Cash=4769.096 X=apple Round=3
Trader 12: bought 114 mango @ 42.5
Trader 6: bought 115 mango @ 42.5
Trader 6: bought 115 mango @ 42.5
Trader 8: buy 1088 apple
Trader 12: bought 114 mango @ 40.875
Trader 6: Cash=4652.43 X=babaco Round=3
Trader 6: Cash=4702.685 X=babaco Round=3
Trader 12: bought 114 mango @ 40.875
Trader 8: Cash=4718.4039999999995 X=apple Round=3
Trader 6: buy 113 babaco
Trader 6: buy 114 babaco
Trader 6: bought 113 babaco @ 41.1
Trader 8: buy 1077 apple
Trader 6: bought 114 babaco @ 41.1
Trader 8: Cash=4769.096 X=apple Round=3
Trader 8: Cash=4718.4039999999995 X=apple Round=3
Trader 6: Cash=4867.13 Down_Time=1350
Trader 8: buy 1088 apple
Trader 6: Cash=4919.285 Down_Time=1350
Trader 8: buy 1077 apple
Trader 11: bought 63 orange @ 78.45
Trader 8: Cash=4845.65 X=mango Round=2
Trader 11: bought 63 orange @ 78.45
Trader 8: buy 113 mango
Trader 11: Cash=4877.15 X=banana Round=2
Trader 8: Cash=4845.65 X=mango Round=2
Trader 11: buy 205 banana
Trader 8: buy 113 mango
Trader 13: bought 252 lime @ 19.81
Trader 2: bought 56 cashew @ 88.3
Trader 2: bought 56 cashew @ 88.3
Trader 2: Cash=5145.6 X=orange Round=2
Trader 2: buy 65 orange
Trader 2: bought 65 orange @ 78.45
Trader 2: Cash=5018.85 X=apple Round=3
Trader 2: bought 56 cashew @ 88.3
Trader 2: buy 1145 apple
Trader 2: bought 56 cashew @ 88.3
Trader 2: Cash=5145.6 X=orange Round=2
Trader 2: buy 65 orange
Trader 2: bought 65 orange @ 78.45
Trader 2: Cash=5018.85 X=apple Round=3
Trader 2: buy 1145 apple
Trader 2: bought 56 cashew @ 88.3
Trader 2: bought 56 cashew @ 88.3
Trader 2: Cash=5145.6 X=orange Round=2
Trader 2: buy 65 orange
Trader 2: bought 65 orange @ 78.45
Trader 8: Cash=4845.65 X=mango Round=2
Trader 2: Cash=5018.85 X=apple Round=3
Trader 8: buy 113 mango
Trader 2: buy 1145 apple
Trader 13: Cash=4947.429999999999 Down_Time=1410
Trader 3: Cash=4705.4 X=mango Round=3
Trader 3: buy 115 mango
Trader 3: bought 115 mango @ 40.75
Trader 3: Cash=4705.4 X=mango Round=3
Trader 3: buy 115 mango
Trader 3: bought 115 mango @ 40.75
Trader 3: Cash=4633.525 Down_Time=1460
Trader 12: Cash=4807.882000000001 Down_Time=1460
Trader 1: Cash=5085.2 X=orange Round=3
Trader 1: buy 66 orange
Trader 1: bought 66 orange @ 76.5
Trader 5: bought 146 apricot @ 34.2
Trader 5: bought 146 apricot @ 34.2
Trader 1: Cash=5222.0 X=orange Round=3
Trader 1: Cash=5222.0 X=orange Round=3
Trader 5: Cash=5292.0 X=apple Round=2
Trader 5: Cash=5292.0 X=apple Round=2
Trader 1: buy 66 orange
Trader 1: buy 66 orange
Trader 5: buy 1208 apple
Trader 5: buy 1208 apple
Trader 1: bought 66 orange @ 78.45
Trader 1: bought 66 orange @ 78.45
Trader 8: Cash=4845.65 X=mango Round=2
Trader 8: Cash=4845.65 X=mango Round=2
Trader 8: buy 114 mango
Trader 8: buy 114 mango
Trader 8: bought 114 mango @ 42.5
Trader 8: bought 114 mango @ 42.5
Trader 7: Cash=4798.8769999999995 X=apple Round=2
Trader 7: Cash=4798.8769999999995 X=apple Round=2
Trader 8: Cash=4660.4 X=apple Round=3
Trader 8: Cash=4660.4 X=apple Round=3
Trader 7: buy 1095 apple
Trader 7: buy 1095 apple
Trader 8: buy 1064 apple
Trader 8: buy 1064 apple
Trader 1: Cash=4778.0 X=apricot Round=2
Trader 1: buy 137 apricot
Trader 1: bought 137 apricot @ 34.7
Trader 1: Cash=4613.599999999999 X=orange Round=3
Trader 1: buy 67 orange
Trader 1: bought 67 orange @ 68.79
Trader 1: Cash=4888.969999999999 Down_Time=1660
Trader 15: Cash=5.0e3 X=cashew Round=1
Trader 15: Cash=5.0e3 X=cashew Round=1
Trader 15: buy 58 cashew
Trader 15: buy 58 cashew
Trader 15: bought 58 cashew @ 85.7
Trader 15: bought 58 cashew @ 85.7
Trader 15: Cash=4942.0 X=apple Round=2
Trader 15: buy 1128 apple
Trader 15: bought 1128 apple @ 4.38
Trader 15: Cash=4795.36 X=mango Round=3
Trader 15: buy 121 mango
Trader 15: bought 121 mango @ 39.375
Trader 15: Cash=4852.1089999999995 Down_Time=2350
Trader 7: Cash=5.0e3 X=mango Round=1
Trader 7: Cash=5.0e3 X=mango Round=1
Trader 7: buy 116 mango
Trader 7: buy 116 mango
Trader 7: bought 116 mango @ 43.04
Trader 7: bought 116 mango @ 43.04
Trader 7: Cash=4879.36 X=apple Round=2
Trader 7: buy 1219 apple
Trader 7: bought 1219 apple @ 4
Trader 7: Cash=4940.3099999999995 X=apricot Round=3
Trader 7: buy 125 apricot
Trader 7: bought 125 apricot @ 39.5
Trader 7: Cash=5377.8099999999995 Down_Time=5450
Trader 11: Cash=5.0e3 X=orange Round=1
Trader 11: Cash=5.0e3 X=orange Round=1
Trader 11: buy 72 orange
Trader 11: buy 72 orange
Trader 11: bought 72 orange @ 69.06
Trader 11: bought 72 orange @ 69.06
Trader 11: Cash=4904.240000000001 X=banana Round=2
Trader 11: buy 177 banana
Trader 11: bought 177 banana @ 27.65
Trader 11: Cash=5019.290000000001 X=apricot Round=3
Trader 11: buy 86 apricot
Trader 11: bought 86 apricot @ 58
Trader 11: Cash=4890.290000000001 Down_Time=13490
Trader 10: Cash=5.0e3 X=banana Round=1
Trader 10: Cash=5.0e3 X=banana Round=1
Trader 10: buy 135 banana
Trader 10: buy 135 banana
Trader 10: bought 135 banana @ 36.8
Trader 10: bought 135 banana @ 36.8
Trader 10: Cash=5094.5 X=mango Round=2
Trader 10: buy 109 mango
Trader 10: bought 109 mango @ 46.45
Trader 10: Cash=5048.174999999999 X=orange Round=3
Trader 10: buy 72 orange
Trader 10: bought 72 orange @ 69.97
Trader 10: Cash=4998.494999999999 Down_Time=30590
Trader 3: Cash=5.0e3 X=babaco Round=1
Trader 3: Cash=5.0e3 X=babaco Round=1
Trader 3: buy 191 babaco
Trader 3: buy 191 babaco
Trader 14: Cash=5.0e3 X=mango Round=1
Trader 14: buy 115 mango
Trader 14: Cash=5.0e3 X=mango Round=1
Trader 14: Cash=5.0e3 X=mango Round=1
Trader 14: Cash=5.0e3 X=mango Round=1
Trader 14: buy 115 mango
Trader 14: buy 115 mango
Trader 14: buy 115 mango
Trader 3: bought 191 babaco @ 26.1
Trader 14: bought 115 mango @ 43.375
Trader 8: Cash=5.0e3 X=orange Round=1
Trader 5: Cash=5.0e3 X=apricot Round=1
Trader 8: buy 66 orange
Trader 5: Cash=5.0e3 X=apricot Round=1
Trader 5: buy 102 apricot
Trader 5: Cash=5.0e3 X=apricot Round=1
Trader 8: Cash=5.0e3 X=orange Round=1
Trader 5: Cash=5.0e3 X=apricot Round=1
Trader 5: Cash=5.0e3 X=apricot Round=1
Trader 5: Cash=5.0e3 X=apricot Round=1
Trader 5: buy 102 apricot
Trader 5: buy 102 apricot
Trader 5: buy 102 apricot
Trader 5: buy 102 apricot
Trader 5: buy 102 apricot
Trader 8: buy 66 orange
Trader 3: Cash=4866.299999999999 X=durian Round=2
Trader 14: Cash=5051.75 X=apple Round=2
Trader 3: buy 326 durian
Trader 14: Cash=5051.75 X=apple Round=2
Trader 14: buy 534 apple
Trader 3: Cash=4866.299999999999 X=durian Round=2
Trader 14: buy 534 apple
Trader 3: buy 326 durian
Trader 14: bought 115 mango @ 43.375
Trader 3: bought 326 durian @ 14.9
Trader 8: Cash=5.0e3 X=orange Round=1
Trader 5: Cash=5.0e3 X=apricot Round=1
Trader 8: buy 66 orange
Trader 3: bought 191 babaco @ 26.1
Trader 5: buy 102 apricot
Trader 3: Cash=4866.299999999999 X=durian Round=2
Trader 5: bought 102 apricot @ 48.65
Trader 14: bought 115 mango @ 43.375
Trader 3: buy 326 durian
Trader 5: Cash=4928.6 X=apple Round=2
Trader 8: Cash=5.0e3 X=orange Round=1
Trader 5: Cash=5.0e3 X=apricot Round=1
Trader 8: Cash=5.0e3 X=orange Round=1
Trader 8: buy 66 orange
Trader 5: Cash=5.0e3 X=apricot Round=1
Trader 5: buy 102 apricot
Trader 8: buy 66 orange
Trader 5: buy 102 apricot
Trader 8: Cash=5.0e3 X=orange Round=1
Trader 5: Cash=5.0e3 X=apricot Round=1
Trader 8: buy 66 orange
Trader 5: buy 102 apricot
Trader 5: bought 102 apricot @ 48.65
Trader 8: Cash=5.0e3 X=orange Round=1
Trader 8: buy 66 orange
Trader 8: Cash=5.0e3 X=orange Round=1
Trader 8: Cash=5.0e3 X=orange Round=1
Trader 8: buy 66 orange
Trader 8: buy 66 orange
Trader 8: Cash=5.0e3 X=orange Round=1
Trader 5: bought 102 apricot @ 48.65
Trader 8: buy 66 orange
Trader 5: Cash=4928.6 X=apple Round=2
Trader 8: Cash=5.0e3 X=orange Round=1
Trader 8: Cash=5.0e3 X=orange Round=1
Trader 8: buy 66 orange
Trader 8: Cash=5.0e3 X=orange Round=1
Trader 8: buy 66 orange
Trader 8: buy 66 orange
Trader 8: Cash=5.0e3 X=orange Round=1
Trader 8: buy 66 orange
Trader 3: Cash=4817.399999999999 X=mango Round=3
Trader 5: bought 102 apricot @ 48.65
Trader 3: buy 109 mango
Trader 3: Cash=4817.399999999999 X=mango Round=3
Trader 3: bought 109 mango @ 43.825
Trader 5: bought 102 apricot @ 48.65
Trader 3: buy 109 mango
Trader 3: bought 109 mango @ 43.825
Trader 5: buy 520 apple
Trader 5: buy 520 apple
Trader 5: buy 520 apple
Trader 5: bought 102 apricot @ 48.65
Trader 5: buy 520 apple
Trader 5: bought 102 apricot @ 48.65
Trader 3: bought 191 babaco @ 26.1
Trader 3: bought 191 babaco @ 26.1
Trader 3: bought 191 babaco @ 26.1
Trader 3: bought 191 babaco @ 26.1
Trader 3: Cash=4866.299999999999 X=durian Round=2
Trader 3: Cash=4866.299999999999 X=durian Round=2
Trader 3: Cash=4866.299999999999 X=durian Round=2
Trader 3: Cash=4866.299999999999 X=durian Round=2
Trader 3: buy 326 durian
Trader 3: buy 326 durian
Trader 3: buy 326 durian
Trader 3: buy 326 durian
Trader 5: bought 102 apricot @ 48.65
Trader 14: bought 534 apple @ 9.46
Trader 8: bought 66 orange @ 75.4
Trader 14: bought 534 apple @ 9.46
Trader 8: bought 66 orange @ 75.4
Trader 5: bought 102 apricot @ 48.65
Trader 5: Cash=4928.6 X=apple Round=2
Trader 14: Cash=5025.05 X=banana Round=3
Trader 14: Cash=5025.05 X=banana Round=3
Trader 14: buy 122 banana
Trader 5: buy 523 apple
Trader 14: bought 534 apple @ 9.46
Trader 8: bought 66 orange @ 75.4
Trader 3: bought 326 durian @ 14.9
Trader 5: bought 523 apple @ 9.41
Trader 5: bought 102 apricot @ 48.65
Trader 8: bought 66 orange @ 75.4
Trader 14: buy 122 banana
Trader 3: Cash=4817.399999999999 X=mango Round=3
Trader 5: bought 102 apricot @ 48.65
Trader 5: Cash=4876.3 X=banana Round=3
Trader 14: bought 534 apple @ 9.46
Trader 3: buy 109 mango
Trader 3: bought 326 durian @ 14.9
Trader 5: Cash=4928.6 X=apple Round=2
Trader 14: bought 122 banana @ 41
Trader 14: bought 122 banana @ 41
Trader 5: buy 118 banana
Trader 14: Cash=5025.05 X=banana Round=3
Trader 3: bought 109 mango @ 43.825
Trader 14: Cash=5025.05 X=banana Round=3
Trader 3: Cash=4817.399999999999 X=mango Round=3
Trader 5: buy 523 apple
Trader 14: buy 122 banana
Trader 5: bought 118 banana @ 41.2
Trader 14: buy 122 banana
Trader 5: bought 523 apple @ 9.41
Trader 3: buy 109 mango
Trader 14: bought 122 banana @ 41
Trader 14: bought 122 banana @ 41
Trader 5: Cash=4746.5 Down_Time=38780
Trader 3: bought 109 mango @ 43.825
Trader 3: bought 326 durian @ 14.9
Trader 8: bought 66 orange @ 75.4
Trader 3: bought 326 durian @ 14.9
Trader 5: Cash=4876.3 X=banana Round=3
Trader 3: Cash=4817.399999999999 X=mango Round=3
Trader 8: bought 66 orange @ 75.4
Trader 3: buy 109 mango
Trader 3: bought 326 durian @ 14.9
Trader 5: bought 520 apple @ 9.46
Trader 3: bought 326 durian @ 14.9
Trader 8: bought 66 orange @ 75.4
Trader 5: buy 118 banana
Trader 3: Cash=4817.399999999999 X=mango Round=3
Trader 3: bought 109 mango @ 43.825
Trader 3: Cash=4817.399999999999 X=mango Round=3
Trader 8: bought 66 orange @ 75.4
Trader 5: bought 520 apple @ 9.46
Trader 3: buy 109 mango
Trader 3: Cash=4817.399999999999 X=mango Round=3
Trader 5: bought 118 banana @ 41.2
Trader 5: Cash=4902.599999999999 X=banana Round=3
Trader 3: buy 109 mango
Trader 5: Cash=4902.599999999999 X=banana Round=3
Trader 3: bought 109 mango @ 43.825
Trader 3: buy 109 mango
Trader 5: Cash=4746.5 Down_Time=38780
Trader 5: buy 119 banana
Trader 5: buy 119 banana
Trader 3: bought 109 mango @ 43.825
Trader 3: bought 109 mango @ 43.825
Trader 5: bought 119 banana @ 41
Trader 5: bought 119 banana @ 41
Trader 3: bought 191 babaco @ 26.1
Trader 8: bought 66 orange @ 75.4
Trader 14: bought 115 mango @ 43.375
Trader 8: bought 66 orange @ 75.4
Trader 3: bought 326 durian @ 14.9
Trader 14: Cash=5051.75 X=apple Round=2
Trader 3: Cash=4866.299999999999 X=durian Round=2
Trader 3: bought 191 babaco @ 26.1
Trader 5: bought 102 apricot @ 48.65
Trader 3: bought 326 durian @ 14.9
Trader 5: bought 102 apricot @ 48.65
Trader 14: buy 534 apple
Trader 8: bought 66 orange @ 75.4
Trader 3: buy 326 durian
Trader 8: bought 66 orange @ 75.4
Trader 14: bought 115 mango @ 43.375
Trader 14: bought 115 mango @ 43.375
Trader 5: Cash=4928.6 X=apple Round=2
Trader 5: Cash=4928.6 X=apple Round=2
Trader 3: Cash=4866.299999999999 X=durian Round=2
Trader 3: bought 326 durian @ 14.9
Trader 14: bought 534 apple @ 9.46
Trader 14: bought 115 mango @ 43.375
Trader 5: buy 520 apple
Trader 5: buy 520 apple
Trader 14: Cash=5051.75 X=apple Round=2
Trader 3: buy 326 durian
Trader 14: Cash=5051.75 X=apple Round=2
Trader 14: Cash=5025.05 X=banana Round=3
Trader 14: Cash=5051.75 X=apple Round=2
Trader 5: bought 520 apple @ 9.46
Trader 3: bought 326 durian @ 14.9
Trader 14: buy 536 apple
Trader 14: buy 534 apple
Trader 5: bought 520 apple @ 9.46
Trader 14: buy 122 banana
Trader 14: buy 536 apple
Trader 5: Cash=4902.599999999999 X=banana Round=3
Trader 14: bought 536 apple @ 9.41
Trader 14: bought 534 apple @ 9.46
Trader 5: Cash=4850.599999999999 X=banana Round=3
Trader 14: bought 122 banana @ 41
Trader 14: bought 536 apple @ 9.41
Trader 5: buy 119 banana
Trader 14: Cash=4998.15 X=banana Round=3
Trader 14: Cash=5025.05 X=banana Round=3
Trader 5: buy 118 banana
Trader 14: Cash=4998.15 X=banana Round=3
Trader 5: bought 119 banana @ 41
Trader 14: buy 121 banana
Trader 14: buy 122 banana
Trader 14: buy 121 banana
Trader 5: bought 118 banana @ 41
Trader 14: bought 121 banana @ 41.2
Trader 14: bought 122 banana @ 41
Trader 14: bought 121 banana @ 41.2
Trader 14: bought 115 mango @ 43.375
Trader 8: bought 66 orange @ 75.4
Trader 8: bought 66 orange @ 75.4
Trader 3: bought 191 babaco @ 26.1
Trader 14: bought 115 mango @ 43.375
Trader 3: Cash=4866.299999999999 X=durian Round=2
Trader 3: bought 191 babaco @ 26.1
Trader 3: buy 326 durian
Trader 3: bought 326 durian @ 14.9
Trader 3: Cash=4866.299999999999 X=durian Round=2
Trader 14: bought 115 mango @ 43.375
Trader 8: bought 66 orange @ 75.4
Trader 5: bought 520 apple @ 9.46
Trader 3: bought 191 babaco @ 26.1
Trader 5: bought 520 apple @ 9.46
Trader 3: bought 191 babaco @ 26.1
Trader 3: buy 326 durian
Trader 14: bought 115 mango @ 43.375
Trader 8: bought 66 orange @ 75.4
Trader 5: Cash=4902.599999999999 X=banana Round=3
Trader 3: Cash=4866.299999999999 X=durian Round=2
Trader 5: Cash=4902.599999999999 X=banana Round=3
Trader 3: bought 326 durian @ 14.9
Trader 3: Cash=4866.299999999999 X=durian Round=2
Trader 5: buy 119 banana
Trader 3: buy 326 durian
Trader 5: buy 119 banana
Trader 3: buy 326 durian
Trader 5: bought 119 banana @ 41
Trader 3: bought 326 durian @ 14.9
Trader 5: bought 119 banana @ 41
Trader 3: bought 326 durian @ 14.9
Trader 3: Cash=4735.899999999999 X=mango Round=3
Trader 3: Cash=4735.899999999999 X=mango Round=3
Trader 3: Cash=4735.899999999999 X=mango Round=3
Trader 3: Cash=4735.899999999999 X=mango Round=3
Trader 3: buy 108 mango
Trader 3: buy 108 mango
Trader 3: buy 108 mango
Trader 3: buy 108 mango
Trader 3: bought 108 mango @ 43.825
Trader 3: bought 108 mango @ 43.825
Trader 3: bought 108 mango @ 43.825
Trader 3: bought 108 mango @ 43.825
Trader 5: Cash=4398.2 X=apple Round=2
Trader 5: buy 464 apple
Trader 5: Cash=4398.2 X=apple Round=2
Trader 5: bought 464 apple @ 9.46
Trader 5: buy 464 apple
Trader 5: bought 464 apple @ 9.46
Trader 5: Cash=4398.2 X=apple Round=2
Trader 5: Cash=4398.2 X=apple Round=2
Trader 5: buy 464 apple
Trader 5: buy 464 apple
Trader 5: bought 464 apple @ 9.46
Trader 5: bought 464 apple @ 9.46
Trader 3: Cash=4735.899999999999 X=mango Round=3
Trader 3: Cash=4735.899999999999 X=mango Round=3
Trader 3: Cash=4735.899999999999 X=mango Round=3
Trader 3: Cash=4735.899999999999 X=mango Round=3
Trader 3: buy 108 mango
Trader 3: buy 108 mango
Trader 3: buy 108 mango
Trader 3: buy 108 mango
Trader 3: bought 108 mango @ 43.825
Trader 3: bought 108 mango @ 43.825
Trader 3: bought 108 mango @ 43.825
Trader 3: bought 108 mango @ 43.825
Trader 5: Cash=4398.2 X=apple Round=2
Trader 5: Cash=4398.2 X=apple Round=2
Trader 5: buy 467 apple
Trader 5: buy 467 apple
Trader 5: bought 467 apple @ 9.41
Trader 5: bought 467 apple @ 9.41
Trader 8: Cash=5069.959999999999 X=mango Round=2
Trader 8: buy 118 mango
Trader 8: bought 118 mango @ 42.825
Trader 8: Cash=5069.959999999999 X=mango Round=2
Trader 8: Cash=5069.959999999999 X=mango Round=2
Trader 8: buy 118 mango
Trader 8: buy 118 mango
Trader 8: bought 118 mango @ 42.825
Trader 8: bought 118 mango @ 42.825
Trader 8: Cash=5069.959999999999 X=mango Round=2
Trader 8: buy 118 mango
Trader 8: Cash=5069.959999999999 X=mango Round=2
Trader 8: bought 118 mango @ 42.825
Trader 8: buy 118 mango
Trader 8: bought 118 mango @ 42.825
Trader 8: Cash=5069.959999999999 X=mango Round=2
Trader 8: Cash=5069.959999999999 X=mango Round=2
Trader 8: buy 118 mango
Trader 8: buy 118 mango
Trader 8: bought 118 mango @ 42.825
Trader 8: bought 118 mango @ 42.825
Trader 5: Cash=4258.099999999999 X=banana Round=3
Trader 5: buy 105 banana
Trader 5: bought 105 banana @ 40.35
Trader 5: Cash=4258.099999999999 X=banana Round=3
Trader 5: buy 105 banana
Trader 5: bought 105 banana @ 40.35
Trader 5: Cash=4235.799999999999 X=banana Round=3
Trader 5: buy 104 banana
Trader 5: bought 104 banana @ 40.35
Trader 8: Cash=5032.789999999998 X=apple Round=3
Trader 8: buy 552 apple
Trader 8: bought 552 apple @ 9.11
Trader 8: Cash=5005.189999999999 Down_Time=38910
Trader 14: Cash=4915.25 Down_Time=38910
Trader 3: Cash=4700.2249999999985 Down_Time=38910
sleep before finalize: [4700.2249999999985,4915.25,5005.189999999999,4746.5,
                        4998.494999999999,4890.290000000001,
                        5377.8099999999995,4852.1089999999995,
                        4888.969999999999,4947.429999999999,4744.64,
                        4752.959999999999,4904.839000000001,4982.5,4919.285]
finalize!
client_monitor: Start_Time=300, End_Time=43590, Start_Memory=826627848, End_Memory=829129896, Peak_Memory=846740008
client_monitor: 43290 ms, 2502048 bytes (end) / 20112160 bytes (peak)
process_allocator: Alive=16, Pending=[], Limit=1000000, Max=79, Retired=34
real 78.72
user 46.75
sys 71.50
make[2]: Leaving directory `/home/x/xiaojia/sn'
make[1]: Leaving directory `/home/x/xiaojia/sn'
