make[1]: Entering directory `/home/x/xiaojia/sn'
make test EVAL="test:st(12)."
make[2]: Entering directory `/home/x/xiaojia/sn'
rebar compile
==> sn (compile)
time -p erl -sname mynode -pa ebin +P 100000000 -eval "test:st(12)." -noinput +S 4:4
sn_app registered
memory_monitor registered
process_allocator registered
sn_server registered
client_monitor registered
Trader 1: Cash=5.0e3 X=babaco Round=1
Trader 1: Cash=5.0e3 X=babaco Round=1
Trader 1: buy 117 babaco
Trader 1: buy 117 babaco
Trader 12: Cash=5.0e3 X=cashew Round=1
Trader 12: buy 56 cashew
Trader 12: Cash=5.0e3 X=cashew Round=1
Trader 12: Cash=5.0e3 X=cashew Round=1
Trader 12: buy 56 cashew
Trader 12: buy 56 cashew
Trader 12: Cash=5.0e3 X=cashew Round=1
Trader 12: buy 56 cashew
Trader 12: bought 56 cashew @ 88
Trader 1: bought 117 babaco @ 42.5
Trader 12: bought 56 cashew @ 88
Trader 1: bought 117 babaco @ 42.5
Trader 1: Cash=4836.2 X=apricot Round=2
Trader 1: buy 140 apricot
Trader 1: Cash=4836.2 X=apricot Round=2
Trader 1: bought 140 apricot @ 34.5
Trader 1: buy 140 apricot
Trader 1: bought 117 babaco @ 42.5
Trader 1: bought 117 babaco @ 42.5
Trader 1: bought 140 apricot @ 34.5
Trader 1: Cash=4836.2 X=apricot Round=2
Trader 1: Cash=4836.2 X=apricot Round=2
Trader 1: buy 140 apricot
Trader 1: buy 140 apricot
Trader 1: bought 140 apricot @ 34.5
Trader 1: bought 140 apricot @ 34.5
Trader 12: bought 56 cashew @ 88
Trader 12: bought 56 cashew @ 88
Trader 2: Cash=5.0e3 X=apricot Round=1
Trader 2: Cash=5.0e3 X=apricot Round=1
Trader 2: Cash=5.0e3 X=apricot Round=1
Trader 2: Cash=5.0e3 X=apricot Round=1
Trader 2: buy 145 apricot
Trader 2: buy 145 apricot
Trader 2: buy 145 apricot
Trader 2: buy 145 apricot
Trader 6: Cash=5.0e3 X=apricot Round=1
Trader 9: Cash=5.0e3 X=durian Round=1
Trader 9: Cash=5.0e3 X=durian Round=1
Trader 6: Cash=5.0e3 X=apricot Round=1
Trader 6: buy 145 apricot
Trader 9: buy 222 durian
Trader 9: buy 222 durian
Trader 6: buy 145 apricot
Trader 2: bought 145 apricot @ 34.35
Trader 2: bought 145 apricot @ 34.35
Trader 2: bought 145 apricot @ 34.35
Trader 6: bought 145 apricot @ 34.35
Trader 1: Cash=4794.2 X=coconut Round=3
Trader 1: buy 231 coconut
Trader 2: bought 145 apricot @ 34.35
Trader 6: bought 145 apricot @ 34.35
Trader 1: Cash=4794.2 X=coconut Round=3
Trader 1: buy 231 coconut
Trader 1: bought 231 coconut @ 20.75
Trader 1: bought 231 coconut @ 20.75
Trader 9: bought 222 durian @ 22.5
Trader 9: bought 222 durian @ 22.5
Trader 9: Cash=4955.6 X=lime Round=2
Trader 9: buy 257 lime
Trader 9: bought 257 lime @ 19.21
Trader 9: Cash=5109.8 X=mango Round=3
Trader 9: buy 119 mango
Trader 9: bought 119 mango @ 42.594
Trader 4: Cash=5.0e3 X=mango Round=1
Trader 10: Cash=5.0e3 X=orange Round=1
Trader 10: Cash=5.0e3 X=orange Round=1
Trader 4: Cash=5.0e3 X=mango Round=1
Trader 10: Cash=5.0e3 X=orange Round=1
Trader 10: Cash=5.0e3 X=orange Round=1
Trader 4: buy 117 mango
Trader 4: Cash=5.0e3 X=mango Round=1
Trader 10: buy 63 orange
Trader 4: Cash=5.0e3 X=mango Round=1
Trader 10: buy 63 orange
Trader 4: buy 117 mango
Trader 10: buy 63 orange
Trader 10: buy 63 orange
Trader 4: buy 117 mango
Trader 4: buy 117 mango
Trader 8: Cash=5.0e3 X=orange Round=1
Trader 9: Cash=5.0e3 X=durian Round=1
Trader 8: Cash=5.0e3 X=orange Round=1
Trader 9: Cash=5.0e3 X=durian Round=1
Trader 5: Cash=5.0e3 X=orange Round=1
Trader 8: Cash=5.0e3 X=orange Round=1
Trader 5: Cash=5.0e3 X=orange Round=1
Trader 8: Cash=5.0e3 X=orange Round=1
Trader 9: buy 222 durian
Trader 8: buy 63 orange
Trader 8: buy 63 orange
Trader 9: buy 222 durian
Trader 5: buy 63 orange
Trader 8: buy 63 orange
Trader 5: buy 63 orange
Trader 8: buy 63 orange
Trader 10: bought 63 orange @ 78.95
Trader 10: bought 63 orange @ 78.95
Trader 10: Cash=4968.5 X=banana Round=2
Trader 10: buy 209 banana
Trader 10: bought 209 banana @ 23.7
Trader 10: bought 63 orange @ 78.95
Trader 10: bought 63 orange @ 78.95
Trader 10: Cash=5146.15 X=lime Round=3
Trader 10: Cash=4968.5 X=banana Round=2
Trader 10: buy 259 lime
Trader 10: buy 209 banana
Trader 10: bought 259 lime @ 19.81
Trader 10: bought 209 banana @ 23.7
Trader 10: Cash=5146.15 X=lime Round=3
Trader 10: buy 267 lime
Trader 10: bought 267 lime @ 19.21
Trader 10: Cash=5306.3499999999985 Down_Time=720
Trader 4: bought 117 mango @ 42.594
Trader 4: bought 117 mango @ 42.594
Trader 4: bought 117 mango @ 42.594
Trader 4: bought 117 mango @ 42.594
Trader 8: bought 63 orange @ 78.95
Trader 9: bought 222 durian @ 22.5
Trader 8: bought 63 orange @ 78.95
Trader 8: Cash=4968.5 X=banana Round=2
Trader 8: buy 209 banana
Trader 8: bought 209 banana @ 23.7
Trader 8: Cash=5146.15 X=apricot Round=3
Trader 8: buy 150 apricot
Trader 9: bought 222 durian @ 22.5
Trader 8: bought 150 apricot @ 34.2
Trader 2: Cash=5268.25 X=apple Round=2
Trader 2: buy 1202 apple
Trader 2: bought 1200 apple @ 4.38
Trader 8: Cash=5446.15 Down_Time=740
Trader 11: Cash=5.0e3 X=mango Round=1
Trader 9: Cash=4955.6 X=lime Round=2
Trader 11: Cash=5.0e3 X=mango Round=1
Trader 8: Cash=5.0e3 X=orange Round=1
Trader 8: Cash=5.0e3 X=orange Round=1
Trader 11: buy 117 mango
Trader 9: buy 257 lime
Trader 11: buy 117 mango
Trader 4: Cash=5.0e3 X=mango Round=1
Trader 4: Cash=5.0e3 X=mango Round=1
Trader 8: buy 63 orange
Trader 8: buy 63 orange
Trader 9: bought 257 lime @ 19.21
Trader 2: Cash=4992.25 X=banana Round=3
Trader 4: buy 117 mango
Trader 4: buy 117 mango
Trader 9: Cash=5109.8 X=mango Round=3
Trader 2: buy 203 banana
Trader 9: buy 119 mango
Trader 2: bought 203 banana @ 24.55
Trader 9: bought 119 mango @ 42.594
Trader 2: Cash=5043.0 Down_Time=740
Trader 7: Cash=5.0e3 X=banana Round=1
Trader 5: bought 63 orange @ 78.95
Trader 8: bought 63 orange @ 78.95
Trader 10: Cash=5.0e3 X=orange Round=1
Trader 7: buy 210 banana
Trader 10: Cash=5.0e3 X=orange Round=1
Trader 10: buy 63 orange
Trader 9: Cash=5.0e3 X=durian Round=1
Trader 9: buy 222 durian
Trader 10: Cash=5.0e3 X=orange Round=1
Trader 10: buy 63 orange
Trader 9: Cash=5.0e3 X=durian Round=1
Trader 10: Cash=5.0e3 X=orange Round=1
Trader 5: bought 63 orange @ 78.95
Trader 10: buy 63 orange
Trader 7: Cash=5.0e3 X=banana Round=1
Trader 9: buy 222 durian
Trader 10: buy 63 orange
Trader 8: bought 63 orange @ 78.95
Trader 5: Cash=4968.5 X=mango Round=2
Trader 7: buy 210 banana
Trader 8: Cash=4968.5 X=banana Round=2
Trader 5: buy 116 mango
Trader 5: bought 116 mango @ 42.594
Trader 8: buy 209 banana
Trader 8: bought 209 banana @ 23.7
Trader 8: Cash=5146.15 X=apricot Round=3
Trader 8: buy 150 apricot
Trader 8: bought 150 apricot @ 34.2
Trader 2: Cash=5268.25 X=apple Round=2
Trader 8: Cash=5446.15 Down_Time=750
Trader 2: buy 1202 apple
Trader 2: bought 1200 apple @ 4.38
Trader 2: Cash=4992.25 X=banana Round=3
Trader 2: buy 203 banana
Trader 2: bought 203 banana @ 24.55
Trader 2: Cash=5043.0 Down_Time=750
Trader 3: Cash=5.0e3 X=lime Round=1
Trader 3: buy 260 lime
Trader 3: Cash=5.0e3 X=lime Round=1
Trader 3: buy 260 lime
Trader 10: Cash=5.0e3 X=orange Round=1
Trader 10: Cash=5.0e3 X=orange Round=1
Trader 10: buy 63 orange
Trader 10: buy 63 orange
Trader 8: bought 63 orange @ 78.45
Trader 10: Cash=4845.65 X=banana Round=2
Trader 10: buy 204 banana
Trader 8: bought 63 orange @ 78.45
Trader 10: Cash=4845.65 X=banana Round=2
Trader 8: Cash=4877.15 X=banana Round=2
Trader 10: buy 204 banana
Trader 8: buy 205 banana
Trader 10: bought 63 orange @ 78.45
Trader 10: bought 63 orange @ 78.45
Trader 10: Cash=4877.15 X=banana Round=2
Trader 10: buy 196 banana
Trader 10: bought 196 banana @ 24.8
Trader 10: Cash=4984.95 X=lime Round=3
Trader 10: buy 259 lime
Trader 11: bought 117 mango @ 42.5
Trader 11: bought 117 mango @ 42.5
Trader 11: Cash=4809.875 X=apple Round=2
Trader 11: buy 1098 apple
Trader 11: Cash=4809.875 X=apple Round=2
Trader 11: buy 1098 apple
Trader 11: bought 1098 apple @ 4.38
Trader 10: bought 204 banana @ 23.7
Trader 11: bought 1098 apple @ 4.38
Trader 8: bought 205 banana @ 23.7
Trader 10: bought 204 banana @ 24.55
Trader 11: Cash=4557.335000000001 X=banana Round=3
Trader 11: Cash=4557.335000000001 X=banana Round=3
Trader 8: Cash=5102.65 X=apricot Round=3
Trader 11: buy 185 banana
Trader 11: buy 185 banana
Trader 8: buy 148 apricot
Trader 11: bought 185 banana @ 24.55
Trader 11: bought 185 banana @ 24.55
Trader 8: bought 148 apricot @ 34.35
Trader 1: Cash=4794.2 X=coconut Round=3
Trader 1: buy 231 coconut
Trader 11: Cash=4603.585000000001 Down_Time=1170
Trader 1: bought 231 coconut @ 20.75
Trader 4: bought 117 mango @ 42.594
Trader 4: bought 117 mango @ 42.594
Trader 10: bought 63 orange @ 78.95
Trader 10: bought 63 orange @ 78.95
Trader 10: bought 63 orange @ 78.95
Trader 10: bought 63 orange @ 78.95
Trader 10: Cash=4968.5 X=banana Round=2
Trader 10: Cash=4968.5 X=banana Round=2
Trader 10: buy 209 banana
Trader 10: buy 209 banana
Trader 10: bought 209 banana @ 23.7
Trader 10: bought 209 banana @ 23.7
Trader 10: Cash=5146.15 X=lime Round=3
Trader 10: Cash=5146.15 X=lime Round=3
Trader 10: buy 267 lime
Trader 10: buy 267 lime
Trader 10: bought 267 lime @ 19.21
Trader 10: bought 267 lime @ 19.21
Trader 10: Cash=5306.3499999999985 Down_Time=1190
Trader 10: Cash=5306.3499999999985 Down_Time=1190
Trader 7: bought 210 banana @ 23.7
Trader 7: bought 210 banana @ 23.7
Trader 7: Cash=5178.5 X=mango Round=2
Trader 7: buy 121 mango
Trader 7: bought 121 mango @ 42.5
Trader 4: Cash=4798.8769999999995 X=apple Round=2
Trader 7: Cash=4981.875 X=orange Round=3
Trader 4: buy 1095 apple
Trader 7: buy 63 orange
Trader 7: bought 63 orange @ 78.95
Trader 4: bought 1095 apple @ 4.38
Trader 9: bought 222 durian @ 22.5
Trader 9: bought 222 durian @ 22.5
Trader 4: Cash=4547.027 X=apricot Round=3
Trader 7: Cash=4950.375 Down_Time=1200
Trader 4: buy 132 apricot
Trader 9: Cash=4955.6 X=lime Round=2
Trader 4: bought 132 apricot @ 34.2
Trader 9: buy 257 lime
Trader 6: Cash=5268.25 X=lime Round=2
Trader 9: bought 257 lime @ 19.21
Trader 4: Cash=4811.027 Down_Time=1200
Trader 6: buy 274 lime
Trader 6: bought 274 lime @ 19.21
Trader 2: Cash=5.0e3 X=apricot Round=1
Trader 2: Cash=5.0e3 X=apricot Round=1
Trader 2: buy 146 apricot
Trader 2: Cash=5.0e3 X=apricot Round=1
Trader 2: Cash=5.0e3 X=apricot Round=1
Trader 2: buy 145 apricot
Trader 8: Cash=5.0e3 X=orange Round=1
Trader 8: Cash=5.0e3 X=orange Round=1
Trader 2: buy 145 apricot
Trader 8: buy 63 orange
Trader 2: buy 146 apricot
Trader 8: buy 63 orange
Trader 3: bought 260 lime @ 19.21
Trader 3: bought 260 lime @ 19.21
Trader 3: Cash=5155.999999999999 X=mango Round=2
Trader 3: buy 121 mango
Trader 3: bought 121 mango @ 42.594
Trader 8: Cash=5.0e3 X=orange Round=1
Trader 5: Cash=5.0e3 X=orange Round=1
Trader 8: Cash=5.0e3 X=orange Round=1
Trader 5: Cash=5.0e3 X=orange Round=1
Trader 8: buy 63 orange
Trader 5: buy 63 orange
Trader 8: buy 63 orange
Trader 5: buy 63 orange
Trader 2: Cash=5.0e3 X=apricot Round=1
Trader 2: Cash=5.0e3 X=apricot Round=1
Trader 5: Cash=5.0e3 X=orange Round=1
Trader 5: Cash=5.0e3 X=orange Round=1
Trader 2: buy 146 apricot
Trader 2: buy 146 apricot
Trader 5: buy 63 orange
Trader 5: buy 63 orange
Trader 10: bought 259 lime @ 19.21
Trader 10: Cash=5140.349999999999 Down_Time=1220
Trader 11: Cash=5.0e3 X=mango Round=1
Trader 11: Cash=5.0e3 X=mango Round=1
Trader 11: buy 122 mango
Trader 11: buy 122 mango
Trader 2: bought 146 apricot @ 34.2
Trader 2: Cash=5292.0 X=apple Round=2
Trader 2: buy 1208 apple
Trader 2: bought 146 apricot @ 34.2
Trader 2: Cash=5292.0 X=apple Round=2
Trader 2: buy 1208 apple
Trader 4: Cash=5.0e3 X=mango Round=1
Trader 4: Cash=5.0e3 X=mango Round=1
Trader 11: Cash=5.0e3 X=mango Round=1
Trader 11: Cash=5.0e3 X=mango Round=1
Trader 4: buy 117 mango
Trader 4: buy 117 mango
Trader 11: buy 117 mango
Trader 11: buy 117 mango
Trader 5: bought 63 orange @ 78.45
Trader 5: bought 63 orange @ 78.45
Trader 5: Cash=4877.15 X=mango Round=2
Trader 5: buy 114 mango
Trader 5: Cash=5.0e3 X=orange Round=1
Trader 5: Cash=5.0e3 X=orange Round=1
Trader 5: buy 65 orange
Trader 5: buy 65 orange
Trader 11: bought 122 mango @ 40.875
Trader 11: bought 122 mango @ 40.875
Trader 11: Cash=4946.686000000001 X=apple Round=2
Trader 11: buy 1191 apple
Trader 11: bought 1191 apple @ 4.15
Trader 11: Cash=5006.236 X=banana Round=3
Trader 11: buy 203 banana
Trader 11: bought 203 banana @ 24.55
Trader 11: Cash=5056.986 Down_Time=1280
Trader 8: bought 63 orange @ 78.45
Trader 8: bought 63 orange @ 78.45
Trader 8: Cash=4877.15 X=banana Round=2
Trader 8: buy 196 banana
Trader 8: bought 196 banana @ 24.8
Trader 8: Cash=4984.95 X=apricot Round=3
Trader 8: buy 145 apricot
Trader 8: bought 63 orange @ 78.45
Trader 5: bought 63 orange @ 78.45
Trader 8: bought 63 orange @ 78.45
Trader 5: bought 63 orange @ 78.45
Trader 8: Cash=4877.15 X=banana Round=2
Trader 8: buy 198 banana
Trader 5: Cash=4877.15 X=mango Round=2
Trader 8: bought 198 banana @ 24.55
Trader 5: buy 114 mango
Trader 8: Cash=4926.65 X=apricot Round=3
Trader 5: bought 114 mango @ 42.5
Trader 8: buy 143 apricot
Trader 4: Cash=4798.8769999999995 X=apple Round=2
Trader 4: buy 1095 apple
Trader 5: Cash=4691.9 X=apple Round=3
Trader 5: buy 1071 apple
Trader 11: bought 117 mango @ 42.5
Trader 3: Cash=4948.000999999999 X=babaco Round=3
Trader 11: bought 117 mango @ 42.5
Trader 3: buy 120 babaco
Trader 11: Cash=4809.875 X=apple Round=2
Trader 11: buy 1159 apple
Trader 3: Cash=4948.000999999999 X=babaco Round=3
Trader 11: Cash=4809.875 X=apple Round=2
Trader 3: buy 120 babaco
Trader 11: buy 1159 apple
Trader 5: bought 65 orange @ 76.5
Trader 5: Cash=4809.549999999999 X=mango Round=2
Trader 5: bought 65 orange @ 76.5
Trader 5: buy 112 mango
Trader 5: Cash=4809.549999999999 X=mango Round=2
Trader 5: buy 112 mango
Trader 5: bought 114 mango @ 42.5
Trader 4: Cash=4798.8769999999995 X=apple Round=2
Trader 4: buy 1095 apple
Trader 5: Cash=4691.9 X=apple Round=3
Trader 5: buy 1071 apple
Trader 11: bought 1159 apple @ 4.15
Trader 11: bought 1159 apple @ 4.15
Trader 11: Cash=4867.825 X=banana Round=3
Trader 11: buy 196 banana
Trader 11: bought 196 banana @ 24.8
Trader 11: Cash=4975.625 Down_Time=1340
Trader 2: bought 146 apricot @ 34.2
Trader 2: bought 146 apricot @ 34.2
Trader 6: Cash=5268.25 X=lime Round=2
Trader 6: Cash=5268.25 X=lime Round=2
Trader 2: Cash=5292.0 X=apple Round=2
Trader 6: buy 265 lime
Trader 2: Cash=5292.0 X=apple Round=2
Trader 2: buy 1208 apple
Trader 6: buy 265 lime
Trader 6: bought 265 lime @ 19.81
Trader 2: buy 1208 apple
Trader 6: bought 265 lime @ 19.81
Trader 8: bought 145 apricot @ 34.35
Trader 1: Cash=4794.2 X=coconut Round=3
Trader 1: buy 231 coconut
Trader 2: bought 145 apricot @ 34.35
Trader 1: Cash=4794.2 X=coconut Round=3
Trader 2: bought 145 apricot @ 34.35
Trader 1: buy 231 coconut
Trader 1: Cash=4794.2 X=coconut Round=3
Trader 1: buy 231 coconut
Trader 8: bought 143 apricot @ 34.35
Trader 1: Cash=4794.2 X=coconut Round=3
Trader 1: buy 231 coconut
Trader 12: Cash=5162.400000000001 X=apple Round=2
Trader 3: bought 120 babaco @ 43
Trader 12: buy 1253 apple
Trader 12: bought 1200 apple @ 4.12
Trader 12: Cash=5078.400000000001 X=mango Round=3
Trader 12: buy 125 mango
Trader 12: bought 125 mango @ 40.438
Trader 3: Cash=4912.000999999999 Down_Time=1740
Trader 12: Cash=5039.275000000001 Down_Time=1910
Trader 1: bought 231 coconut @ 20.75
Trader 2: bought 1200 apple @ 4.38
Trader 1: bought 231 coconut @ 20.75
Trader 1: bought 231 coconut @ 20.75
Trader 2: Cash=5016.0 X=banana Round=3
Trader 2: bought 1200 apple @ 4.38
Trader 2: buy 202 banana
Trader 2: Cash=5016.0 X=banana Round=3
Trader 2: bought 202 banana @ 24.8
Trader 2: buy 202 banana
Trader 2: bought 202 banana @ 24.8
Trader 2: Cash=5127.1 Down_Time=2300
Trader 8: Cash=5376.45 Down_Time=2300
Trader 5: bought 1071 apple @ 4.38
Trader 4: bought 129 apple @ 4.15
Trader 1: bought 231 coconut @ 20.75
Trader 5: Cash=4499.12 Down_Time=2300
Trader 5: bought 1071 apple @ 4.38
Trader 4: bought 129 apple @ 4.15
Trader 5: Cash=4499.12 Down_Time=2310
Trader 4: Cash=4805.326999999999 X=apricot Round=3
Trader 4: buy 140 apricot
Trader 4: bought 140 apricot @ 34.2
Trader 6: Cash=5268.25 X=lime Round=2
Trader 4: Cash=5085.326999999999 Down_Time=2310
Trader 6: buy 265 lime
Trader 6: bought 265 lime @ 19.81
Trader 3: Cash=5.0e3 X=lime Round=1
Trader 3: Cash=5.0e3 X=lime Round=1
Trader 3: Cash=5.0e3 X=lime Round=1
Trader 3: Cash=5.0e3 X=lime Round=1
Trader 3: buy 251 lime
Trader 3: buy 251 lime
Trader 3: buy 251 lime
Trader 3: buy 251 lime
Trader 3: Cash=5.0e3 X=lime Round=1
Trader 3: Cash=5.0e3 X=lime Round=1
Trader 3: buy 252 lime
Trader 3: buy 252 lime
Trader 11: Cash=5.0e3 X=mango Round=1
Trader 11: Cash=5.0e3 X=mango Round=1
Trader 11: Cash=5.0e3 X=mango Round=1
Trader 11: buy 117 mango
Trader 11: Cash=5.0e3 X=mango Round=1
Trader 6: Cash=5.0e3 X=apricot Round=1
Trader 6: Cash=5.0e3 X=apricot Round=1
Trader 11: buy 117 mango
Trader 11: buy 117 mango
Trader 11: buy 117 mango
Trader 6: buy 145 apricot
Trader 6: buy 145 apricot
Trader 2: Cash=5.0e3 X=apricot Round=1
Trader 2: Cash=5.0e3 X=apricot Round=1
Trader 2: buy 138 apricot
Trader 2: buy 138 apricot
Trader 8: Cash=5.0e3 X=orange Round=1
Trader 8: Cash=5.0e3 X=orange Round=1
Trader 8: buy 72 orange
Trader 8: buy 72 orange
Trader 2: bought 138 apricot @ 36.2
Trader 2: Cash=4868.9 X=apple Round=2
Trader 2: buy 1159 apple
Trader 2: bought 1159 apple @ 4.2
Trader 2: bought 138 apricot @ 36.2
Trader 2: Cash=4868.9 X=apple Round=2
Trader 2: buy 1159 apple
Trader 2: bought 1159 apple @ 4.2
Trader 2: Cash=4776.179999999999 X=banana Round=3
Trader 2: buy 194 banana
Trader 8: bought 72 orange @ 68.79
Trader 8: bought 72 orange @ 68.79
Trader 8: Cash=5081.36 X=banana Round=2
Trader 8: buy 200 banana
Trader 8: bought 200 banana @ 25.4
Trader 8: Cash=5031.36 X=apricot Round=3
Trader 8: buy 147 apricot
Trader 8: bought 147 apricot @ 34.2
Trader 8: Cash=4928.459999999999 Down_Time=2420
Trader 11: bought 117 mango @ 42.5
Trader 11: bought 117 mango @ 42.5
Trader 4: Cash=4798.8769999999995 X=apple Round=2
Trader 11: bought 117 mango @ 42.5
Trader 11: Cash=4809.875 X=apple Round=2
Trader 11: bought 117 mango @ 42.5
Trader 4: buy 1095 apple
Trader 4: Cash=4798.8769999999995 X=apple Round=2
Trader 11: Cash=4809.875 X=apple Round=2
Trader 11: buy 1098 apple
Trader 4: Cash=4798.8769999999995 X=apple Round=2
Trader 4: Cash=4798.8769999999995 X=apple Round=2
Trader 11: Cash=4809.875 X=apple Round=2
Trader 11: Cash=4809.875 X=apple Round=2
Trader 4: buy 1095 apple
Trader 11: buy 1098 apple
Trader 4: buy 1095 apple
Trader 4: buy 1095 apple
Trader 11: buy 1098 apple
Trader 11: buy 1098 apple
Trader 9: Cash=5.0e3 X=durian Round=1
Trader 9: Cash=5.0e3 X=durian Round=1
Trader 9: buy 227 durian
Trader 9: buy 227 durian
Trader 2: bought 194 banana @ 24.55
Trader 2: Cash=4824.679999999999 Down_Time=2430
Trader 9: bought 227 durian @ 22
Trader 9: bought 227 durian @ 22
Trader 9: Cash=5049.94 X=lime Round=2
Trader 9: buy 260 lime
Trader 9: bought 260 lime @ 19.42
Trader 9: Cash=5003.1399999999985 X=mango Round=3
Trader 9: buy 122 mango
Trader 9: bought 122 mango @ 40.75
Trader 9: Cash=4965.075999999999 Down_Time=2460
Trader 3: bought 251 lime @ 19.86
Trader 3: bought 251 lime @ 19.86
Trader 3: bought 251 lime @ 19.86
Trader 3: bought 251 lime @ 19.86
Trader 3: Cash=4889.56 X=mango Round=2
Trader 3: buy 119 mango
Trader 3: Cash=4889.56 X=mango Round=2
Trader 3: buy 119 mango
Trader 3: bought 119 mango @ 40.875
Trader 3: bought 119 mango @ 40.875
Trader 3: Cash=4837.557000000001 X=babaco Round=3
Trader 3: Cash=4837.557000000001 X=babaco Round=3
Trader 3: buy 117 babaco
Trader 3: buy 117 babaco
Trader 6: Cash=5164.900000000001 X=coconut Round=3
Trader 6: buy 246 coconut
Trader 3: bought 252 lime @ 19.81
Trader 3: bought 252 lime @ 19.81
Trader 6: bought 246 coconut @ 20.92
Trader 6: Cash=5098.48 Down_Time=2620
Trader 3: bought 117 babaco @ 41.1
Trader 3: bought 117 babaco @ 41.1
Trader 3: Cash=5059.857000000001 Down_Time=2790
Trader 3: Cash=5059.857000000001 Down_Time=2790
Trader 6: bought 145 apricot @ 34.35
Trader 6: bought 145 apricot @ 34.35
Trader 1: Cash=4794.2 X=coconut Round=3
Trader 1: buy 231 coconut
Trader 1: Cash=4794.2 X=coconut Round=3
Trader 1: buy 231 coconut
Trader 1: Cash=4682.2 X=coconut Round=3
Trader 1: buy 231 coconut
Trader 1: bought 231 coconut @ 20.2
Trader 4: bought 1095 apple @ 4.38
Trader 11: bought 1098 apple @ 4.38
Trader 11: bought 1098 apple @ 4.38
Trader 4: bought 102 apple @ 4.15
Trader 11: bought 1098 apple @ 4.38
Trader 4: bought 102 apple @ 4.15
Trader 4: bought 102 apple @ 4.15
Trader 11: bought 1098 apple @ 4.15
Trader 4: Cash=4803.976999999999 X=apricot Round=3
Trader 4: Cash=4547.027 X=apricot Round=3
Trader 11: Cash=4612.235000000001 X=banana Round=3
Trader 11: Cash=4612.235000000001 X=banana Round=3
Trader 4: Cash=4803.976999999999 X=apricot Round=3
Trader 4: Cash=4803.976999999999 X=apricot Round=3
Trader 11: buy 185 banana
Trader 4: buy 139 apricot
Trader 11: Cash=4612.235000000001 X=banana Round=3
Trader 11: buy 187 banana
Trader 4: buy 132 apricot
Trader 4: bought 139 apricot @ 34.35
Trader 4: buy 139 apricot
Trader 11: buy 187 banana
Trader 1: Cash=4794.2 X=coconut Round=3
Trader 11: bought 185 banana @ 24.8
Trader 4: buy 140 apricot
Trader 4: bought 132 apricot @ 34.2
Trader 11: bought 187 banana @ 24.55
Trader 4: bought 139 apricot @ 34.35
Trader 11: bought 187 banana @ 24.55
Trader 1: buy 231 coconut
Trader 1: Cash=4794.2 X=coconut Round=3
Trader 4: bought 140 apricot @ 34.2
Trader 1: buy 231 coconut
Trader 11: Cash=4713.985000000001 Down_Time=3920
Trader 1: bought 231 coconut @ 20.75
Trader 11: Cash=4658.985000000001 Down_Time=3920
Trader 8: Cash=5191.2 Down_Time=3920
Trader 4: Cash=5083.976999999999 Down_Time=3920
Trader 6: Cash=5.0e3 X=apricot Round=1
Trader 5: Cash=5.0e3 X=orange Round=1
Trader 6: Cash=5.0e3 X=apricot Round=1
Trader 5: Cash=5.0e3 X=orange Round=1
Trader 6: buy 146 apricot
Trader 5: buy 65 orange
Trader 6: buy 146 apricot
Trader 5: buy 65 orange
Trader 4: Cash=5.0e3 X=mango Round=1
Trader 4: Cash=5.0e3 X=mango Round=1
Trader 4: Cash=5.0e3 X=mango Round=1
Trader 4: Cash=5.0e3 X=mango Round=1
Trader 4: buy 117 mango
Trader 4: buy 117 mango
Trader 4: buy 117 mango
Trader 4: buy 117 mango
Trader 2: Cash=5.0e3 X=apricot Round=1
Trader 2: Cash=5.0e3 X=apricot Round=1
Trader 2: buy 138 apricot
Trader 2: buy 138 apricot
Trader 7: Cash=5.0e3 X=banana Round=1
Trader 7: Cash=5.0e3 X=banana Round=1
Trader 7: buy 196 banana
Trader 7: buy 196 banana
Trader 2: bought 138 apricot @ 36.2
Trader 2: Cash=4868.9 X=apple Round=2
Trader 2: bought 138 apricot @ 36.2
Trader 2: buy 1159 apple
Trader 2: Cash=4868.9 X=apple Round=2
Trader 2: bought 1159 apple @ 4.2
Trader 2: buy 1159 apple
Trader 2: bought 1159 apple @ 4.2
Trader 2: Cash=4776.179999999999 X=banana Round=3
Trader 2: buy 188 banana
Trader 2: bought 188 banana @ 25.35
Trader 6: bought 146 apricot @ 34.2
Trader 6: Cash=5292.0 X=lime Round=2
Trader 6: bought 146 apricot @ 34.2
Trader 6: buy 272 lime
Trader 6: bought 272 lime @ 19.42
Trader 6: Cash=5292.0 X=lime Round=2
Trader 6: buy 272 lime
Trader 6: bought 272 lime @ 19.42
Trader 6: Cash=5243.039999999999 X=coconut Round=3
Trader 6: buy 250 coconut
Trader 6: bought 250 coconut @ 20.92
Trader 5: bought 65 orange @ 76.5
Trader 5: bought 65 orange @ 76.5
Trader 8: Cash=4692.5599999999995 X=banana Round=2
Trader 8: Cash=4692.5599999999995 X=banana Round=2
Trader 8: buy 189 banana
Trader 5: Cash=4809.549999999999 X=mango Round=2
Trader 5: Cash=4809.549999999999 X=mango Round=2
Trader 8: buy 189 banana
Trader 5: buy 118 mango
Trader 5: buy 118 mango
Trader 5: bought 118 mango @ 40.438
Trader 5: bought 118 mango @ 40.438
Trader 7: bought 196 banana @ 25.45
Trader 7: bought 196 banana @ 25.45
Trader 7: Cash=4882.400000000001 X=mango Round=2
Trader 7: buy 119 mango
Trader 7: bought 119 mango @ 40.75
Trader 7: Cash=4845.272000000001 X=orange Round=3
Trader 7: buy 67 orange
Trader 7: bought 67 orange @ 71.5
Trader 7: Cash=4939.072000000001 Down_Time=4010
Trader 8: bought 189 banana @ 24.8
Trader 8: bought 189 banana @ 24.8
Trader 5: Cash=5.0e3 X=orange Round=1
Trader 5: Cash=5.0e3 X=orange Round=1
Trader 5: buy 67 orange
Trader 5: buy 67 orange
Trader 5: bought 67 orange @ 73.61
Trader 5: bought 67 orange @ 73.61
Trader 5: Cash=4907.54 X=mango Round=2
Trader 5: buy 120 mango
Trader 5: bought 120 mango @ 40.675
Trader 5: Cash=4982.54 X=apple Round=3
Trader 5: buy 1224 apple
Trader 5: bought 1200 apple @ 4.07
Trader 5: Cash=4898.54 Down_Time=4160
Trader 4: bought 117 mango @ 42.5
Trader 4: bought 117 mango @ 42.5
Trader 4: bought 117 mango @ 42.5
Trader 4: bought 117 mango @ 42.5
Trader 4: Cash=4809.875 X=apple Round=2
Trader 4: Cash=4809.875 X=apple Round=2
Trader 4: buy 1159 apple
Trader 4: Cash=4809.875 X=apple Round=2
Trader 4: Cash=4809.875 X=apple Round=2
Trader 4: buy 1159 apple
Trader 4: buy 1159 apple
Trader 4: bought 1159 apple @ 4.15
Trader 4: buy 1159 apple
Trader 4: bought 1159 apple @ 4.15
Trader 4: bought 1159 apple @ 4.15
Trader 4: bought 1159 apple @ 4.15
Trader 4: Cash=4867.825 X=apricot Round=3
Trader 4: Cash=4867.825 X=apricot Round=3
Trader 4: buy 134 apricot
Trader 4: buy 134 apricot
Trader 4: bought 134 apricot @ 36.2
Trader 4: bought 134 apricot @ 36.2
Trader 4: Cash=4740.525 Down_Time=4360
Trader 4: Cash=4740.525 Down_Time=4360
Trader 12: Cash=4818.0 X=apple Round=2
Trader 12: buy 1100 apple
Trader 12: bought 1100 apple @ 4.38
Trader 12: Cash=4675.0 X=mango Round=3
Trader 12: buy 117 mango
Trader 12: bought 117 mango @ 39.844
Trader 1: Cash=4474.3 Down_Time=6890
Trader 7: Cash=5.0e3 X=banana Round=1
Trader 7: Cash=5.0e3 X=banana Round=1
Trader 7: buy 198 banana
Trader 7: buy 198 banana
Trader 7: bought 198 banana @ 25.25
Trader 7: bought 198 banana @ 25.25
Trader 7: Cash=5108.900000000001 X=mango Round=2
Trader 7: buy 115 mango
Trader 7: bought 115 mango @ 44.375
Trader 7: Cash=5203.200000000001 X=orange Round=3
Trader 7: buy 69 orange
Trader 7: bought 69 orange @ 74.36
Trader 7: Cash=5003.790000000001 Down_Time=8990
Trader 10: Cash=5.0e3 X=orange Round=1
Trader 10: Cash=5.0e3 X=orange Round=1
Trader 10: buy 74 orange
Trader 10: buy 74 orange
Trader 10: bought 74 orange @ 67.45
Trader 10: bought 74 orange @ 67.45
Trader 10: Cash=4957.82 X=banana Round=2
Trader 10: buy 175 banana
Trader 10: bought 175 banana @ 28.25
Trader 10: Cash=5080.32 X=lime Round=3
Trader 10: buy 261 lime
Trader 10: bought 261 lime @ 19.45
Trader 10: Cash=5142.96 Down_Time=17630
Trader 6: Cash=5.0e3 X=apricot Round=1
Trader 6: Cash=5.0e3 X=apricot Round=1
Trader 6: buy 120 apricot
Trader 6: buy 120 apricot
Trader 6: bought 120 apricot @ 41.6
Trader 6: bought 120 apricot @ 41.6
Trader 6: Cash=4.7e3 X=lime Round=2
Trader 6: Cash=4.7e3 X=lime Round=2
Trader 6: buy 197 lime
Trader 6: buy 197 lime
Trader 6: bought 197 lime @ 23.84
Trader 6: bought 197 lime @ 23.84
Trader 6: Cash=4625.14 X=coconut Round=3
Trader 6: buy 302 coconut
Trader 6: bought 302 coconut @ 15.3
Trader 6: Cash=4751.9800000000005 Down_Time=33680
Trader 4: Cash=5.0e3 X=mango Round=1
Trader 4: Cash=5.0e3 X=mango Round=1
Trader 4: buy 117 mango
Trader 4: buy 117 mango
Trader 4: bought 117 mango @ 42.51
Trader 4: bought 117 mango @ 42.51
Trader 4: Cash=5121.679999999999 X=apple Round=2
Trader 4: buy 550 apple
Trader 4: bought 550 apple @ 9.31
Trader 4: Cash=5011.679999999999 X=apricot Round=3
Trader 4: buy 117 apricot
Trader 4: bought 117 apricot @ 42.75
Trader 4: Cash=4654.83 Down_Time=67920
sleep before finalize: [4654.83,4751.9800000000005,5142.96,5003.790000000001,
                        4474.3,4898.54,4965.075999999999,5039.275000000001,
                        4912.000999999999,4975.625,5043.0,5446.15]
finalize!
client_monitor: Start_Time=250, End_Time=72590, Start_Memory=826646568, End_Memory=829390824, Peak_Memory=839384496
client_monitor: 72340 ms, 2744256 bytes (end) / 12737928 bytes (peak)
process_allocator: Alive=13, Pending=[], Limit=1000000, Max=43, Retired=39
real 78.08
user 77.05
sys 77.50
make[2]: Leaving directory `/home/x/xiaojia/sn'
make[1]: Leaving directory `/home/x/xiaojia/sn'
