make[1]: Entering directory `/home/x/xiaojia/sn'
make test EVAL="test:st(15)."
make[2]: Entering directory `/home/x/xiaojia/sn'
rebar compile
==> sn (compile)
time -p erl -sname mynode -pa ebin +P 100000000 -eval "test:st(15)." -noinput +S 4:4
sn_app registered
memory_monitor registered
process_allocator registered
sn_server registered
client_monitor registered
Trader 1: Cash=5.0e3 X=durian Round=1
Trader 1: Cash=5.0e3 X=durian Round=1
Trader 1: buy 222 durian
Trader 1: buy 222 durian
Trader 12: Cash=5.0e3 X=durian Round=1
Trader 12: Cash=5.0e3 X=durian Round=1
Trader 12: buy 222 durian
Trader 12: Cash=5.0e3 X=durian Round=1
Trader 12: buy 222 durian
Trader 12: Cash=5.0e3 X=durian Round=1
Trader 12: buy 222 durian
Trader 12: buy 222 durian
Trader 1: bought 222 durian @ 22.3
Trader 12: bought 222 durian @ 22.5
Trader 1: bought 222 durian @ 22.3
Trader 12: bought 222 durian @ 22.5
Trader 1: bought 222 durian @ 22.3
Trader 12: bought 222 durian @ 22.5
Trader 12: Cash=4911.200000000001 X=lime Round=2
Trader 1: Cash=4955.6 X=apricot Round=2
Trader 1: Cash=4955.6 X=apricot Round=2
Trader 12: buy 255 lime
Trader 1: buy 143 apricot
Trader 1: buy 143 apricot
Trader 12: bought 255 lime @ 19.21
Trader 1: bought 143 apricot @ 34.5
Trader 12: Cash=5064.2 X=mango Round=3
Trader 12: buy 118 mango
Trader 12: bought 118 mango @ 42.594
Trader 1: bought 143 apricot @ 34.5
Trader 2: Cash=5.0e3 X=cashew Round=1
Trader 2: Cash=5.0e3 X=cashew Round=1
Trader 13: Cash=5.0e3 X=orange Round=1
Trader 13: Cash=5.0e3 X=orange Round=1
Trader 2: Cash=5.0e3 X=cashew Round=1
Trader 11: Cash=5.0e3 X=orange Round=1
Trader 11: Cash=5.0e3 X=orange Round=1
Trader 2: Cash=5.0e3 X=cashew Round=1
Trader 2: buy 56 cashew
Trader 2: buy 56 cashew
Trader 13: buy 63 orange
Trader 13: buy 63 orange
Trader 2: buy 56 cashew
Trader 11: buy 63 orange
Trader 11: buy 63 orange
Trader 2: buy 56 cashew
Trader 13: bought 63 orange @ 78.95
Trader 13: bought 63 orange @ 78.95
Trader 13: Cash=4968.5 X=banana Round=2
Trader 13: buy 209 banana
Trader 13: bought 209 banana @ 23.7
Trader 13: Cash=5146.15 X=lime Round=3
Trader 13: buy 267 lime
Trader 2: bought 56 cashew @ 88
Trader 13: bought 267 lime @ 19.21
Trader 2: bought 56 cashew @ 88
Trader 13: Cash=5306.3499999999985 Down_Time=400
Trader 2: bought 56 cashew @ 88
Trader 2: bought 56 cashew @ 88
Trader 1: bought 222 durian @ 22.3
Trader 11: bought 63 orange @ 78.95
Trader 12: bought 222 durian @ 22.5
Trader 12: bought 222 durian @ 22.5
Trader 12: Cash=4911.200000000001 X=lime Round=2
Trader 1: bought 222 durian @ 22.3
Trader 12: Cash=4911.200000000001 X=lime Round=2
Trader 12: buy 255 lime
Trader 11: bought 63 orange @ 78.95
Trader 12: buy 255 lime
Trader 12: bought 255 lime @ 19.21
Trader 11: Cash=4968.5 X=banana Round=2
Trader 12: bought 255 lime @ 19.21
Trader 11: buy 209 banana
Trader 12: Cash=5064.2 X=mango Round=3
Trader 11: bought 209 banana @ 23.7
Trader 12: Cash=5064.2 X=mango Round=3
Trader 12: buy 118 mango
Trader 11: Cash=5146.15 X=apricot Round=3
Trader 12: buy 118 mango
Trader 12: bought 118 mango @ 42.594
Trader 11: buy 149 apricot
Trader 12: bought 118 mango @ 42.594
Trader 11: bought 149 apricot @ 34.5
Trader 8: Cash=5.0e3 X=orange Round=1
Trader 8: Cash=5.0e3 X=orange Round=1
Trader 8: Cash=5.0e3 X=orange Round=1
Trader 8: Cash=5.0e3 X=orange Round=1
Trader 8: buy 63 orange
Trader 8: buy 63 orange
Trader 8: buy 63 orange
Trader 8: buy 63 orange
Trader 8: Cash=5.0e3 X=orange Round=1
Trader 8: buy 63 orange
Trader 8: Cash=5.0e3 X=orange Round=1
Trader 8: buy 63 orange
Trader 13: Cash=5.0e3 X=orange Round=1
Trader 13: Cash=5.0e3 X=orange Round=1
Trader 5: Cash=5.0e3 X=apricot Round=1
Trader 13: buy 63 orange
Trader 5: Cash=5.0e3 X=apricot Round=1
Trader 5: buy 144 apricot
Trader 13: buy 63 orange
Trader 5: buy 144 apricot
Trader 13: Cash=5.0e3 X=orange Round=1
Trader 5: Cash=5.0e3 X=apricot Round=1
Trader 13: buy 63 orange
Trader 13: Cash=5.0e3 X=orange Round=1
Trader 5: Cash=5.0e3 X=apricot Round=1
Trader 5: buy 145 apricot
Trader 13: buy 63 orange
Trader 5: buy 145 apricot
Trader 8: bought 63 orange @ 78.45
Trader 8: bought 63 orange @ 78.45
Trader 8: Cash=4877.15 X=mango Round=2
Trader 8: buy 114 mango
Trader 5: bought 145 apricot @ 34.35
Trader 13: bought 63 orange @ 78.45
Trader 5: bought 145 apricot @ 34.35
Trader 11: Cash=4845.65 X=banana Round=2
Trader 11: buy 204 banana
Trader 13: bought 63 orange @ 78.45
Trader 13: Cash=4877.15 X=banana Round=2
Trader 11: Cash=4845.65 X=banana Round=2
Trader 13: buy 205 banana
Trader 11: buy 204 banana
Trader 8: Cash=4692.5599999999995 X=mango Round=2
Trader 1: Cash=4912.700000000001 X=orange Round=3
Trader 1: Cash=4912.700000000001 X=orange Round=3
Trader 8: buy 110 mango
Trader 1: buy 66 orange
Trader 1: buy 66 orange
Trader 1: bought 66 orange @ 73.57
Trader 1: bought 66 orange @ 73.57
Trader 8: bought 63 orange @ 78.95
Trader 8: bought 63 orange @ 78.95
Trader 8: bought 63 orange @ 78.95
Trader 8: bought 63 orange @ 78.95
Trader 8: Cash=4968.5 X=mango Round=2
Trader 8: Cash=4968.5 X=mango Round=2
Trader 8: buy 116 mango
Trader 8: buy 116 mango
Trader 8: bought 116 mango @ 42.5
Trader 8: bought 116 mango @ 42.5
Trader 8: Cash=4780.0 X=apple Round=3
Trader 8: Cash=4780.0 X=apple Round=3
Trader 8: buy 1091 apple
Trader 8: buy 1091 apple
Trader 8: bought 1091 apple @ 4.38
Trader 8: bought 1091 apple @ 4.38
Trader 8: Cash=4529.070000000001 Down_Time=550
Trader 8: Cash=4529.070000000001 Down_Time=550
Trader 8: bought 110 mango @ 42.594
Trader 8: Cash=4503.469999999999 X=apple Round=3
Trader 8: bought 114 mango @ 42.5
Trader 8: buy 1085 apple
Trader 8: bought 1085 apple @ 4.15
Trader 8: Cash=4691.9 X=apple Round=3
Trader 8: buy 1130 apple
Trader 8: bought 1130 apple @ 4.15
Trader 8: Cash=4748.4 Down_Time=550
Trader 11: bought 204 banana @ 23.7
Trader 11: bought 204 banana @ 23.7
Trader 13: bought 205 banana @ 24.55
Trader 13: Cash=4928.4 X=lime Round=3
Trader 13: buy 248 lime
Trader 13: bought 248 lime @ 19.81
Trader 13: Cash=5.0e3 X=orange Round=1
Trader 13: Cash=5.0e3 X=orange Round=1
Trader 14: Cash=5.0e3 X=mango Round=1
Trader 13: buy 63 orange
Trader 13: buy 63 orange
Trader 14: Cash=5.0e3 X=mango Round=1
Trader 14: buy 122 mango
Trader 14: buy 122 mango
Trader 13: bought 63 orange @ 78.95
Trader 5: bought 144 apricot @ 34.5
Trader 6: Cash=5.0e3 X=lime Round=1
Trader 6: buy 251 lime
Trader 5: bought 144 apricot @ 34.5
Trader 6: Cash=5.0e3 X=lime Round=1
Trader 13: bought 63 orange @ 78.95
Trader 6: buy 251 lime
Trader 13: Cash=4968.5 X=banana Round=2
Trader 13: buy 209 banana
Trader 13: bought 209 banana @ 23.7
Trader 13: Cash=5146.15 X=lime Round=3
Trader 13: buy 267 lime
Trader 13: bought 267 lime @ 19.21
Trader 13: Cash=5306.3499999999985 Down_Time=570
Trader 14: Cash=5.0e3 X=mango Round=1
Trader 4: Cash=5.0e3 X=babaco Round=1
Trader 13: Cash=5.0e3 X=orange Round=1
Trader 4: buy 117 babaco
Trader 13: Cash=5.0e3 X=orange Round=1
Trader 3: Cash=5.0e3 X=babaco Round=1
Trader 14: buy 117 mango
Trader 13: buy 63 orange
Trader 14: Cash=5.0e3 X=mango Round=1
Trader 4: Cash=5.0e3 X=babaco Round=1
Trader 13: Cash=5.0e3 X=orange Round=1
Trader 13: buy 63 orange
Trader 13: Cash=5.0e3 X=orange Round=1
Trader 4: Cash=5.0e3 X=babaco Round=1
Trader 3: Cash=5.0e3 X=babaco Round=1
Trader 4: Cash=5.0e3 X=babaco Round=1
Trader 3: buy 117 babaco
Trader 13: Cash=5.0e3 X=orange Round=1
Trader 14: buy 117 mango
Trader 13: Cash=5.0e3 X=orange Round=1
Trader 4: buy 117 babaco
Trader 13: buy 63 orange
Trader 3: buy 117 babaco
Trader 4: buy 117 babaco
Trader 13: buy 63 orange
Trader 4: buy 117 babaco
Trader 13: buy 63 orange
Trader 13: buy 63 orange
Trader 14: bought 122 mango @ 40.875
Trader 13: bought 63 orange @ 78.45
Trader 14: bought 122 mango @ 40.875
Trader 14: Cash=4946.686000000001 X=apple Round=2
Trader 14: buy 1191 apple
Trader 14: bought 1191 apple @ 4.15
Trader 14: Cash=5006.236 X=banana Round=3
Trader 13: bought 63 orange @ 78.45
Trader 14: buy 211 banana
Trader 13: Cash=4877.15 X=banana Round=2
Trader 13: buy 205 banana
Trader 6: bought 251 lime @ 19.86
Trader 6: bought 251 lime @ 19.86
Trader 6: Cash=4889.56 X=mango Round=2
Trader 6: buy 119 mango
Trader 6: bought 119 mango @ 40.875
Trader 6: Cash=4837.557000000001 X=babaco Round=3
Trader 6: buy 117 babaco
Trader 6: bought 117 babaco @ 41.1
Trader 6: Cash=5059.857000000001 Down_Time=580
Trader 13: bought 63 orange @ 78.45
Trader 13: bought 63 orange @ 78.45
Trader 13: Cash=4877.15 X=banana Round=2
Trader 13: buy 198 banana
Trader 13: bought 198 banana @ 24.55
Trader 13: Cash=4926.65 X=lime Round=3
Trader 13: buy 248 lime
Trader 13: bought 248 lime @ 19.81
Trader 14: bought 117 mango @ 42.5
Trader 14: Cash=4809.875 X=apple Round=2
Trader 14: bought 117 mango @ 42.5
Trader 14: buy 1098 apple
Trader 14: Cash=4809.875 X=apple Round=2
Trader 14: buy 1098 apple
Trader 12: Cash=4778.0 X=lime Round=2
Trader 12: buy 247 lime
Trader 12: bought 247 lime @ 19.28
Trader 14: bought 211 banana @ 23.7
Trader 14: Cash=5185.586 Down_Time=890
Trader 13: bought 205 banana @ 23.7
Trader 13: Cash=5051.4 X=lime Round=3
Trader 13: buy 254 lime
Trader 13: bought 254 lime @ 19.81
Trader 6: Cash=5.0e3 X=lime Round=1
Trader 6: Cash=5.0e3 X=lime Round=1
Trader 6: buy 252 lime
Trader 6: buy 252 lime
Trader 4: Cash=5.0e3 X=babaco Round=1
Trader 4: buy 117 babaco
Trader 4: bought 117 babaco @ 42.5
Trader 4: Cash=4836.2 X=apricot Round=2
Trader 4: Cash=5.0e3 X=babaco Round=1
Trader 4: buy 141 apricot
Trader 5: Cash=5.0e3 X=apricot Round=1
Trader 4: buy 117 babaco
Trader 5: buy 145 apricot
Trader 4: bought 117 babaco @ 42.5
Trader 4: bought 141 apricot @ 34.2
Trader 5: Cash=5.0e3 X=apricot Round=1
Trader 4: Cash=4836.2 X=apricot Round=2
Trader 5: buy 145 apricot
Trader 4: Cash=5118.2 X=coconut Round=3
Trader 4: buy 141 apricot
Trader 4: buy 246 coconut
Trader 5: Cash=5268.25 X=apple Round=2
Trader 4: bought 141 apricot @ 34.2
Trader 4: bought 246 coconut @ 20.75
Trader 5: buy 1202 apple
Trader 5: Cash=5268.25 X=apple Round=2
Trader 4: Cash=5118.2 X=coconut Round=3
Trader 5: bought 1202 apple @ 4.38
Trader 5: buy 1202 apple
Trader 4: buy 246 coconut
Trader 5: bought 1202 apple @ 4.38
Trader 5: Cash=4991.79 X=banana Round=3
Trader 5: buy 203 banana
Trader 4: bought 246 coconut @ 20.75
Trader 5: Cash=4991.79 X=banana Round=3
Trader 5: buy 203 banana
Trader 5: bought 203 banana @ 24.55
Trader 5: bought 203 banana @ 24.55
Trader 3: bought 117 babaco @ 42.5
Trader 14: bought 1098 apple @ 4.38
Trader 3: bought 117 babaco @ 42.5
Trader 3: Cash=4836.2 X=durian Round=2
Trader 14: bought 1098 apple @ 4.38
Trader 3: Cash=4836.2 X=durian Round=2
Trader 3: buy 218 durian
Trader 14: Cash=4557.335000000001 X=banana Round=3
Trader 3: buy 218 durian
Trader 14: Cash=4557.335000000001 X=banana Round=3
Trader 14: buy 183 banana
Trader 3: bought 218 durian @ 22.1
Trader 3: bought 218 durian @ 22.1
Trader 14: buy 183 banana
Trader 14: bought 183 banana @ 24.8
Trader 14: bought 183 banana @ 24.8
Trader 11: Cash=5182.25 X=apricot Round=3
Trader 11: buy 150 apricot
Trader 14: Cash=4657.985000000001 Down_Time=910
Trader 11: Cash=5182.25 X=apricot Round=3
Trader 11: buy 150 apricot
Trader 11: bought 150 apricot @ 34.5
Trader 5: Cash=5.0e3 X=apricot Round=1
Trader 5: Cash=5.0e3 X=apricot Round=1
Trader 5: buy 141 apricot
Trader 5: buy 141 apricot
Trader 13: bought 63 orange @ 78.95
Trader 13: bought 63 orange @ 78.95
Trader 13: Cash=4968.5 X=banana Round=2
Trader 13: buy 209 banana
Trader 4: bought 117 babaco @ 42.5
Trader 4: bought 117 babaco @ 42.5
Trader 4: Cash=4836.2 X=apricot Round=2
Trader 4: Cash=4836.2 X=apricot Round=2
Trader 4: buy 140 apricot
Trader 13: bought 209 banana @ 23.7
Trader 4: buy 140 apricot
Trader 13: bought 63 orange @ 78.95
Trader 4: bought 140 apricot @ 34.5
Trader 13: Cash=5146.15 X=lime Round=3
Trader 13: bought 63 orange @ 78.95
Trader 13: buy 267 lime
Trader 4: bought 140 apricot @ 34.5
Trader 13: bought 267 lime @ 19.21
Trader 13: Cash=4968.5 X=banana Round=2
Trader 13: buy 209 banana
Trader 13: bought 209 banana @ 23.7
Trader 13: Cash=5306.3499999999985 Down_Time=930
Trader 13: Cash=5146.15 X=lime Round=3
Trader 13: buy 267 lime
Trader 13: bought 267 lime @ 19.21
Trader 13: Cash=5306.3499999999985 Down_Time=930
Trader 10: Cash=5.0e3 X=banana Round=1
Trader 5: bought 141 apricot @ 35.25
Trader 14: Cash=5.0e3 X=mango Round=1
Trader 14: buy 117 mango
Trader 10: buy 203 banana
Trader 14: Cash=5.0e3 X=mango Round=1
Trader 10: Cash=5.0e3 X=banana Round=1
Trader 14: buy 117 mango
Trader 10: buy 203 banana
Trader 5: bought 141 apricot @ 35.25
Trader 5: Cash=4922.450000000001 X=apple Round=2
Trader 10: Cash=5.0e3 X=banana Round=1
Trader 10: Cash=5.0e3 X=banana Round=1
Trader 5: buy 1215 apple
Trader 14: Cash=5.0e3 X=mango Round=1
Trader 14: Cash=5.0e3 X=mango Round=1
Trader 3: Cash=5.0e3 X=babaco Round=1
Trader 3: Cash=5.0e3 X=babaco Round=1
Trader 10: buy 201 banana
Trader 10: buy 201 banana
Trader 5: Cash=5.0e3 X=apricot Round=1
Trader 5: Cash=5.0e3 X=apricot Round=1
Trader 5: bought 1215 apple @ 4.05
Trader 14: buy 117 mango
Trader 14: buy 117 mango
Trader 3: buy 121 babaco
Trader 3: buy 121 babaco
Trader 5: buy 145 apricot
Trader 5: buy 145 apricot
Trader 5: Cash=5432.75 X=banana Round=3
Trader 5: buy 213 banana
Trader 5: bought 213 banana @ 25.5
Trader 3: Cash=5.0e3 X=babaco Round=1
Trader 3: Cash=5.0e3 X=babaco Round=1
Trader 3: buy 117 babaco
Trader 3: buy 117 babaco
Trader 6: Cash=5.0e3 X=lime Round=1
Trader 6: Cash=5.0e3 X=lime Round=1
Trader 10: Cash=5.0e3 X=banana Round=1
Trader 10: Cash=5.0e3 X=banana Round=1
Trader 6: Cash=5.0e3 X=lime Round=1
Trader 6: Cash=5.0e3 X=lime Round=1
Trader 10: buy 203 banana
Trader 6: buy 252 lime
Trader 10: buy 203 banana
Trader 6: buy 252 lime
Trader 6: buy 252 lime
Trader 6: buy 252 lime
Trader 10: Cash=5.0e3 X=banana Round=1
Trader 10: Cash=5.0e3 X=banana Round=1
Trader 10: buy 197 banana
Trader 10: buy 197 banana
Trader 5: bought 145 apricot @ 34.35
Trader 3: bought 121 babaco @ 41.1
Trader 3: bought 121 babaco @ 41.1
Trader 10: bought 201 banana @ 24.8
Trader 3: Cash=5229.9 X=durian Round=2
Trader 10: bought 201 banana @ 24.8
Trader 5: bought 145 apricot @ 34.35
Trader 3: buy 236 durian
Trader 4: Cash=4794.2 X=coconut Round=3
Trader 10: Cash=5110.55 X=mango Round=2
Trader 4: buy 231 coconut
Trader 4: Cash=4794.2 X=coconut Round=3
Trader 10: buy 120 mango
Trader 4: buy 231 coconut
Trader 10: bought 203 banana @ 24.55
Trader 10: bought 197 banana @ 25.35
Trader 10: bought 197 banana @ 25.35
Trader 10: bought 203 banana @ 24.55
Trader 10: Cash=5050.75 X=mango Round=2
Trader 10: buy 118 mango
Trader 14: bought 117 mango @ 42.5
Trader 14: bought 117 mango @ 42.5
Trader 14: Cash=4809.875 X=apple Round=2
Trader 14: buy 1159 apple
Trader 14: Cash=4809.875 X=apple Round=2
Trader 14: bought 1159 apple @ 4.15
Trader 14: buy 1159 apple
Trader 14: bought 1159 apple @ 4.15
Trader 14: Cash=4867.825 X=banana Round=3
Trader 14: buy 196 banana
Trader 14: bought 117 mango @ 42.5
Trader 14: bought 196 banana @ 24.8
Trader 14: bought 117 mango @ 42.5
Trader 14: Cash=4809.875 X=apple Round=2
Trader 14: Cash=4809.875 X=apple Round=2
Trader 14: buy 1159 apple
Trader 14: Cash=4975.625 Down_Time=1040
Trader 14: buy 1159 apple
Trader 14: bought 1159 apple @ 4.15
Trader 14: bought 1159 apple @ 4.15
Trader 14: Cash=4867.825 X=banana Round=3
Trader 14: buy 196 banana
Trader 14: bought 196 banana @ 24.8
Trader 14: Cash=4975.625 Down_Time=1040
Trader 10: bought 203 banana @ 24.55
Trader 10: bought 203 banana @ 24.55
Trader 10: Cash=5050.75 X=mango Round=2
Trader 10: buy 118 mango
Trader 10: bought 118 mango @ 42.5
Trader 10: Cash=4859.0 X=orange Round=3
Trader 10: buy 63 orange
Trader 10: bought 120 mango @ 42.5
Trader 10: bought 63 orange @ 76.5
Trader 13: Cash=4692.5599999999995 X=banana Round=2
Trader 10: Cash=4915.55 X=orange Round=3
Trader 10: Cash=4674.41 Down_Time=1050
Trader 10: buy 64 orange
Trader 13: buy 189 banana
Trader 10: bought 64 orange @ 76.5
Trader 13: bought 189 banana @ 24.8
Trader 10: Cash=4728.03 Down_Time=1050
Trader 6: bought 252 lime @ 19.81
Trader 6: bought 252 lime @ 19.81
Trader 6: bought 252 lime @ 19.81
Trader 5: Cash=5268.25 X=apple Round=2
Trader 6: bought 252 lime @ 19.81
Trader 5: Cash=5268.25 X=apple Round=2
Trader 5: buy 1202 apple
Trader 13: Cash=4829.93 Down_Time=1050
Trader 5: buy 1202 apple
Trader 5: Cash=4851.950000000001 X=apple Round=2
Trader 5: buy 1085 apple
Trader 5: bought 1085 apple @ 4.47
Trader 6: bought 252 lime @ 19.81
Trader 6: bought 252 lime @ 19.81
Trader 5: bought 145 apricot @ 34.35
Trader 1: Cash=4912.700000000001 X=orange Round=3
Trader 1: Cash=4912.700000000001 X=orange Round=3
Trader 5: bought 145 apricot @ 34.35
Trader 1: buy 64 orange
Trader 1: buy 64 orange
Trader 1: bought 64 orange @ 76.5
Trader 1: bought 64 orange @ 76.5
Trader 3: bought 236 durian @ 22.1
Trader 5: Cash=5358.2 Down_Time=1230
Trader 1: Cash=4822.4 X=apricot Round=2
Trader 4: Cash=5022.259999999999 Down_Time=1460
Trader 5: Cash=5042.54 Down_Time=1460
Trader 11: Cash=5101.45 Down_Time=1460
Trader 12: Cash=4861.357999999999 Down_Time=1460
Trader 1: Cash=4822.4 X=apricot Round=2
Trader 1: buy 141 apricot
Trader 1: bought 141 apricot @ 34.2
Trader 4: bought 117 babaco @ 42.5
Trader 4: bought 117 babaco @ 42.5
Trader 4: Cash=4836.2 X=apricot Round=2
Trader 4: Cash=4836.2 X=apricot Round=2
Trader 4: buy 140 apricot
Trader 4: buy 140 apricot
Trader 4: bought 140 apricot @ 34.35
Trader 4: bought 140 apricot @ 34.35
Trader 1: Cash=4912.700000000001 X=orange Round=3
Trader 1: Cash=4912.700000000001 X=orange Round=3
Trader 1: buy 64 orange
Trader 1: buy 64 orange
Trader 1: bought 64 orange @ 76.5
Trader 1: bought 64 orange @ 76.5
Trader 13: Cash=4692.5599999999995 X=banana Round=2
Trader 13: buy 197 banana
Trader 13: bought 197 banana @ 23.7
Trader 13: Cash=4692.5599999999995 X=banana Round=2
Trader 13: buy 197 banana
Trader 13: bought 197 banana @ 23.7
Trader 15: Cash=5.0e3 X=cashew Round=1
Trader 15: Cash=5.0e3 X=cashew Round=1
Trader 15: buy 56 cashew
Trader 15: buy 56 cashew
Trader 15: Cash=5.0e3 X=cashew Round=1
Trader 15: Cash=5.0e3 X=cashew Round=1
Trader 15: buy 56 cashew
Trader 15: buy 56 cashew
Trader 14: Cash=5.0e3 X=mango Round=1
Trader 14: Cash=5.0e3 X=mango Round=1
Trader 14: Cash=5.0e3 X=mango Round=1
Trader 14: Cash=5.0e3 X=mango Round=1
Trader 14: Cash=5.0e3 X=mango Round=1
Trader 14: Cash=5.0e3 X=mango Round=1
Trader 14: buy 122 mango
Trader 14: Cash=5.0e3 X=mango Round=1
Trader 14: Cash=5.0e3 X=mango Round=1
Trader 14: buy 122 mango
Trader 14: buy 122 mango
Trader 14: buy 122 mango
Trader 14: buy 122 mango
Trader 14: buy 122 mango
Trader 14: buy 122 mango
Trader 14: buy 122 mango
Trader 4: Cash=5.0e3 X=babaco Round=1
Trader 4: Cash=5.0e3 X=babaco Round=1
Trader 4: buy 112 babaco
Trader 4: buy 112 babaco
Trader 4: bought 112 babaco @ 44.5
Trader 4: bought 112 babaco @ 44.5
Trader 4: Cash=5056.0 X=apricot Round=2
Trader 4: buy 148 apricot
Trader 4: bought 148 apricot @ 34.05
Trader 4: Cash=5122.6 X=coconut Round=3
Trader 4: buy 251 coconut
Trader 4: bought 251 coconut @ 20.4
Trader 15: Cash=5.0e3 X=cashew Round=1
Trader 15: Cash=5.0e3 X=cashew Round=1
Trader 15: buy 55 cashew
Trader 15: buy 55 cashew
Trader 15: bought 55 cashew @ 90
Trader 15: bought 55 cashew @ 90
Trader 15: Cash=4923.0 X=apple Round=2
Trader 15: buy 1101 apple
Trader 15: bought 1101 apple @ 4.47
Trader 15: Cash=4823.910000000001 X=mango Round=3
Trader 15: buy 120 mango
Trader 15: bought 120 mango @ 40.125
Trader 15: Cash=4876.470000000001 Down_Time=2030
Trader 14: bought 122 mango @ 40.875
Trader 14: bought 122 mango @ 40.875
Trader 14: bought 122 mango @ 40.875
Trader 14: bought 122 mango @ 40.875
Trader 14: Cash=4946.686000000001 X=apple Round=2
Trader 14: Cash=4946.686000000001 X=apple Round=2
Trader 14: buy 1191 apple
Trader 14: buy 1191 apple
Trader 14: bought 1191 apple @ 4.15
Trader 14: bought 1191 apple @ 4.15
Trader 14: Cash=5006.236 X=banana Round=3
Trader 14: Cash=5006.236 X=banana Round=3
Trader 14: buy 203 banana
Trader 14: buy 203 banana
Trader 14: bought 203 banana @ 24.55
Trader 14: bought 203 banana @ 24.55
Trader 14: Cash=5056.986 Down_Time=2050
Trader 14: Cash=5056.986 Down_Time=2050
Trader 14: bought 122 mango @ 40.875
Trader 14: bought 122 mango @ 40.875
Trader 14: bought 122 mango @ 40.875
Trader 14: bought 122 mango @ 40.875
Trader 14: Cash=4946.686000000001 X=apple Round=2
Trader 14: Cash=4946.686000000001 X=apple Round=2
Trader 14: buy 1191 apple
Trader 14: buy 1191 apple
Trader 14: bought 1191 apple @ 4.15
Trader 14: bought 1191 apple @ 4.15
Trader 14: Cash=5006.236 X=banana Round=3
Trader 14: Cash=5006.236 X=banana Round=3
Trader 14: buy 203 banana
Trader 14: buy 203 banana
Trader 14: bought 203 banana @ 24.55
Trader 14: bought 203 banana @ 24.55
Trader 14: Cash=5056.986 Down_Time=2060
Trader 14: Cash=5056.986 Down_Time=2060
Trader 13: Cash=5017.610000000001 X=lime Round=3
Trader 13: buy 253 lime
Trader 5: Cash=5268.25 X=apple Round=2
Trader 4: Cash=5095.2 X=coconut Round=3
Trader 13: Cash=5017.610000000001 X=lime Round=3
Trader 5: buy 1278 apple
Trader 4: Cash=5095.2 X=coconut Round=3
Trader 5: Cash=5268.25 X=apple Round=2
Trader 4: buy 245 coconut
Trader 13: buy 253 lime
Trader 5: bought 1278 apple @ 4.12
Trader 4: buy 245 coconut
Trader 5: buy 1278 apple
Trader 5: bought 1278 apple @ 4.12
Trader 5: Cash=5178.789999999999 X=banana Round=3
Trader 5: buy 204 banana
Trader 5: bought 204 banana @ 25.35
Trader 4: Cash=4997.1 Down_Time=2150
Trader 15: bought 56 cashew @ 88.3
Trader 15: bought 56 cashew @ 88.3
Trader 2: Cash=5162.400000000001 X=orange Round=2
Trader 2: Cash=5162.400000000001 X=orange Round=2
Trader 15: bought 56 cashew @ 88.3
Trader 15: bought 56 cashew @ 88.3
Trader 2: Cash=5162.400000000001 X=orange Round=2
Trader 2: buy 65 orange
Trader 2: buy 65 orange
Trader 2: Cash=5162.400000000001 X=orange Round=2
Trader 15: Cash=5145.6 X=apple Round=2
Trader 15: Cash=5145.6 X=apple Round=2
Trader 2: buy 65 orange
Trader 2: bought 65 orange @ 78.45
Trader 2: bought 65 orange @ 78.45
Trader 2: buy 65 orange
Trader 15: buy 1225 apple
Trader 15: buy 1225 apple
Trader 2: bought 65 orange @ 78.45
Trader 2: Cash=5035.650000000001 X=apple Round=3
Trader 2: Cash=5035.650000000001 X=apple Round=3
Trader 2: bought 65 orange @ 78.45
Trader 15: bought 1225 apple @ 4.2
Trader 15: bought 1225 apple @ 4.2
Trader 2: buy 1198 apple
Trader 2: buy 1198 apple
Trader 2: Cash=5035.650000000001 X=apple Round=3
Trader 2: buy 1222 apple
Trader 15: Cash=5047.6 X=mango Round=3
Trader 2: bought 1198 apple @ 4.2
Trader 2: bought 1198 apple @ 4.2
Trader 2: Cash=5035.650000000001 X=apple Round=3
Trader 15: buy 124 mango
Trader 15: Cash=5047.6 X=mango Round=3
Trader 2: bought 1222 apple @ 4.12
Trader 2: buy 1222 apple
Trader 15: buy 124 mango
Trader 15: bought 124 mango @ 40.438
Trader 2: bought 1222 apple @ 4.12
Trader 15: bought 124 mango @ 40.438
Trader 5: Cash=5715.549999999999 Down_Time=2350
Trader 13: Cash=4952.34 Down_Time=2350
Trader 12: Cash=5141.09 X=mango Round=3
Trader 12: buy 130 mango
Trader 12: bought 130 mango @ 39.407
Trader 1: Cash=4667.299999999999 X=orange Round=3
Trader 1: buy 62 orange
Trader 1: bought 62 orange @ 74.23
Trader 12: Cash=5425.400000000001 Down_Time=3310
Trader 1: Cash=4782.68 Down_Time=3310
Trader 15: Cash=5.0e3 X=cashew Round=1
Trader 15: Cash=5.0e3 X=cashew Round=1
Trader 15: buy 54 cashew
Trader 15: buy 54 cashew
Trader 15: bought 54 cashew @ 92
Trader 15: bought 54 cashew @ 92
Trader 15: Cash=4892.0 X=apple Round=2
Trader 15: buy 1277 apple
Trader 15: bought 1277 apple @ 3.83
Trader 15: Cash=4662.14 X=mango Round=3
Trader 15: buy 112 mango
Trader 15: bought 112 mango @ 41.3
Trader 15: Cash=5399.6 X=apple Round=2
Trader 15: buy 1451 apple
Trader 15: bought 1451 apple @ 3.72
Trader 15: Cash=4758.460000000001 Down_Time=5110
Trader 11: Cash=5.0e3 X=orange Round=1
Trader 11: Cash=5.0e3 X=orange Round=1
Trader 11: buy 71 orange
Trader 11: buy 71 orange
Trader 11: bought 71 orange @ 69.71
Trader 11: Cash=4823.92 X=banana Round=2
Trader 11: buy 186 banana
Trader 11: bought 186 banana @ 25.8
Trader 11: bought 71 orange @ 69.71
Trader 11: Cash=4823.92 X=banana Round=2
Trader 11: buy 186 banana
Trader 11: bought 186 banana @ 25.8
Trader 11: Cash=4889.0199999999995 X=apricot Round=3
Trader 11: buy 109 apricot
Trader 11: bought 109 apricot @ 44.8
Trader 11: Cash=5172.419999999999 Down_Time=8680
Trader 2: Cash=5.0e3 X=cashew Round=1
Trader 2: Cash=5.0e3 X=cashew Round=1
Trader 2: buy 37 cashew
Trader 2: buy 37 cashew
Trader 2: bought 37 cashew @ 133
Trader 2: bought 37 cashew @ 133
Trader 2: Cash=4741.0 X=orange Round=2
Trader 2: Cash=4741.0 X=orange Round=2
Trader 2: buy 71 orange
Trader 2: buy 71 orange
Trader 2: bought 71 orange @ 66.43
Trader 2: bought 71 orange @ 66.43
Trader 2: Cash=4792.12 X=apple Round=3
Trader 2: buy 1064 apple
Trader 2: bought 1064 apple @ 4.5
Trader 2: Cash=4845.32 Down_Time=18300
Trader 9: Cash=5.0e3 X=apricot Round=1
Trader 9: Cash=5.0e3 X=apricot Round=1
Trader 9: buy 120 apricot
Trader 9: buy 120 apricot
Trader 9: bought 120 apricot @ 41.6
Trader 9: bought 120 apricot @ 41.6
Trader 9: Cash=4.7e3 X=lime Round=2
Trader 9: Cash=4.7e3 X=lime Round=2
Trader 9: buy 197 lime
Trader 9: buy 197 lime
Trader 9: bought 197 lime @ 23.84
Trader 9: bought 197 lime @ 23.84
Trader 9: Cash=4625.14 X=coconut Round=3
Trader 9: buy 301 coconut
Trader 9: bought 301 coconut @ 15.32
Trader 9: Cash=4745.540000000001 Down_Time=35720
Trader 14: Cash=5.0e3 X=mango Round=1
Trader 14: Cash=5.0e3 X=mango Round=1
Trader 14: buy 117 mango
Trader 14: buy 117 mango
Trader 7: Cash=5.0e3 X=mango Round=1
Trader 7: buy 117 mango
Trader 7: Cash=5.0e3 X=mango Round=1
Trader 7: buy 117 mango
Trader 10: Cash=5.0e3 X=banana Round=1
Trader 10: buy 122 banana
Trader 10: Cash=5.0e3 X=banana Round=1
Trader 10: buy 122 banana
Trader 10: Cash=5.0e3 X=banana Round=1
Trader 10: Cash=5.0e3 X=banana Round=1
Trader 10: Cash=5.0e3 X=banana Round=1
Trader 10: Cash=5.0e3 X=banana Round=1
Trader 10: buy 122 banana
Trader 10: buy 122 banana
Trader 10: buy 122 banana
Trader 10: buy 122 banana
Trader 3: Cash=5.0e3 X=babaco Round=1
Trader 3: buy 194 babaco
Trader 10: bought 122 banana @ 40.9
Trader 10: Cash=4878.0 X=mango Round=2
Trader 3: Cash=5.0e3 X=babaco Round=1
Trader 14: bought 117 mango @ 42.7
Trader 3: buy 194 babaco
Trader 3: Cash=5.0e3 X=babaco Round=1
Trader 3: Cash=5.0e3 X=babaco Round=1
Trader 3: buy 194 babaco
Trader 3: buy 194 babaco
Trader 10: buy 113 mango
Trader 10: buy 113 mango
Trader 10: bought 113 mango @ 42.975
Trader 10: bought 113 mango @ 42.975
Trader 14: Cash=5105.299999999999 X=apple Round=2
Trader 14: Cash=5105.299999999999 X=apple Round=2
Trader 14: buy 572 apple
Trader 10: Cash=4948.625 X=orange Round=3
Trader 14: buy 572 apple
Trader 10: Cash=4948.625 X=orange Round=3
Trader 10: buy 66 orange
Trader 10: buy 66 orange
Trader 14: bought 117 mango @ 42.7
Trader 14: bought 117 mango @ 42.7
Trader 7: Cash=5.0e3 X=mango Round=1
Trader 7: buy 116 mango
Trader 7: Cash=5.0e3 X=mango Round=1
Trader 7: Cash=5.0e3 X=mango Round=1
Trader 7: Cash=5.0e3 X=mango Round=1
Trader 7: buy 116 mango
Trader 7: buy 116 mango
Trader 7: buy 116 mango
Trader 7: Cash=5.0e3 X=mango Round=1
Trader 10: bought 66 orange @ 74.44
Trader 7: buy 114 mango
Trader 7: Cash=5.0e3 X=mango Round=1
Trader 7: Cash=5.0e3 X=mango Round=1
Trader 7: Cash=5.0e3 X=mango Round=1
Trader 7: buy 114 mango
Trader 7: buy 114 mango
Trader 7: buy 114 mango
Trader 3: Cash=5.0e3 X=babaco Round=1
Trader 3: Cash=5.0e3 X=babaco Round=1
Trader 3: buy 194 babaco
Trader 3: Cash=5.0e3 X=babaco Round=1
Trader 3: buy 194 babaco
Trader 10: bought 122 banana @ 40.9
Trader 3: Cash=5.0e3 X=babaco Round=1
Trader 10: bought 122 banana @ 40.9
Trader 3: buy 194 babaco
Trader 3: buy 194 babaco
Trader 3: Cash=5.0e3 X=babaco Round=1
Trader 3: Cash=5.0e3 X=babaco Round=1
Trader 3: buy 194 babaco
Trader 3: Cash=5.0e3 X=babaco Round=1
Trader 3: buy 194 babaco
Trader 3: Cash=5.0e3 X=babaco Round=1
Trader 3: buy 194 babaco
Trader 3: buy 194 babaco
Trader 3: bought 194 babaco @ 25.7
Trader 3: bought 194 babaco @ 25.7
Trader 7: bought 116 mango @ 42.975
Trader 7: bought 116 mango @ 42.975
Trader 7: bought 116 mango @ 42.975
Trader 14: Cash=5105.299999999999 X=apple Round=2
Trader 7: bought 116 mango @ 42.975
Trader 14: Cash=5105.299999999999 X=apple Round=2
Trader 14: buy 572 apple
Trader 7: Cash=5072.5 X=apple Round=2
Trader 14: Cash=5105.299999999999 X=apple Round=2
Trader 14: buy 572 apple
Trader 14: Cash=5105.299999999999 X=apple Round=2
Trader 7: Cash=5072.5 X=apple Round=2
Trader 7: buy 569 apple
Trader 7: buy 569 apple
Trader 7: bought 114 mango @ 43.6
Trader 14: buy 572 apple
Trader 14: buy 572 apple
Trader 7: bought 114 mango @ 43.6
Trader 7: bought 114 mango @ 43.6
Trader 7: bought 114 mango @ 43.6
Trader 10: Cash=4878.0 X=mango Round=2
Trader 10: buy 114 mango
Trader 10: Cash=4878.0 X=mango Round=2
Trader 10: buy 114 mango
Trader 10: Cash=4878.0 X=mango Round=2
Trader 10: Cash=4878.0 X=mango Round=2
Trader 10: buy 114 mango
Trader 10: buy 114 mango
Trader 14: bought 572 apple @ 8.91
Trader 10: bought 66 orange @ 74.44
Trader 3: bought 194 babaco @ 25.7
Trader 14: Cash=5048.099999999999 X=banana Round=3
Trader 14: bought 572 apple @ 8.91
Trader 3: bought 194 babaco @ 25.7
Trader 14: buy 126 banana
Trader 3: Cash=5194.0 X=durian Round=2
Trader 14: bought 572 apple @ 8.91
Trader 14: Cash=5048.099999999999 X=banana Round=3
Trader 14: bought 126 banana @ 39.9
Trader 3: buy 346 durian
Trader 14: buy 126 banana
Trader 10: bought 66 orange @ 74.44
Trader 14: Cash=5048.099999999999 X=banana Round=3
Trader 14: bought 572 apple @ 8.91
Trader 3: bought 194 babaco @ 25.7
Trader 3: bought 346 durian @ 15
Trader 14: bought 126 banana @ 39.9
Trader 14: buy 126 banana
Trader 3: bought 194 babaco @ 25.7
Trader 14: Cash=5048.099999999999 X=banana Round=3
Trader 3: Cash=5162.86 X=mango Round=3
Trader 3: Cash=5194.0 X=durian Round=2
Trader 14: bought 126 banana @ 39.9
Trader 14: buy 126 banana
Trader 3: buy 346 durian
Trader 14: bought 572 apple @ 8.91
Trader 10: bought 122 banana @ 40.9
Trader 7: bought 569 apple @ 8.81
Trader 14: bought 572 apple @ 8.91
Trader 14: Cash=5048.099999999999 X=banana Round=3
Trader 3: buy 117 mango
Trader 3: bought 346 durian @ 15
Trader 14: buy 123 banana
Trader 14: Cash=5048.099999999999 X=banana Round=3
Trader 14: bought 126 banana @ 39.9
Trader 10: bought 122 banana @ 40.9
Trader 3: Cash=5162.86 X=mango Round=3
Trader 3: bought 117 mango @ 43.9
Trader 14: bought 572 apple @ 8.91
Trader 14: bought 572 apple @ 8.91
Trader 3: buy 117 mango
Trader 10: bought 122 banana @ 40.9
Trader 3: bought 194 babaco @ 25.7
Trader 10: bought 122 banana @ 40.9
Trader 7: bought 569 apple @ 8.81
Trader 14: bought 123 banana @ 39.9
Trader 14: Cash=5048.099999999999 X=banana Round=3
Trader 3: bought 194 babaco @ 25.7
Trader 3: bought 117 mango @ 43.9
Trader 3: Cash=5194.0 X=durian Round=2
Trader 14: buy 126 banana
Trader 14: Cash=5048.099999999999 X=banana Round=3
Trader 7: Cash=4974.349999999999 X=apple Round=2
Trader 14: buy 126 banana
Trader 3: Cash=5194.0 X=durian Round=2
Trader 3: buy 346 durian
Trader 14: bought 126 banana @ 39.9
Trader 14: buy 126 banana
Trader 7: buy 564 apple
Trader 14: bought 126 banana @ 39.9
Trader 3: buy 346 durian
Trader 3: bought 346 durian @ 15
Trader 7: bought 564 apple @ 8.81
Trader 14: bought 126 banana @ 39.9
Trader 3: Cash=5162.86 X=mango Round=3
Trader 3: bought 346 durian @ 15
Trader 3: buy 118 mango
Trader 3: Cash=5162.86 X=mango Round=3
Trader 3: bought 118 mango @ 43.6
Trader 3: buy 118 mango
Trader 3: bought 118 mango @ 43.6
Trader 3: bought 194 babaco @ 25.7
Trader 3: bought 194 babaco @ 25.7
Trader 10: bought 122 banana @ 40.9
Trader 3: bought 194 babaco @ 25.7
Trader 3: Cash=5194.0 X=durian Round=2
Trader 3: bought 194 babaco @ 25.7
Trader 3: buy 346 durian
Trader 3: Cash=5194.0 X=durian Round=2
Trader 10: bought 122 banana @ 40.9
Trader 3: bought 346 durian @ 15
Trader 3: buy 346 durian
Trader 3: bought 346 durian @ 15
Trader 3: Cash=5162.86 X=mango Round=3
Trader 3: buy 120 mango
Trader 3: Cash=5162.86 X=mango Round=3
Trader 3: buy 120 mango
Trader 7: bought 117 mango @ 42.7
Trader 3: bought 120 mango @ 42.7
Trader 10: bought 114 mango @ 42.7
Trader 14: bought 117 mango @ 42.975
Trader 7: bought 117 mango @ 42.975
Trader 7: bought 117 mango @ 42.975
Trader 14: bought 117 mango @ 43.6
Trader 3: bought 120 mango @ 42.7
Trader 7: Cash=5108.225 X=apple Round=2
Trader 10: bought 114 mango @ 42.975
Trader 3: Cash=5270.86 Down_Time=65440
Trader 14: bought 117 mango @ 43.6
Trader 7: buy 573 apple
Trader 10: Cash=5014.799999999999 X=orange Round=3
Trader 7: Cash=5108.225 X=apple Round=2
Trader 7: bought 117 mango @ 43.6
Trader 10: buy 67 orange
Trader 7: bought 573 apple @ 8.91
Trader 7: buy 573 apple
Trader 10: Cash=4983.449999999999 X=orange Round=3
Trader 10: bought 67 orange @ 74.44
Trader 3: Cash=5306.86 Down_Time=65440
Trader 7: bought 573 apple @ 8.91
Trader 14: bought 117 mango @ 43.9
Trader 10: buy 66 orange
Trader 7: Cash=4973.675 X=apple Round=2
Trader 7: Cash=5050.925 X=apricot Round=3
Trader 7: buy 558 apple
Trader 10: bought 66 orange @ 74.44
Trader 7: buy 103 apricot
Trader 7: bought 558 apple @ 8.91
Trader 7: bought 103 apricot @ 49
Trader 7: Cash=4917.875000000001 X=apricot Round=3
Trader 7: buy 100 apricot
Trader 7: bought 100 apricot @ 49
Trader 3: bought 194 babaco @ 25.7
Trader 3: bought 194 babaco @ 25.7
Trader 10: bought 122 banana @ 40.9
Trader 3: bought 194 babaco @ 25.7
Trader 3: bought 194 babaco @ 25.7
Trader 3: Cash=5194.0 X=durian Round=2
Trader 10: bought 122 banana @ 40.9
Trader 3: Cash=5194.0 X=durian Round=2
Trader 7: bought 117 mango @ 42.7
Trader 10: bought 114 mango @ 42.7
Trader 3: buy 346 durian
Trader 7: bought 117 mango @ 42.7
Trader 14: bought 117 mango @ 42.975
Trader 3: buy 346 durian
Trader 10: bought 114 mango @ 42.7
Trader 14: bought 117 mango @ 42.975
Trader 3: bought 346 durian @ 15
Trader 7: bought 117 mango @ 42.975
Trader 10: Cash=4980.6 X=orange Round=3
Trader 7: bought 117 mango @ 42.975
Trader 3: bought 346 durian @ 15
Trader 10: buy 66 orange
Trader 14: bought 117 mango @ 43.6
Trader 14: bought 117 mango @ 43.6
Trader 3: Cash=5162.86 X=mango Round=3
Trader 3: Cash=5162.86 X=mango Round=3
Trader 10: Cash=5014.799999999999 X=orange Round=3
Trader 10: bought 66 orange @ 74.44
Trader 3: buy 117 mango
Trader 3: buy 118 mango
Trader 10: buy 67 orange
Trader 3: bought 118 mango @ 43.6
Trader 3: bought 117 mango @ 43.9
Trader 10: bought 67 orange @ 74.44
Trader 3: Cash=5101.4349999999995 Down_Time=65450
Trader 3: Cash=5136.3099999999995 Down_Time=65510
Trader 7: Cash=5340.95 X=apricot Round=3
Trader 7: Cash=4974.349999999999 X=apple Round=2
Trader 7: buy 108 apricot
Trader 7: buy 564 apple
Trader 7: bought 108 apricot @ 49
Trader 7: bought 564 apple @ 8.81
Trader 7: Cash=5340.95 X=apricot Round=3
Trader 7: buy 108 apricot
Trader 7: bought 108 apricot @ 49
Trader 7: Cash=5442.35 X=apricot Round=3
Trader 7: Cash=5442.35 X=apricot Round=3
Trader 7: buy 111 apricot
Trader 7: buy 111 apricot
Trader 7: bought 111 apricot @ 49
Trader 7: bought 111 apricot @ 49
Trader 7: Cash=5303.15 Down_Time=65560
Trader 7: Cash=5303.15 Down_Time=65560
Trader 3: Cash=5101.4349999999995 Down_Time=65560
Trader 7: Cash=5403.5 Down_Time=65570
Trader 7: Cash=5403.5 Down_Time=65570
Trader 3: Cash=5136.3099999999995 Down_Time=65570
Trader 10: Cash=5079.12 Down_Time=65600
Trader 10: Cash=5046.8099999999995 Down_Time=65600
Trader 7: Cash=4882.875000000001 Down_Time=65600
Trader 14: Cash=4865.45 X=apple Round=2
Trader 14: buy 514 apple
Trader 14: bought 514 apple @ 9.46
Trader 10: Cash=5011.985000000001 Down_Time=65610
Trader 14: Cash=5174.099999999999 Down_Time=65610
sleep before finalize: [5174.099999999999,5011.985000000001,
                        5101.4349999999995,5303.15,4745.540000000001,4845.32,
                        5172.419999999999,4758.460000000001,4782.68,
                        5425.400000000001,4997.1,5358.2,5059.857000000001,
                        4748.4,5306.3499999999985]
finalize!
client_monitor: Start_Time=290, End_Time=67960, Start_Memory=826607456, End_Memory=829218432, Peak_Memory=842102192
client_monitor: 67670 ms, 2610976 bytes (end) / 15494736 bytes (peak)
process_allocator: Alive=16, Pending=[], Limit=1000000, Max=59, Retired=49
real 75.92
user 69.73
sys 39.81
make[2]: Leaving directory `/home/x/xiaojia/sn'
make[1]: Leaving directory `/home/x/xiaojia/sn'
