make[1]: Entering directory `/home/x/xiaojia/sn'
make test EVAL="test:st(10)."
make[2]: Entering directory `/home/x/xiaojia/sn'
rebar compile
==> sn (compile)
time -p erl -sname mynode -pa ebin +P 100000000 -eval "test:st(10)." -noinput +S 4:4
sn_app registered
memory_monitor registered
process_allocator registered
sn_server registered
client_monitor registered
Trader 1: Cash=5.0e3 X=lime Round=1
Trader 1: Cash=5.0e3 X=lime Round=1
Trader 1: buy 260 lime
Trader 1: buy 260 lime
Trader 10: Cash=5.0e3 X=cashew Round=1
Trader 10: buy 56 cashew
Trader 2: Cash=5.0e3 X=mango Round=1
Trader 2: buy 117 mango
Trader 10: Cash=5.0e3 X=cashew Round=1
Trader 2: Cash=5.0e3 X=mango Round=1
Trader 10: buy 56 cashew
Trader 2: buy 117 mango
Trader 10: bought 56 cashew @ 88
Trader 10: bought 56 cashew @ 88
Trader 1: bought 260 lime @ 19.21
Trader 2: bought 117 mango @ 42.594
Trader 1: bought 260 lime @ 19.21
Trader 2: bought 117 mango @ 42.594
Trader 1: bought 260 lime @ 19.21
Trader 1: bought 260 lime @ 19.21
Trader 1: Cash=5155.999999999999 X=mango Round=2
Trader 1: Cash=5155.999999999999 X=mango Round=2
Trader 1: buy 121 mango
Trader 1: buy 121 mango
Trader 1: bought 121 mango @ 42.5
Trader 1: bought 121 mango @ 42.5
Trader 9: Cash=5.0e3 X=mango Round=1
Trader 9: Cash=5.0e3 X=mango Round=1
Trader 9: Cash=5.0e3 X=mango Round=1
Trader 9: buy 117 mango
Trader 9: Cash=5.0e3 X=mango Round=1
Trader 1: Cash=4959.374999999999 X=babaco Round=3
Trader 9: buy 117 mango
Trader 9: buy 117 mango
Trader 2: Cash=4798.8769999999995 X=apple Round=2
Trader 1: Cash=4959.374999999999 X=babaco Round=3
Trader 2: Cash=4798.8769999999995 X=apple Round=2
Trader 9: buy 117 mango
Trader 1: buy 116 babaco
Trader 2: buy 1095 apple
Trader 1: buy 116 babaco
Trader 2: buy 1095 apple
Trader 3: Cash=5.0e3 X=orange Round=1
Trader 3: Cash=5.0e3 X=orange Round=1
Trader 3: Cash=5.0e3 X=orange Round=1
Trader 3: Cash=5.0e3 X=orange Round=1
Trader 3: buy 63 orange
Trader 3: buy 63 orange
Trader 3: buy 63 orange
Trader 3: buy 63 orange
Trader 1: bought 116 babaco @ 42.5
Trader 1: bought 116 babaco @ 42.5
Trader 1: bought 116 babaco @ 42.5
Trader 1: bought 116 babaco @ 42.5
Trader 2: bought 1000 apple @ 4.38
Trader 3: bought 63 orange @ 78.95
Trader 2: bought 1000 apple @ 4.38
Trader 3: bought 63 orange @ 78.95
Trader 2: Cash=4568.8769999999995 X=apricot Round=3
Trader 2: Cash=4568.8769999999995 X=apricot Round=3
Trader 2: buy 132 apricot
Trader 2: buy 132 apricot
Trader 2: bought 132 apricot @ 34.5
Trader 2: bought 132 apricot @ 34.5
Trader 3: bought 63 orange @ 78.95
Trader 2: bought 1000 apple @ 4.38
Trader 3: Cash=4968.5 X=mango Round=2
Trader 3: buy 121 mango
Trader 2: Cash=4568.8769999999995 X=apricot Round=3
Trader 2: buy 132 apricot
Trader 3: bought 121 mango @ 40.875
Trader 2: bought 1000 apple @ 4.38
Trader 2: bought 132 apricot @ 34.5
Trader 3: bought 63 orange @ 78.95
Trader 3: Cash=4915.6230000000005 X=apple Round=3
Trader 2: Cash=4568.8769999999995 X=apricot Round=3
Trader 3: buy 1184 apple
Trader 3: Cash=4968.5 X=mango Round=2
Trader 2: buy 132 apricot
Trader 3: bought 1000 apple @ 4.15
Trader 3: buy 121 mango
Trader 2: bought 132 apricot @ 34.5
Trader 3: Cash=4965.6230000000005 Down_Time=370
Trader 3: bought 121 mango @ 40.875
Trader 9: bought 117 mango @ 42.594
Trader 3: Cash=4915.6230000000005 X=apple Round=3
Trader 9: bought 117 mango @ 42.594
Trader 3: buy 1184 apple
Trader 3: bought 1000 apple @ 4.15
Trader 9: bought 117 mango @ 42.594
Trader 3: Cash=4965.6230000000005 Down_Time=370
Trader 9: bought 117 mango @ 42.594
Trader 8: Cash=5.0e3 X=orange Round=1
Trader 8: Cash=5.0e3 X=orange Round=1
Trader 7: Cash=5.0e3 X=durian Round=1
Trader 8: buy 63 orange
Trader 7: Cash=5.0e3 X=durian Round=1
Trader 8: buy 63 orange
Trader 7: buy 222 durian
Trader 7: buy 222 durian
Trader 2: Cash=5.0e3 X=mango Round=1
Trader 7: Cash=5.0e3 X=durian Round=1
Trader 2: Cash=5.0e3 X=mango Round=1
Trader 7: Cash=5.0e3 X=durian Round=1
Trader 2: buy 117 mango
Trader 7: buy 222 durian
Trader 7: Cash=5.0e3 X=durian Round=1
Trader 7: Cash=5.0e3 X=durian Round=1
Trader 2: buy 117 mango
Trader 2: Cash=5.0e3 X=mango Round=1
Trader 2: Cash=5.0e3 X=mango Round=1
Trader 7: buy 222 durian
Trader 7: buy 222 durian
Trader 7: buy 222 durian
Trader 2: buy 117 mango
Trader 2: buy 117 mango
Trader 8: bought 63 orange @ 78.45
Trader 8: bought 63 orange @ 78.45
Trader 8: Cash=4877.15 X=banana Round=2
Trader 8: buy 205 banana
Trader 2: bought 117 mango @ 42.5
Trader 2: bought 117 mango @ 42.5
Trader 9: Cash=4798.8769999999995 X=apple Round=2
Trader 9: Cash=4798.8769999999995 X=apple Round=2
Trader 9: buy 1095 apple
Trader 2: bought 117 mango @ 42.5
Trader 2: Cash=4809.875 X=apple Round=2
Trader 9: buy 1095 apple
Trader 2: bought 117 mango @ 42.5
Trader 2: Cash=4809.875 X=apple Round=2
Trader 2: buy 1098 apple
Trader 9: Cash=4798.8769999999995 X=apple Round=2
Trader 2: Cash=4809.875 X=apple Round=2
Trader 2: buy 1098 apple
Trader 9: Cash=4798.8769999999995 X=apple Round=2
Trader 2: Cash=4809.875 X=apple Round=2
Trader 9: buy 1095 apple
Trader 2: buy 1098 apple
Trader 9: buy 1095 apple
Trader 2: buy 1098 apple
Trader 8: Cash=4692.5599999999995 X=banana Round=2
Trader 8: buy 197 banana
Trader 7: bought 222 durian @ 22.3
Trader 7: bought 222 durian @ 22.3
Trader 7: Cash=4955.6 X=lime Round=2
Trader 7: buy 249 lime
Trader 7: bought 249 lime @ 19.86
Trader 7: Cash=4846.040000000002 X=mango Round=3
Trader 7: buy 118 mango
Trader 7: bought 118 mango @ 40.75
Trader 8: bought 197 banana @ 23.7
Trader 8: bought 205 banana @ 24.55
Trader 8: Cash=4928.4 X=lime Round=3
Trader 8: buy 248 lime
Trader 8: bought 248 lime @ 19.86
Trader 8: Cash=4819.280000000001 Down_Time=490
Trader 7: bought 222 durian @ 22.5
Trader 7: bought 222 durian @ 22.5
Trader 7: bought 222 durian @ 22.5
Trader 7: bought 222 durian @ 22.5
Trader 7: Cash=4955.6 X=lime Round=2
Trader 7: Cash=4955.6 X=lime Round=2
Trader 7: buy 250 lime
Trader 7: buy 250 lime
Trader 7: bought 250 lime @ 19.81
Trader 7: bought 250 lime @ 19.81
Trader 9: Cash=5.0e3 X=mango Round=1
Trader 9: Cash=5.0e3 X=mango Round=1
Trader 6: Cash=5.0e3 X=orange Round=1
Trader 9: buy 122 mango
Trader 6: Cash=5.0e3 X=orange Round=1
Trader 9: buy 122 mango
Trader 6: buy 65 orange
Trader 6: buy 65 orange
Trader 9: bought 0 apple @ 4.15
Trader 2: bought 1000 apple @ 4.38
Trader 9: Cash=4798.8769999999995 X=banana Round=3
Trader 9: bought 0 apple @ 4.15
Trader 2: Cash=4629.875 X=apricot Round=3
Trader 9: bought 0 apple @ 4.15
Trader 9: buy 202 banana
Trader 2: buy 134 apricot
Trader 4: Cash=5.0e3 X=apricot Round=1
Trader 9: Cash=4798.8769999999995 X=banana Round=3
Trader 4: buy 146 apricot
Trader 9: bought 202 banana @ 23.7
Trader 2: bought 134 apricot @ 34.5
Trader 9: buy 202 banana
Trader 4: Cash=5.0e3 X=apricot Round=1
Trader 2: bought 1000 apple @ 4.38
Trader 2: bought 1000 apple @ 4.38
Trader 4: buy 146 apricot
Trader 2: bought 1000 apple @ 4.38
Trader 9: bought 202 banana @ 23.7
Trader 2: Cash=4629.875 X=apricot Round=3
Trader 9: bought 0 apple @ 4.15
Trader 2: buy 134 apricot
Trader 2: Cash=4629.875 X=apricot Round=3
Trader 2: Cash=4629.875 X=apricot Round=3
Trader 2: bought 134 apricot @ 34.5
Trader 2: buy 134 apricot
Trader 2: buy 134 apricot
Trader 2: bought 134 apricot @ 34.5
Trader 2: bought 134 apricot @ 34.5
Trader 3: Cash=5.0e3 X=orange Round=1
Trader 4: Cash=5.0e3 X=apricot Round=1
Trader 3: Cash=5.0e3 X=orange Round=1
Trader 4: Cash=5.0e3 X=apricot Round=1
Trader 3: Cash=5.0e3 X=orange Round=1
Trader 3: Cash=5.0e3 X=orange Round=1
Trader 4: Cash=5.0e3 X=apricot Round=1
Trader 4: Cash=5.0e3 X=apricot Round=1
Trader 3: buy 63 orange
Trader 4: buy 144 apricot
Trader 3: buy 63 orange
Trader 4: buy 144 apricot
Trader 3: buy 63 orange
Trader 3: buy 63 orange
Trader 4: buy 144 apricot
Trader 4: buy 144 apricot
Trader 5: Cash=5.0e3 X=banana Round=1
Trader 5: Cash=5.0e3 X=banana Round=1
Trader 3: Cash=5.0e3 X=orange Round=1
Trader 4: Cash=5.0e3 X=apricot Round=1
Trader 3: Cash=5.0e3 X=orange Round=1
Trader 8: Cash=5.0e3 X=orange Round=1
Trader 4: Cash=5.0e3 X=apricot Round=1
Trader 8: Cash=5.0e3 X=orange Round=1
Trader 5: buy 203 banana
Trader 5: buy 203 banana
Trader 3: buy 63 orange
Trader 4: buy 145 apricot
Trader 3: buy 63 orange
Trader 8: buy 63 orange
Trader 4: buy 145 apricot
Trader 8: buy 63 orange
Trader 6: bought 65 orange @ 76.5
Trader 9: bought 122 mango @ 40.75
Trader 6: Cash=4809.549999999999 X=banana Round=2
Trader 6: bought 65 orange @ 76.5
Trader 6: buy 195 banana
Trader 9: bought 122 mango @ 40.75
Trader 6: Cash=4809.549999999999 X=banana Round=2
Trader 6: buy 195 banana
Trader 6: bought 195 banana @ 24.55
Trader 6: bought 195 banana @ 24.55
Trader 6: Cash=4858.299999999999 X=apricot Round=3
Trader 6: buy 142 apricot
Trader 6: bought 142 apricot @ 34.2
Trader 6: Cash=5142.299999999999 Down_Time=530
Trader 4: bought 146 apricot @ 34.2
Trader 4: Cash=5292.0 X=lime Round=2
Trader 4: buy 272 lime
Trader 4: bought 146 apricot @ 34.2
Trader 4: bought 272 lime @ 19.42
Trader 4: Cash=5292.0 X=lime Round=2
Trader 4: buy 272 lime
Trader 4: bought 272 lime @ 19.42
Trader 4: Cash=5243.039999999999 X=coconut Round=3
Trader 4: buy 250 coconut
Trader 4: bought 250 coconut @ 20.92
Trader 5: bought 203 banana @ 24.55
Trader 4: bought 145 apricot @ 34.35
Trader 5: bought 203 banana @ 24.55
Trader 4: bought 145 apricot @ 34.35
Trader 5: Cash=5050.75 X=mango Round=2
Trader 5: buy 123 mango
Trader 5: bought 123 mango @ 40.875
Trader 5: Cash=4996.999000000001 X=orange Round=3
Trader 5: buy 63 orange
Trader 7: Cash=4772.290000000002 Down_Time=570
Trader 2: Cash=4529.277 Down_Time=570
Trader 1: Cash=4796.974999999999 Down_Time=570
Trader 4: Cash=5.0e3 X=apricot Round=1
Trader 4: Cash=5.0e3 X=apricot Round=1
Trader 4: buy 144 apricot
Trader 4: buy 144 apricot
Trader 4: bought 144 apricot @ 34.7
Trader 4: bought 144 apricot @ 34.7
Trader 4: Cash=4928.0 X=lime Round=2
Trader 4: buy 255 lime
Trader 4: bought 255 lime @ 19.28
Trader 4: Cash=4827.2 X=lime Round=2
Trader 4: buy 250 lime
Trader 4: bought 250 lime @ 19.26
Trader 4: Cash=4894.849999999999 X=coconut Round=3
Trader 4: buy 246 coconut
Trader 4: bought 246 coconut @ 19.87
Trader 4: Cash=4976.029999999999 Down_Time=1070
Trader 10: Cash=5.0e3 X=cashew Round=1
Trader 10: Cash=5.0e3 X=cashew Round=1
Trader 10: buy 57 cashew
Trader 10: buy 57 cashew
Trader 10: bought 57 cashew @ 86.4
Trader 10: bought 57 cashew @ 86.4
Trader 10: Cash=5148.2 X=apple Round=2
Trader 10: buy 1183 apple
Trader 10: bought 1000 apple @ 4.35
Trader 10: Cash=5078.2 X=mango Round=3
Trader 10: buy 128 mango
Trader 10: bought 128 mango @ 39.407
Trader 10: Cash=5134.136 Down_Time=1480
Trader 8: Cash=5.0e3 X=orange Round=1
Trader 8: Cash=5.0e3 X=orange Round=1
Trader 8: buy 70 orange
Trader 8: buy 70 orange
Trader 8: bought 70 orange @ 70.58
Trader 8: bought 70 orange @ 70.58
Trader 8: Cash=4938.400000000001 X=banana Round=2
Trader 8: buy 200 banana
Trader 8: bought 200 banana @ 24.65
Trader 8: Cash=4908.400000000001 X=lime Round=3
Trader 8: buy 257 lime
Trader 8: bought 257 lime @ 19.07
Trader 8: Cash=5052.320000000001 Down_Time=2540
Trader 9: Cash=5.0e3 X=mango Round=1
Trader 9: Cash=5.0e3 X=mango Round=1
Trader 9: buy 112 mango
Trader 9: buy 112 mango
Trader 9: bought 112 mango @ 44.375
Trader 9: Cash=5091.84 X=apple Round=2
Trader 9: bought 112 mango @ 44.375
Trader 9: buy 1387 apple
Trader 9: bought 1000 apple @ 3.67
Trader 9: Cash=5171.84 X=banana Round=3
Trader 9: buy 198 banana
Trader 9: bought 198 banana @ 26.05
Trader 9: Cash=4963.94 Down_Time=6760
Trader 5: Cash=5.0e3 X=banana Round=1
Trader 5: Cash=5.0e3 X=banana Round=1
Trader 5: buy 172 banana
Trader 5: buy 172 banana
Trader 5: bought 172 banana @ 28.95
Trader 5: bought 172 banana @ 28.95
Trader 5: Cash=4974.200000000001 X=mango Round=2
Trader 5: buy 108 mango
Trader 5: bought 108 mango @ 45.875
Trader 5: Cash=5094.620000000001 X=orange Round=3
Trader 5: buy 76 orange
Trader 5: bought 76 orange @ 66.88
Trader 5: Cash=5060.420000000002 Down_Time=9180
sleep before finalize: [5060.420000000002,4963.94,5052.320000000001,5134.136,
                        4976.029999999999,4796.974999999999,4529.277,
                        4772.290000000002,5142.299999999999,
                        4965.6230000000005]
finalize!
client_monitor: Start_Time=270, End_Time=11850, Start_Memory=826655216, End_Memory=828794912, Peak_Memory=837187048
client_monitor: 11580 ms, 2139696 bytes (end) / 10531832 bytes (peak)
process_allocator: Alive=11, Pending=[], Limit=1000000, Max=43, Retired=12
real 27.05
user 14.84
sys 21.36
make[2]: Leaving directory `/home/x/xiaojia/sn'
make[1]: Leaving directory `/home/x/xiaojia/sn'
