make[1]: Entering directory `/home/x/xiaojia/sn'
make test EVAL="test:st(12)."
make[2]: Entering directory `/home/x/xiaojia/sn'
rebar compile
==> sn (compile)
time -p erl -sname mynode -pa ebin +P 100000000 -eval "test:st(12)." -noinput +S 4:4
sn_app registered
memory_monitor registered
process_allocator registered
sn_server registered
client_monitor registered
Trader 12: Cash=5.0e3 X=cashew Round=1
Trader 12: Cash=5.0e3 X=cashew Round=1
Trader 12: buy 56 cashew
Trader 12: buy 56 cashew
Trader 11: Cash=5.0e3 X=mango Round=1
Trader 11: buy 117 mango
Trader 11: Cash=5.0e3 X=mango Round=1
Trader 11: buy 117 mango
Trader 11: Cash=5.0e3 X=mango Round=1
Trader 11: Cash=5.0e3 X=mango Round=1
Trader 11: buy 117 mango
Trader 11: buy 117 mango
Trader 11: bought 117 mango @ 42.594
Trader 11: bought 117 mango @ 42.594
Trader 12: bought 56 cashew @ 88
Trader 11: bought 117 mango @ 42.594
Trader 12: bought 56 cashew @ 88
Trader 11: bought 117 mango @ 42.594
Trader 12: bought 56 cashew @ 88
Trader 12: bought 56 cashew @ 88
Trader 8: Cash=5.0e3 X=orange Round=1
Trader 8: Cash=5.0e3 X=orange Round=1
Trader 8: Cash=5.0e3 X=orange Round=1
Trader 8: Cash=5.0e3 X=orange Round=1
Trader 8: buy 63 orange
Trader 8: buy 63 orange
Trader 8: buy 63 orange
Trader 8: buy 63 orange
Trader 10: Cash=5.0e3 X=orange Round=1
Trader 10: Cash=5.0e3 X=orange Round=1
Trader 10: Cash=5.0e3 X=orange Round=1
Trader 10: Cash=5.0e3 X=orange Round=1
Trader 10: buy 63 orange
Trader 10: buy 63 orange
Trader 10: buy 63 orange
Trader 10: buy 63 orange
Trader 8: bought 63 orange @ 78.95
Trader 8: bought 63 orange @ 78.95
Trader 8: bought 63 orange @ 78.95
Trader 8: Cash=4968.5 X=banana Round=2
Trader 8: buy 209 banana
Trader 8: bought 63 orange @ 78.95
Trader 8: bought 209 banana @ 23.7
Trader 8: Cash=4968.5 X=banana Round=2
Trader 8: Cash=5146.15 X=apricot Round=3
Trader 8: buy 209 banana
Trader 8: buy 149 apricot
Trader 8: bought 209 banana @ 23.7
Trader 8: bought 149 apricot @ 34.5
Trader 8: Cash=5146.15 X=apricot Round=3
Trader 8: buy 149 apricot
Trader 8: bought 149 apricot @ 34.5
Trader 10: bought 63 orange @ 78.95
Trader 10: bought 63 orange @ 78.95
Trader 10: bought 63 orange @ 78.95
Trader 10: bought 63 orange @ 78.95
Trader 10: Cash=4968.5 X=banana Round=2
Trader 10: Cash=4968.5 X=banana Round=2
Trader 10: buy 209 banana
Trader 10: buy 209 banana
Trader 10: bought 209 banana @ 23.7
Trader 10: bought 209 banana @ 23.7
Trader 10: Cash=5146.15 X=lime Round=3
Trader 10: Cash=5146.15 X=lime Round=3
Trader 10: buy 267 lime
Trader 10: buy 267 lime
Trader 10: bought 267 lime @ 19.21
Trader 10: bought 267 lime @ 19.21
Trader 7: Cash=5.0e3 X=banana Round=1
Trader 7: Cash=5.0e3 X=banana Round=1
Trader 7: Cash=5.0e3 X=banana Round=1
Trader 7: Cash=5.0e3 X=banana Round=1
Trader 7: Cash=5.0e3 X=banana Round=1
Trader 7: Cash=5.0e3 X=banana Round=1
Trader 10: Cash=5306.3499999999985 Down_Time=540
Trader 7: Cash=5.0e3 X=banana Round=1
Trader 7: Cash=5.0e3 X=banana Round=1
Trader 10: Cash=5306.3499999999985 Down_Time=540
Trader 7: buy 210 banana
Trader 7: buy 203 banana
Trader 7: buy 203 banana
Trader 7: buy 210 banana
Trader 7: buy 210 banana
Trader 7: buy 203 banana
Trader 7: buy 203 banana
Trader 7: buy 210 banana
Trader 7: Cash=5.0e3 X=banana Round=1
Trader 7: buy 203 banana
Trader 7: Cash=5.0e3 X=banana Round=1
Trader 7: buy 203 banana
Trader 3: Cash=5.0e3 X=lime Round=1
Trader 3: Cash=5.0e3 X=lime Round=1
Trader 3: buy 252 lime
Trader 3: buy 252 lime
Trader 7: bought 203 banana @ 24.55
Trader 7: bought 203 banana @ 24.55
Trader 7: bought 203 banana @ 24.55
Trader 7: Cash=5050.75 X=mango Round=2
Trader 7: buy 118 mango
Trader 7: bought 203 banana @ 24.55
Trader 7: Cash=5050.75 X=mango Round=2
Trader 7: buy 118 mango
Trader 7: bought 203 banana @ 24.55
Trader 3: bought 252 lime @ 19.81
Trader 3: bought 252 lime @ 19.81
Trader 7: bought 203 banana @ 24.55
Trader 7: Cash=5050.75 X=mango Round=2
Trader 7: buy 118 mango
Trader 7: bought 118 mango @ 42.5
Trader 11: Cash=4798.8769999999995 X=apple Round=2
Trader 7: Cash=4859.0 X=orange Round=3
Trader 11: buy 1095 apple
Trader 7: buy 61 orange
Trader 7: bought 61 orange @ 78.45
Trader 7: Cash=4740.05 Down_Time=590
Trader 7: bought 118 mango @ 42.5
Trader 7: Cash=4859.0 X=orange Round=3
Trader 11: Cash=4798.8769999999995 X=apple Round=2
Trader 7: buy 61 orange
Trader 11: buy 1095 apple
Trader 7: bought 61 orange @ 78.45
Trader 7: Cash=4740.05 Down_Time=590
Trader 7: bought 118 mango @ 42.5
Trader 7: Cash=4859.0 X=orange Round=3
Trader 11: Cash=4798.8769999999995 X=apple Round=2
Trader 11: buy 1095 apple
Trader 7: buy 61 orange
Trader 7: bought 61 orange @ 78.45
Trader 7: Cash=4740.05 Down_Time=600
Trader 8: Cash=5101.45 Down_Time=640
Trader 12: Cash=5162.400000000001 X=apple Round=2
Trader 12: buy 1178 apple
Trader 8: Cash=5101.45 Down_Time=640
Trader 12: Cash=5162.400000000001 X=apple Round=2
Trader 12: buy 1178 apple
Trader 12: bought 1178 apple @ 4.38
Trader 12: Cash=4891.460000000001 X=mango Round=3
Trader 12: buy 120 mango
Trader 11: bought 1095 apple @ 4.2
Trader 12: bought 120 mango @ 40.438
Trader 11: Cash=4711.277 X=banana Round=3
Trader 11: buy 185 banana
Trader 11: bought 185 banana @ 25.35
Trader 12: bought 1178 apple @ 4.38
Trader 12: Cash=4950.360000000001 X=mango Round=3
Trader 11: bought 1095 apple @ 4.2
Trader 12: buy 122 mango
Trader 12: bought 122 mango @ 40.438
Trader 11: bought 1095 apple @ 4.38
Trader 11: Cash=4547.027 X=banana Round=3
Trader 11: buy 183 banana
Trader 11: bought 183 banana @ 24.8
Trader 11: Cash=4647.677 Down_Time=680
Trader 6: Cash=5.0e3 X=apricot Round=1
Trader 6: Cash=5.0e3 X=apricot Round=1
Trader 6: buy 146 apricot
Trader 6: buy 146 apricot
Trader 3: Cash=5.0e3 X=lime Round=1
Trader 3: Cash=5.0e3 X=lime Round=1
Trader 3: buy 252 lime
Trader 3: buy 252 lime
Trader 3: Cash=5.0e3 X=lime Round=1
Trader 3: Cash=5.0e3 X=lime Round=1
Trader 3: buy 252 lime
Trader 3: buy 252 lime
Trader 6: bought 146 apricot @ 34.2
Trader 6: Cash=5292.0 X=lime Round=2
Trader 6: buy 267 lime
Trader 6: bought 267 lime @ 19.81
Trader 6: bought 146 apricot @ 34.2
Trader 6: Cash=5292.0 X=lime Round=2
Trader 6: buy 267 lime
Trader 6: bought 267 lime @ 19.81
Trader 3: bought 252 lime @ 19.81
Trader 3: bought 252 lime @ 19.81
Trader 3: bought 252 lime @ 19.81
Trader 3: bought 252 lime @ 19.81
Trader 6: Cash=5187.870000000001 X=coconut Round=3
Trader 6: buy 249 coconut
Trader 6: bought 249 coconut @ 20.82
Trader 6: Cash=5145.54 Down_Time=790
Trader 3: Cash=4901.72 X=mango Round=2
Trader 11: Cash=4634.6269999999995 X=banana Round=3
Trader 11: Cash=4634.6269999999995 X=banana Round=3
Trader 11: buy 181 banana
Trader 3: buy 120 mango
Trader 11: buy 181 banana
Trader 11: bought 181 banana @ 25.5
Trader 3: bought 120 mango @ 40.657
Trader 11: bought 181 banana @ 25.5
Trader 3: Cash=4837.880000000001 X=babaco Round=3
Trader 3: buy 112 babaco
Trader 3: bought 112 babaco @ 43
Trader 3: Cash=4804.280000000002 Down_Time=810
Trader 3: Cash=5.0e3 X=lime Round=1
Trader 3: Cash=5.0e3 X=lime Round=1
Trader 3: buy 259 lime
Trader 3: buy 259 lime
Trader 9: Cash=5.0e3 X=durian Round=1
Trader 9: Cash=5.0e3 X=durian Round=1
Trader 9: buy 227 durian
Trader 9: buy 227 durian
Trader 3: bought 259 lime @ 19.24
Trader 3: bought 259 lime @ 19.24
Trader 8: Cash=5.0e3 X=orange Round=1
Trader 9: bought 227 durian @ 22
Trader 4: Cash=5.0e3 X=mango Round=1
Trader 8: buy 65 orange
Trader 4: buy 122 mango
Trader 8: Cash=5.0e3 X=orange Round=1
Trader 4: Cash=5.0e3 X=mango Round=1
Trader 9: bought 227 durian @ 22
Trader 8: buy 65 orange
Trader 4: buy 122 mango
Trader 9: Cash=5049.94 X=lime Round=2
Trader 9: buy 262 lime
Trader 9: bought 262 lime @ 19.24
Trader 8: bought 65 orange @ 76.5
Trader 4: bought 122 mango @ 40.875
Trader 8: Cash=4809.549999999999 X=banana Round=2
Trader 8: buy 189 banana
Trader 8: bought 65 orange @ 76.5
Trader 8: bought 189 banana @ 25.35
Trader 4: bought 122 mango @ 40.875
Trader 8: Cash=4809.549999999999 X=banana Round=2
Trader 4: Cash=4946.686000000001 X=apple Round=2
Trader 8: buy 189 banana
Trader 4: buy 1191 apple
Trader 8: bought 189 banana @ 25.35
Trader 4: bought 1191 apple @ 4.15
Trader 4: Cash=5006.236 X=apricot Round=3
Trader 4: buy 145 apricot
Trader 9: Cash=4856.99 X=lime Round=2
Trader 9: buy 252 lime
Trader 9: bought 252 lime @ 19.26
Trader 3: Cash=4940.43 X=mango Round=2
Trader 3: buy 122 mango
Trader 3: bought 122 mango @ 40.188
Trader 9: Cash=4989.680000000001 X=mango Round=3
Trader 9: buy 124 mango
Trader 9: bought 124 mango @ 40
Trader 9: Cash=4916.148000000001 Down_Time=1150
Trader 11: Cash=4516.977 Down_Time=1150
Trader 12: Cash=4912.174 Down_Time=1150
Trader 6: Cash=5.0e3 X=apricot Round=1
Trader 6: Cash=5.0e3 X=apricot Round=1
Trader 6: buy 149 apricot
Trader 6: buy 149 apricot
Trader 6: bought 149 apricot @ 33.4
Trader 6: bought 149 apricot @ 33.4
Trader 6: Cash=5096.85 X=lime Round=2
Trader 6: buy 268 lime
Trader 6: bought 268 lime @ 19.01
Trader 6: Cash=5177.25 X=coconut Round=3
Trader 6: buy 253 coconut
Trader 6: bought 253 coconut @ 20.4
Trader 6: Cash=5050.75 Down_Time=1400
Trader 1: Cash=5.0e3 X=babaco Round=1
Trader 1: Cash=5.0e3 X=babaco Round=1
Trader 1: buy 101 babaco
Trader 1: buy 101 babaco
Trader 1: bought 101 babaco @ 49.2
Trader 1: bought 101 babaco @ 49.2
Trader 1: Cash=5131.299999999999 X=apricot Round=2
Trader 1: buy 135 apricot
Trader 1: bought 135 apricot @ 38
Trader 1: Cash=4854.549999999999 X=coconut Round=3
Trader 1: buy 242 coconut
Trader 1: bought 242 coconut @ 20.02
Trader 1: Cash=4946.509999999998 Down_Time=2930
Trader 5: Cash=5.0e3 X=orange Round=1
Trader 5: Cash=5.0e3 X=orange Round=1
Trader 5: buy 69 orange
Trader 5: buy 69 orange
Trader 5: bought 69 orange @ 71.47
Trader 5: bought 69 orange @ 71.47
Trader 5: Cash=4895.12 X=mango Round=2
Trader 5: buy 112 mango
Trader 5: bought 112 mango @ 43.5
Trader 5: Cash=4993.12 X=apple Round=3
Trader 5: buy 1273 apple
Trader 5: bought 1200 apple @ 3.92
Trader 5: Cash=4693.12 Down_Time=7160
Trader 2: Cash=5.0e3 X=apricot Round=1
Trader 2: Cash=5.0e3 X=apricot Round=1
Trader 2: buy 94 apricot
Trader 2: buy 94 apricot
Trader 2: bought 94 apricot @ 52.8
Trader 2: Cash=4755.6 X=apple Round=2
Trader 2: buy 1056 apple
Trader 2: bought 1056 apple @ 4.5
Trader 2: bought 94 apricot @ 52.8
Trader 2: Cash=4755.6 X=apple Round=2
Trader 2: buy 1056 apple
Trader 2: bought 1056 apple @ 4.5
Trader 2: Cash=4808.400000000001 X=banana Round=3
Trader 2: buy 169 banana
Trader 2: bought 169 banana @ 28.45
Trader 2: Cash=4892.900000000001 Down_Time=14310
Trader 4: Cash=5.0e3 X=mango Round=1
Trader 4: Cash=5.0e3 X=mango Round=1
Trader 4: buy 109 mango
Trader 4: buy 109 mango
Trader 4: bought 109 mango @ 45.575
Trader 4: bought 109 mango @ 45.575
Trader 4: Cash=5061.585 X=apple Round=2
Trader 4: buy 1050 apple
Trader 4: bought 1050 apple @ 4.82
Trader 4: Cash=5355.585 X=apricot Round=3
Trader 4: buy 136 apricot
Trader 4: bought 136 apricot @ 39.1
Trader 4: Cash=5613.985 Down_Time=30050
Trader 10: Cash=5.0e3 X=orange Round=1
Trader 10: Cash=5.0e3 X=orange Round=1
Trader 10: buy 67 orange
Trader 10: buy 67 orange
Trader 10: bought 67 orange @ 74.16
Trader 10: bought 67 orange @ 74.16
Trader 10: Cash=5083.080000000001 X=banana Round=2
Trader 10: buy 126 banana
Trader 10: bought 126 banana @ 40.1
Trader 10: Cash=5297.28 X=lime Round=3
Trader 10: buy 178 lime
Trader 10: bought 178 lime @ 29.7
Trader 10: Cash=5234.9800000000005 Down_Time=46320
sleep before finalize: [5234.9800000000005,5613.985,4892.900000000001,4693.12,
                        4946.509999999998,5050.75,4516.977,4912.174,
                        4916.148000000001,4804.280000000002,4740.05,5101.45]
finalize!
client_monitor: Start_Time=350, End_Time=47010, Start_Memory=826605128, End_Memory=828831272, Peak_Memory=834006712
client_monitor: 46660 ms, 2226144 bytes (end) / 7401584 bytes (peak)
process_allocator: Alive=13, Pending=[], Limit=1000000, Max=23, Retired=19
real 77.32
user 48.78
sys 52.67
make[2]: Leaving directory `/home/x/xiaojia/sn'
make[1]: Leaving directory `/home/x/xiaojia/sn'
