make[1]: Entering directory `/home/x/xiaojia/sn'
make test EVAL="sim_test:fr(5,sim_cc)."
make[2]: Entering directory `/home/x/xiaojia/sn'
rebar compile
==> sn (compile)
time -p erl -sname mynode -pa ebin +P 100000000 -eval "sim_test:fr(5,sim_cc)." -noinput +S 4:4
Traveler 5: {5,{'IL','MA',57,['MA','BD','BY','MW']},sim_cc}
Traveler 4: {4,{'BS','PS',69,['PS','AZ','LN','RO']},sim_cc}
Traveler 3: {3,{'ME','RE',99,['RE','MA','MW','SI']},sim_cc}
Traveler 2: {2,{'BN','HU',73,['HU','JU','LN','MW']},sim_cc}
Traveler 1: {1,{'GM','RE',76,['RE','BD','BN','CO']},sim_cc}
Traveler 4: arrived by XZY
Traveler 3: arrived by XY
Traveler 1: arrived by XY
Traveler 2: arrived by XZY
all tickets sold out
Traveler 5: arrived by XZY
finalize: Ts=[{ticket,'IL','MA',57},
              {ticket,'GM','BD',63},
              {ticket,'BS','PS',69},
              {ticket,'BD','RE',18},
              {ticket,'BN','HU',73},
              {ticket,'ME','MA',39},
              {ticket,'MA','RE',65}]
real 2.75
user 0.77
sys 0.30
make[2]: Leaving directory `/home/x/xiaojia/sn'
make[1]: Leaving directory `/home/x/xiaojia/sn'
