make[1]: Entering directory `/home/x/xiaojia/sn'
make test EVAL="sim_test:fr(4,sim_cc)."
make[2]: Entering directory `/home/x/xiaojia/sn'
rebar compile
==> sn (compile)
time -p erl -sname mynode -pa ebin +P 100000000 -eval "sim_test:fr(4,sim_cc)." -noinput +S 4:4
Traveler 4: {4,{'BS','PS',69,['PS','AZ','LN','RO']},sim_cc}
Traveler 3: {3,{'ME','RE',99,['RE','MA','MW','SI']},sim_cc}
Traveler 2: {2,{'BN','HU',73,['HU','JU','LN','MW']},sim_cc}
Traveler 1: {1,{'GM','RE',76,['RE','BD','BN','CO']},sim_cc}
Traveler 4: arrived by XY
Traveler 2: arrived by XY
Traveler 3: arrived by XY
Traveler 1: arrived by XY
all tickets sold out
finalize: Ts=[{ticket,'ME','MA',39},
              {ticket,'MA','RE',65},
              {ticket,'GM','BD',63},
              {ticket,'BS','AZ',54},
              {ticket,'BN','JU',46},
              {ticket,'JU','HU',28},
              {ticket,'BD','RE',18},
              {ticket,'AZ','PS',16}]
real 2.41
user 0.71
sys 0.35
make[2]: Leaving directory `/home/x/xiaojia/sn'
make[1]: Leaving directory `/home/x/xiaojia/sn'
