make[1]: Entering directory `/home/x/xiaojia/sn'
make test EVAL="sim_test:fr(2,sim_gcc)."
make[2]: Entering directory `/home/x/xiaojia/sn'
rebar compile
==> sn (compile)
time -p erl -sname mynode -pa ebin +P 100000000 -eval "sim_test:fr(2,sim_gcc)." -noinput +S 4:4
Traveler 2: {2,{'BN','HU',73,['HU','JU','LN','MW']},sim_gcc}
Traveler 1: {1,{'GM','RE',76,['RE','BD','BN','CO']},sim_gcc}
Traveler 2: arrived by XY
Traveler 2: arrived by XY
Traveler 1: arrived by XY
Traveler 1: arrived by XY
all tickets sold out
all tickets sold out
all tickets sold out
Traveler 2: arrived by XZY
all tickets sold out
Traveler 2: arrived by XZY
stuck: Ts=[{1,tree,2,3,x},
           {2,tree,4,5,{color,<0.36.0>}},
           {3,tree,6,7,{color,<0.36.0>}},
           {4,leaf,
            [{ticket,'GM','BD',63},
             {ticket,'BD','RE',18},
             {ticket,'BN','JU',46},
             {ticket,'JU','HU',28}],
            {color,<0.37.0>}},
           {5,leaf,
            [{ticket,'BD','RE',18},
             {ticket,'GM','RE',76},
             {ticket,'BN','JU',46},
             {ticket,'JU','HU',28}],
            {color,<0.37.0>}},
           {6,leaf,
            [{ticket,'GM','BD',63},
             {ticket,'BD','RE',18},
             {ticket,'BN','HU',73}],
            {color,<0.37.0>}},
           {7,leaf,
            [{ticket,'BD','RE',18},
             {ticket,'BN','HU',73},
             {ticket,'GM','RE',76}],
            {color,<0.37.0>}}]
real 3.02
user 0.86
sys 0.33
make[2]: Leaving directory `/home/x/xiaojia/sn'
make[1]: Leaving directory `/home/x/xiaojia/sn'
